ARM GAS  C:\Users\CHUNGN~1\AppData\Local\Temp\ccAUT1Sz.s 			page 1


   1              		.syntax unified
   2              		.cpu cortex-m0
   3              		.fpu softvfp
   4              		.eabi_attribute 20, 1
   5              		.eabi_attribute 21, 1
   6              		.eabi_attribute 23, 3
   7              		.eabi_attribute 24, 1
   8              		.eabi_attribute 25, 1
   9              		.eabi_attribute 26, 1
  10              		.eabi_attribute 30, 1
  11              		.eabi_attribute 34, 0
  12              		.eabi_attribute 18, 4
  13              		.thumb
  14              		.syntax unified
  15              		.file	"i2c_user.c"
  16              		.text
  17              	.Ltext0:
  18              		.cfi_sections	.debug_frame
  19              		.section	.text.i2c_user_master_init,"ax",%progbits
  20              		.align	2
  21              		.global	i2c_user_master_init
  22              		.code	16
  23              		.thumb_func
  24              		.type	i2c_user_master_init, %function
  25              	i2c_user_master_init:
  26              	.LFB0:
  27              		.file 1 "myLib\\i2c_user\\i2c_user.c"
   1:myLib\i2c_user/i2c_user.c **** /* ========================================
   2:myLib\i2c_user/i2c_user.c ****  *
   3:myLib\i2c_user/i2c_user.c ****  * Copyright YOUR COMPANY, THE YEAR
   4:myLib\i2c_user/i2c_user.c ****  * All Rights Reserved
   5:myLib\i2c_user/i2c_user.c ****  * UNPUBLISHED, LICENSED SOFTWARE.
   6:myLib\i2c_user/i2c_user.c ****  *
   7:myLib\i2c_user/i2c_user.c ****  * CONFIDENTIAL AND PROPRIETARY INFORMATION
   8:myLib\i2c_user/i2c_user.c ****  * WHICH IS THE PROPERTY OF your company.
   9:myLib\i2c_user/i2c_user.c ****  *
  10:myLib\i2c_user/i2c_user.c ****  * ========================================
  11:myLib\i2c_user/i2c_user.c **** */
  12:myLib\i2c_user/i2c_user.c **** #include "i2c_user.h"
  13:myLib\i2c_user/i2c_user.c **** /*----------------------------------------*/
  14:myLib\i2c_user/i2c_user.c ****             /* MASTER MODE */
  15:myLib\i2c_user/i2c_user.c ****         /* Module name: I2CM */
  16:myLib\i2c_user/i2c_user.c **** /*----------------------------------------*/
  17:myLib\i2c_user/i2c_user.c **** static uint8_t i2c_slaveAdd;
  18:myLib\i2c_user/i2c_user.c **** 
  19:myLib\i2c_user/i2c_user.c **** /******************************************
  20:myLib\i2c_user/i2c_user.c **** * init slave address in master mode
  21:myLib\i2c_user/i2c_user.c **** ******************************************/
  22:myLib\i2c_user/i2c_user.c **** void i2c_user_master_init(uint8_t slaveAdd)
  23:myLib\i2c_user/i2c_user.c **** {
  28              		.loc 1 23 0
  29              		.cfi_startproc
  30              		@ args = 0, pretend = 0, frame = 0
  31              		@ frame_needed = 0, uses_anonymous_args = 0
  32              	.LVL0:
  33 0000 10B5     		push	{r4, lr}
  34              		.cfi_def_cfa_offset 8
ARM GAS  C:\Users\CHUNGN~1\AppData\Local\Temp\ccAUT1Sz.s 			page 2


  35              		.cfi_offset 4, -8
  36              		.cfi_offset 14, -4
  24:myLib\i2c_user/i2c_user.c ****     i2c_slaveAdd = slaveAdd;
  37              		.loc 1 24 0
  38 0002 024B     		ldr	r3, .L2
  39 0004 1870     		strb	r0, [r3]
  25:myLib\i2c_user/i2c_user.c ****     I2CM_Start();
  40              		.loc 1 25 0
  41 0006 FFF7FEFF 		bl	I2CM_Start
  42              	.LVL1:
  26:myLib\i2c_user/i2c_user.c **** }
  43              		.loc 1 26 0
  44              		@ sp needed
  45 000a 10BD     		pop	{r4, pc}
  46              	.L3:
  47              		.align	2
  48              	.L2:
  49 000c 00000000 		.word	.LANCHOR0
  50              		.cfi_endproc
  51              	.LFE0:
  52              		.size	i2c_user_master_init, .-i2c_user_master_init
  53              		.section	.text.i2c_user_master_writeByte,"ax",%progbits
  54              		.align	2
  55              		.global	i2c_user_master_writeByte
  56              		.code	16
  57              		.thumb_func
  58              		.type	i2c_user_master_writeByte, %function
  59              	i2c_user_master_writeByte:
  60              	.LFB1:
  27:myLib\i2c_user/i2c_user.c **** 
  28:myLib\i2c_user/i2c_user.c **** /******************************************
  29:myLib\i2c_user/i2c_user.c **** * master write 1 byte to slaver at address
  30:myLib\i2c_user/i2c_user.c **** * return error type
  31:myLib\i2c_user/i2c_user.c **** * example: i2c_user_master_writeByte(0x00, dataIn);
  32:myLib\i2c_user/i2c_user.c **** ******************************************/
  33:myLib\i2c_user/i2c_user.c **** I2CM_ErrorTypedef_t i2c_user_master_writeByte(uint8_t add, uint8_t byte)
  34:myLib\i2c_user/i2c_user.c **** {
  61              		.loc 1 34 0
  62              		.cfi_startproc
  63              		@ args = 0, pretend = 0, frame = 0
  64              		@ frame_needed = 0, uses_anonymous_args = 0
  65              	.LVL2:
  66 0000 70B5     		push	{r4, r5, r6, lr}
  67              		.cfi_def_cfa_offset 16
  68              		.cfi_offset 4, -16
  69              		.cfi_offset 5, -12
  70              		.cfi_offset 6, -8
  71              		.cfi_offset 14, -4
  72 0002 0500     		movs	r5, r0
  73 0004 0C00     		movs	r4, r1
  74              	.LVL3:
  35:myLib\i2c_user/i2c_user.c ****     I2CM_ErrorTypedef_t status = I2CM_I2C_MSTR_NO_ERROR;
  36:myLib\i2c_user/i2c_user.c ****     status = I2CM_I2CMasterSendStart(i2c_slaveAdd, I2CM_I2C_WRITE_XFER_MODE, 100);
  75              		.loc 1 36 0
  76 0006 094B     		ldr	r3, .L5
  77 0008 1878     		ldrb	r0, [r3]
  78              	.LVL4:
ARM GAS  C:\Users\CHUNGN~1\AppData\Local\Temp\ccAUT1Sz.s 			page 3


  79 000a 6422     		movs	r2, #100
  80 000c 0021     		movs	r1, #0
  81              	.LVL5:
  82 000e FFF7FEFF 		bl	I2CM_I2CMasterSendStart
  83              	.LVL6:
  37:myLib\i2c_user/i2c_user.c ****     status = I2CM_I2CMasterWriteByte(add, 100);
  84              		.loc 1 37 0
  85 0012 6421     		movs	r1, #100
  86 0014 2800     		movs	r0, r5
  87 0016 FFF7FEFF 		bl	I2CM_I2CMasterWriteByte
  88              	.LVL7:
  38:myLib\i2c_user/i2c_user.c ****     status = I2CM_I2CMasterWriteByte(byte, 100);
  89              		.loc 1 38 0
  90 001a 6421     		movs	r1, #100
  91 001c 2000     		movs	r0, r4
  92 001e FFF7FEFF 		bl	I2CM_I2CMasterWriteByte
  93              	.LVL8:
  39:myLib\i2c_user/i2c_user.c ****     status = I2CM_I2CMasterSendStop(100);
  94              		.loc 1 39 0
  95 0022 6420     		movs	r0, #100
  96 0024 FFF7FEFF 		bl	I2CM_I2CMasterSendStop
  97              	.LVL9:
  40:myLib\i2c_user/i2c_user.c ****     return status;
  41:myLib\i2c_user/i2c_user.c **** }
  98              		.loc 1 41 0
  99              		@ sp needed
 100 0028 70BD     		pop	{r4, r5, r6, pc}
 101              	.L6:
 102 002a C046     		.align	2
 103              	.L5:
 104 002c 00000000 		.word	.LANCHOR0
 105              		.cfi_endproc
 106              	.LFE1:
 107              		.size	i2c_user_master_writeByte, .-i2c_user_master_writeByte
 108              		.section	.text.i2c_user_master_readByte,"ax",%progbits
 109              		.align	2
 110              		.global	i2c_user_master_readByte
 111              		.code	16
 112              		.thumb_func
 113              		.type	i2c_user_master_readByte, %function
 114              	i2c_user_master_readByte:
 115              	.LFB2:
  42:myLib\i2c_user/i2c_user.c **** 
  43:myLib\i2c_user/i2c_user.c **** /******************************************
  44:myLib\i2c_user/i2c_user.c **** * master read 1 byte from slaver at address
  45:myLib\i2c_user/i2c_user.c **** * return error type
  46:myLib\i2c_user/i2c_user.c **** * example: i2c_user_master_readByte(0x00, &dataOut);
  47:myLib\i2c_user/i2c_user.c **** ******************************************/
  48:myLib\i2c_user/i2c_user.c **** I2CM_ErrorTypedef_t i2c_user_master_readByte(uint8_t add, uint8_t *byte)
  49:myLib\i2c_user/i2c_user.c **** {
 116              		.loc 1 49 0
 117              		.cfi_startproc
 118              		@ args = 0, pretend = 0, frame = 0
 119              		@ frame_needed = 0, uses_anonymous_args = 0
 120              	.LVL10:
 121 0000 70B5     		push	{r4, r5, r6, lr}
 122              		.cfi_def_cfa_offset 16
ARM GAS  C:\Users\CHUNGN~1\AppData\Local\Temp\ccAUT1Sz.s 			page 4


 123              		.cfi_offset 4, -16
 124              		.cfi_offset 5, -12
 125              		.cfi_offset 6, -8
 126              		.cfi_offset 14, -4
 127 0002 0600     		movs	r6, r0
 128 0004 0D00     		movs	r5, r1
 129              	.LVL11:
  50:myLib\i2c_user/i2c_user.c ****     I2CM_ErrorTypedef_t status = I2CM_I2C_MSTR_NO_ERROR;
  51:myLib\i2c_user/i2c_user.c ****     status = I2CM_I2CMasterSendStart(i2c_slaveAdd, I2CM_I2C_WRITE_XFER_MODE, 100);
 130              		.loc 1 51 0
 131 0006 0C4C     		ldr	r4, .L8
 132 0008 2078     		ldrb	r0, [r4]
 133              	.LVL12:
 134 000a 6422     		movs	r2, #100
 135 000c 0021     		movs	r1, #0
 136              	.LVL13:
 137 000e FFF7FEFF 		bl	I2CM_I2CMasterSendStart
 138              	.LVL14:
  52:myLib\i2c_user/i2c_user.c ****     status = I2CM_I2CMasterWriteByte(add, 100);
 139              		.loc 1 52 0
 140 0012 6421     		movs	r1, #100
 141 0014 3000     		movs	r0, r6
 142 0016 FFF7FEFF 		bl	I2CM_I2CMasterWriteByte
 143              	.LVL15:
  53:myLib\i2c_user/i2c_user.c ****     status = I2CM_I2CMasterSendRestart(i2c_slaveAdd, I2CM_I2C_READ_XFER_MODE, 100);
 144              		.loc 1 53 0
 145 001a 2078     		ldrb	r0, [r4]
 146 001c 6422     		movs	r2, #100
 147 001e 0121     		movs	r1, #1
 148 0020 FFF7FEFF 		bl	I2CM_I2CMasterSendRestart
 149              	.LVL16:
  54:myLib\i2c_user/i2c_user.c ****     status = I2CM_I2CMasterReadByte(I2CM_I2C_NAK_DATA, byte, 100);
 150              		.loc 1 54 0
 151 0024 6422     		movs	r2, #100
 152 0026 2900     		movs	r1, r5
 153 0028 0120     		movs	r0, #1
 154 002a FFF7FEFF 		bl	I2CM_I2CMasterReadByte
 155              	.LVL17:
  55:myLib\i2c_user/i2c_user.c ****     status = I2CM_I2CMasterSendStop(100);
 156              		.loc 1 55 0
 157 002e 6420     		movs	r0, #100
 158 0030 FFF7FEFF 		bl	I2CM_I2CMasterSendStop
 159              	.LVL18:
  56:myLib\i2c_user/i2c_user.c ****     return status;
  57:myLib\i2c_user/i2c_user.c **** }
 160              		.loc 1 57 0
 161              		@ sp needed
 162              	.LVL19:
 163 0034 70BD     		pop	{r4, r5, r6, pc}
 164              	.L9:
 165 0036 C046     		.align	2
 166              	.L8:
 167 0038 00000000 		.word	.LANCHOR0
 168              		.cfi_endproc
 169              	.LFE2:
 170              		.size	i2c_user_master_readByte, .-i2c_user_master_readByte
 171              		.section	.text.i2c_user_master_writeData,"ax",%progbits
ARM GAS  C:\Users\CHUNGN~1\AppData\Local\Temp\ccAUT1Sz.s 			page 5


 172              		.align	2
 173              		.global	i2c_user_master_writeData
 174              		.code	16
 175              		.thumb_func
 176              		.type	i2c_user_master_writeData, %function
 177              	i2c_user_master_writeData:
 178              	.LFB3:
  58:myLib\i2c_user/i2c_user.c **** 
  59:myLib\i2c_user/i2c_user.c **** /******************************************
  60:myLib\i2c_user/i2c_user.c **** * master write data typedef to slaver at address
  61:myLib\i2c_user/i2c_user.c **** * return error type
  62:myLib\i2c_user/i2c_user.c **** * example: 
  63:myLib\i2c_user/i2c_user.c **** *         - dataTypedef_t dataIn;
  64:myLib\i2c_user/i2c_user.c **** *         - i2c_user_master_writeData(0x00, (dataTypedef_t)&dataIn, sizeof(dataIn));
  65:myLib\i2c_user/i2c_user.c **** ******************************************/
  66:myLib\i2c_user/i2c_user.c **** I2CM_ErrorTypedef_t i2c_user_master_writeData(uint8_t add, void *dataTx, uint32_t sizeData)
  67:myLib\i2c_user/i2c_user.c **** {
 179              		.loc 1 67 0
 180              		.cfi_startproc
 181              		@ args = 0, pretend = 0, frame = 0
 182              		@ frame_needed = 0, uses_anonymous_args = 0
 183              	.LVL20:
 184 0000 70B5     		push	{r4, r5, r6, lr}
 185              		.cfi_def_cfa_offset 16
 186              		.cfi_offset 4, -16
 187              		.cfi_offset 5, -12
 188              		.cfi_offset 6, -8
 189              		.cfi_offset 14, -4
 190 0002 0400     		movs	r4, r0
 191 0004 0E00     		movs	r6, r1
 192 0006 1500     		movs	r5, r2
 193              	.LVL21:
  68:myLib\i2c_user/i2c_user.c ****     I2CM_ErrorTypedef_t status = I2CM_I2C_MSTR_NO_ERROR;
  69:myLib\i2c_user/i2c_user.c ****     uint32_t len;
  70:myLib\i2c_user/i2c_user.c ****     uint8_t *p;
  71:myLib\i2c_user/i2c_user.c ****     p = (uint8_t*)dataTx;
  72:myLib\i2c_user/i2c_user.c ****     status = I2CM_I2CMasterSendStart(i2c_slaveAdd, I2CM_I2C_WRITE_XFER_MODE, 100);
 194              		.loc 1 72 0
 195 0008 0B4B     		ldr	r3, .L13
 196 000a 1878     		ldrb	r0, [r3]
 197              	.LVL22:
 198 000c 6422     		movs	r2, #100
 199              	.LVL23:
 200 000e 0021     		movs	r1, #0
 201              	.LVL24:
 202 0010 FFF7FEFF 		bl	I2CM_I2CMasterSendStart
 203              	.LVL25:
  73:myLib\i2c_user/i2c_user.c ****     status = I2CM_I2CMasterWriteByte(add, 100);
 204              		.loc 1 73 0
 205 0014 6421     		movs	r1, #100
 206 0016 2000     		movs	r0, r4
 207 0018 FFF7FEFF 		bl	I2CM_I2CMasterWriteByte
 208              	.LVL26:
  74:myLib\i2c_user/i2c_user.c ****     for(len = 0; len < sizeData; len++)
 209              		.loc 1 74 0
 210 001c 0024     		movs	r4, #0
 211 001e 04E0     		b	.L11
ARM GAS  C:\Users\CHUNGN~1\AppData\Local\Temp\ccAUT1Sz.s 			page 6


 212              	.LVL27:
 213              	.L12:
  75:myLib\i2c_user/i2c_user.c ****     {
  76:myLib\i2c_user/i2c_user.c ****         status = I2CM_I2CMasterWriteByte(p[len], 100);
 214              		.loc 1 76 0 discriminator 3
 215 0020 305D     		ldrb	r0, [r6, r4]
 216 0022 6421     		movs	r1, #100
 217 0024 FFF7FEFF 		bl	I2CM_I2CMasterWriteByte
 218              	.LVL28:
  74:myLib\i2c_user/i2c_user.c ****     for(len = 0; len < sizeData; len++)
 219              		.loc 1 74 0 discriminator 3
 220 0028 0134     		adds	r4, r4, #1
 221              	.LVL29:
 222              	.L11:
  74:myLib\i2c_user/i2c_user.c ****     for(len = 0; len < sizeData; len++)
 223              		.loc 1 74 0 is_stmt 0 discriminator 1
 224 002a AC42     		cmp	r4, r5
 225 002c F8D3     		bcc	.L12
  77:myLib\i2c_user/i2c_user.c ****     }
  78:myLib\i2c_user/i2c_user.c ****     status = I2CM_I2CMasterSendStop(100);
 226              		.loc 1 78 0 is_stmt 1
 227 002e 6420     		movs	r0, #100
 228 0030 FFF7FEFF 		bl	I2CM_I2CMasterSendStop
 229              	.LVL30:
  79:myLib\i2c_user/i2c_user.c ****     return status;
  80:myLib\i2c_user/i2c_user.c **** }
 230              		.loc 1 80 0
 231              		@ sp needed
 232              	.LVL31:
 233              	.LVL32:
 234              	.LVL33:
 235 0034 70BD     		pop	{r4, r5, r6, pc}
 236              	.L14:
 237 0036 C046     		.align	2
 238              	.L13:
 239 0038 00000000 		.word	.LANCHOR0
 240              		.cfi_endproc
 241              	.LFE3:
 242              		.size	i2c_user_master_writeData, .-i2c_user_master_writeData
 243              		.section	.text.i2c_user_master_readData,"ax",%progbits
 244              		.align	2
 245              		.global	i2c_user_master_readData
 246              		.code	16
 247              		.thumb_func
 248              		.type	i2c_user_master_readData, %function
 249              	i2c_user_master_readData:
 250              	.LFB4:
  81:myLib\i2c_user/i2c_user.c **** 
  82:myLib\i2c_user/i2c_user.c **** /******************************************
  83:myLib\i2c_user/i2c_user.c **** * master read data typedef from slaver at address
  84:myLib\i2c_user/i2c_user.c **** * return error type
  85:myLib\i2c_user/i2c_user.c **** * example: 
  86:myLib\i2c_user/i2c_user.c **** *         - dataTypedef_t dataOut;
  87:myLib\i2c_user/i2c_user.c **** *         - i2c_user_master_readData(0x00, (dataTypedef_t)&dataOut, sizeof(dataOut));
  88:myLib\i2c_user/i2c_user.c **** ******************************************/
  89:myLib\i2c_user/i2c_user.c **** I2CM_ErrorTypedef_t i2c_user_master_readData(uint8_t add, void *dataRx, uint32_t sizeData)
  90:myLib\i2c_user/i2c_user.c **** {
ARM GAS  C:\Users\CHUNGN~1\AppData\Local\Temp\ccAUT1Sz.s 			page 7


 251              		.loc 1 90 0
 252              		.cfi_startproc
 253              		@ args = 0, pretend = 0, frame = 0
 254              		@ frame_needed = 0, uses_anonymous_args = 0
 255              	.LVL34:
 256 0000 F8B5     		push	{r3, r4, r5, r6, r7, lr}
 257              		.cfi_def_cfa_offset 24
 258              		.cfi_offset 3, -24
 259              		.cfi_offset 4, -20
 260              		.cfi_offset 5, -16
 261              		.cfi_offset 6, -12
 262              		.cfi_offset 7, -8
 263              		.cfi_offset 14, -4
 264 0002 0700     		movs	r7, r0
 265 0004 0D00     		movs	r5, r1
 266 0006 1600     		movs	r6, r2
 267              	.LVL35:
  91:myLib\i2c_user/i2c_user.c ****     I2CM_ErrorTypedef_t status = I2CM_I2C_MSTR_NO_ERROR;
  92:myLib\i2c_user/i2c_user.c ****     uint32_t len;
  93:myLib\i2c_user/i2c_user.c ****     uint8_t *p;
  94:myLib\i2c_user/i2c_user.c ****     p = (uint8_t*)dataRx;
  95:myLib\i2c_user/i2c_user.c ****     status = I2CM_I2CMasterSendStart(i2c_slaveAdd, I2CM_I2C_WRITE_XFER_MODE, 100);
 268              		.loc 1 95 0
 269 0008 114C     		ldr	r4, .L18
 270 000a 2078     		ldrb	r0, [r4]
 271              	.LVL36:
 272 000c 6422     		movs	r2, #100
 273              	.LVL37:
 274 000e 0021     		movs	r1, #0
 275              	.LVL38:
 276 0010 FFF7FEFF 		bl	I2CM_I2CMasterSendStart
 277              	.LVL39:
  96:myLib\i2c_user/i2c_user.c ****     status = I2CM_I2CMasterWriteByte(add, 100);
 278              		.loc 1 96 0
 279 0014 6421     		movs	r1, #100
 280 0016 3800     		movs	r0, r7
 281 0018 FFF7FEFF 		bl	I2CM_I2CMasterWriteByte
 282              	.LVL40:
  97:myLib\i2c_user/i2c_user.c ****     status = I2CM_I2CMasterSendRestart(i2c_slaveAdd, I2CM_I2C_READ_XFER_MODE, 100);
 283              		.loc 1 97 0
 284 001c 2078     		ldrb	r0, [r4]
 285 001e 6422     		movs	r2, #100
 286 0020 0121     		movs	r1, #1
 287 0022 FFF7FEFF 		bl	I2CM_I2CMasterSendRestart
 288              	.LVL41:
  98:myLib\i2c_user/i2c_user.c ****     for(len = 0; len < sizeData-1; len++)
 289              		.loc 1 98 0
 290 0026 0024     		movs	r4, #0
 291 0028 05E0     		b	.L16
 292              	.LVL42:
 293              	.L17:
  99:myLib\i2c_user/i2c_user.c ****     {
 100:myLib\i2c_user/i2c_user.c ****         status = I2CM_I2CMasterReadByte(I2CM_I2C_ACK_DATA, &p[len], 100);
 294              		.loc 1 100 0 discriminator 3
 295 002a 2919     		adds	r1, r5, r4
 296 002c 6422     		movs	r2, #100
 297 002e 0020     		movs	r0, #0
ARM GAS  C:\Users\CHUNGN~1\AppData\Local\Temp\ccAUT1Sz.s 			page 8


 298 0030 FFF7FEFF 		bl	I2CM_I2CMasterReadByte
 299              	.LVL43:
  98:myLib\i2c_user/i2c_user.c ****     for(len = 0; len < sizeData-1; len++)
 300              		.loc 1 98 0 discriminator 3
 301 0034 0134     		adds	r4, r4, #1
 302              	.LVL44:
 303              	.L16:
  98:myLib\i2c_user/i2c_user.c ****     for(len = 0; len < sizeData-1; len++)
 304              		.loc 1 98 0 is_stmt 0 discriminator 1
 305 0036 731E     		subs	r3, r6, #1
 306 0038 9C42     		cmp	r4, r3
 307 003a F6D3     		bcc	.L17
 101:myLib\i2c_user/i2c_user.c ****     }
 102:myLib\i2c_user/i2c_user.c ****     status = I2CM_I2CMasterReadByte(I2CM_I2C_NAK_DATA, &p[len], 100);
 308              		.loc 1 102 0 is_stmt 1
 309 003c 2919     		adds	r1, r5, r4
 310 003e 6422     		movs	r2, #100
 311 0040 0120     		movs	r0, #1
 312 0042 FFF7FEFF 		bl	I2CM_I2CMasterReadByte
 313              	.LVL45:
 103:myLib\i2c_user/i2c_user.c ****     status = I2CM_I2CMasterSendStop(100);
 314              		.loc 1 103 0
 315 0046 6420     		movs	r0, #100
 316 0048 FFF7FEFF 		bl	I2CM_I2CMasterSendStop
 317              	.LVL46:
 104:myLib\i2c_user/i2c_user.c ****     return status;
 105:myLib\i2c_user/i2c_user.c **** }
 318              		.loc 1 105 0
 319              		@ sp needed
 320              	.LVL47:
 321              	.LVL48:
 322              	.LVL49:
 323 004c F8BD     		pop	{r3, r4, r5, r6, r7, pc}
 324              	.L19:
 325 004e C046     		.align	2
 326              	.L18:
 327 0050 00000000 		.word	.LANCHOR0
 328              		.cfi_endproc
 329              	.LFE4:
 330              		.size	i2c_user_master_readData, .-i2c_user_master_readData
 331              		.bss
 332              		.set	.LANCHOR0,. + 0
 333              		.type	i2c_slaveAdd, %object
 334              		.size	i2c_slaveAdd, 1
 335              	i2c_slaveAdd:
 336 0000 00       		.space	1
 337              		.text
 338              	.Letext0:
 339              		.file 2 "c:\\program files (x86)\\cypress\\psoc creator\\4.2\\psoc creator\\import\\gnu\\arm\\5.4.
 340              		.file 3 "c:\\program files (x86)\\cypress\\psoc creator\\4.2\\psoc creator\\import\\gnu\\arm\\5.4.
 341              		.file 4 "myLib\\i2c_user\\i2c_user.h"
 342              		.file 5 "Generated_Source\\PSoC4/I2CM.h"
 343              		.file 6 "Generated_Source\\PSoC4/I2CM_I2C.h"
 344              		.section	.debug_info,"",%progbits
 345              	.Ldebug_info0:
 346 0000 91040000 		.4byte	0x491
 347 0004 0400     		.2byte	0x4
ARM GAS  C:\Users\CHUNGN~1\AppData\Local\Temp\ccAUT1Sz.s 			page 9


 348 0006 00000000 		.4byte	.Ldebug_abbrev0
 349 000a 04       		.byte	0x4
 350 000b 01       		.uleb128 0x1
 351 000c E9010000 		.4byte	.LASF36
 352 0010 0C       		.byte	0xc
 353 0011 53010000 		.4byte	.LASF37
 354 0015 23000000 		.4byte	.LASF38
 355 0019 00000000 		.4byte	.Ldebug_ranges0+0
 356 001d 00000000 		.4byte	0
 357 0021 00000000 		.4byte	.Ldebug_line0
 358 0025 02       		.uleb128 0x2
 359 0026 01       		.byte	0x1
 360 0027 06       		.byte	0x6
 361 0028 D3020000 		.4byte	.LASF0
 362 002c 03       		.uleb128 0x3
 363 002d 00000000 		.4byte	.LASF5
 364 0031 02       		.byte	0x2
 365 0032 1D       		.byte	0x1d
 366 0033 37000000 		.4byte	0x37
 367 0037 02       		.uleb128 0x2
 368 0038 01       		.byte	0x1
 369 0039 08       		.byte	0x8
 370 003a 6D010000 		.4byte	.LASF1
 371 003e 02       		.uleb128 0x2
 372 003f 02       		.byte	0x2
 373 0040 05       		.byte	0x5
 374 0041 93020000 		.4byte	.LASF2
 375 0045 02       		.uleb128 0x2
 376 0046 02       		.byte	0x2
 377 0047 07       		.byte	0x7
 378 0048 26010000 		.4byte	.LASF3
 379 004c 02       		.uleb128 0x2
 380 004d 04       		.byte	0x4
 381 004e 05       		.byte	0x5
 382 004f BE020000 		.4byte	.LASF4
 383 0053 03       		.uleb128 0x3
 384 0054 9A010000 		.4byte	.LASF6
 385 0058 02       		.byte	0x2
 386 0059 41       		.byte	0x41
 387 005a 5E000000 		.4byte	0x5e
 388 005e 02       		.uleb128 0x2
 389 005f 04       		.byte	0x4
 390 0060 07       		.byte	0x7
 391 0061 FA000000 		.4byte	.LASF7
 392 0065 02       		.uleb128 0x2
 393 0066 08       		.byte	0x8
 394 0067 05       		.byte	0x5
 395 0068 80020000 		.4byte	.LASF8
 396 006c 02       		.uleb128 0x2
 397 006d 08       		.byte	0x8
 398 006e 07       		.byte	0x7
 399 006f CA010000 		.4byte	.LASF9
 400 0073 04       		.uleb128 0x4
 401 0074 04       		.byte	0x4
 402 0075 05       		.byte	0x5
 403 0076 696E7400 		.ascii	"int\000"
 404 007a 02       		.uleb128 0x2
ARM GAS  C:\Users\CHUNGN~1\AppData\Local\Temp\ccAUT1Sz.s 			page 10


 405 007b 04       		.byte	0x4
 406 007c 07       		.byte	0x7
 407 007d B2010000 		.4byte	.LASF10
 408 0081 03       		.uleb128 0x3
 409 0082 E1010000 		.4byte	.LASF11
 410 0086 03       		.byte	0x3
 411 0087 18       		.byte	0x18
 412 0088 2C000000 		.4byte	0x2c
 413 008c 03       		.uleb128 0x3
 414 008d B5020000 		.4byte	.LASF12
 415 0091 03       		.byte	0x3
 416 0092 30       		.byte	0x30
 417 0093 53000000 		.4byte	0x53
 418 0097 02       		.uleb128 0x2
 419 0098 04       		.byte	0x4
 420 0099 04       		.byte	0x4
 421 009a B6000000 		.4byte	.LASF13
 422 009e 02       		.uleb128 0x2
 423 009f 08       		.byte	0x8
 424 00a0 04       		.byte	0x4
 425 00a1 7B010000 		.4byte	.LASF14
 426 00a5 02       		.uleb128 0x2
 427 00a6 01       		.byte	0x1
 428 00a7 08       		.byte	0x8
 429 00a8 8E020000 		.4byte	.LASF15
 430 00ac 02       		.uleb128 0x2
 431 00ad 08       		.byte	0x8
 432 00ae 04       		.byte	0x4
 433 00af C7020000 		.4byte	.LASF16
 434 00b3 02       		.uleb128 0x2
 435 00b4 04       		.byte	0x4
 436 00b5 07       		.byte	0x7
 437 00b6 77020000 		.4byte	.LASF17
 438 00ba 05       		.uleb128 0x5
 439 00bb 04       		.byte	0x4
 440 00bc 03       		.uleb128 0x3
 441 00bd DD000000 		.4byte	.LASF18
 442 00c1 04       		.byte	0x4
 443 00c2 1C       		.byte	0x1c
 444 00c3 8C000000 		.4byte	0x8c
 445 00c7 06       		.uleb128 0x6
 446 00c8 98000000 		.4byte	.LASF39
 447 00cc 01       		.byte	0x1
 448 00cd 16       		.byte	0x16
 449 00ce 00000000 		.4byte	.LFB0
 450 00d2 10000000 		.4byte	.LFE0-.LFB0
 451 00d6 01       		.uleb128 0x1
 452 00d7 9C       		.byte	0x9c
 453 00d8 F5000000 		.4byte	0xf5
 454 00dc 07       		.uleb128 0x7
 455 00dd F1000000 		.4byte	.LASF19
 456 00e1 01       		.byte	0x1
 457 00e2 16       		.byte	0x16
 458 00e3 81000000 		.4byte	0x81
 459 00e7 00000000 		.4byte	.LLST0
 460 00eb 08       		.uleb128 0x8
 461 00ec 0A000000 		.4byte	.LVL1
ARM GAS  C:\Users\CHUNGN~1\AppData\Local\Temp\ccAUT1Sz.s 			page 11


 462 00f0 4D040000 		.4byte	0x44d
 463 00f4 00       		.byte	0
 464 00f5 09       		.uleb128 0x9
 465 00f6 C3000000 		.4byte	.LASF21
 466 00fa 01       		.byte	0x1
 467 00fb 21       		.byte	0x21
 468 00fc BC000000 		.4byte	0xbc
 469 0100 00000000 		.4byte	.LFB1
 470 0104 30000000 		.4byte	.LFE1-.LFB1
 471 0108 01       		.uleb128 0x1
 472 0109 9C       		.byte	0x9c
 473 010a 99010000 		.4byte	0x199
 474 010e 0A       		.uleb128 0xa
 475 010f 61646400 		.ascii	"add\000"
 476 0113 01       		.byte	0x1
 477 0114 21       		.byte	0x21
 478 0115 81000000 		.4byte	0x81
 479 0119 21000000 		.4byte	.LLST1
 480 011d 07       		.uleb128 0x7
 481 011e 73000000 		.4byte	.LASF20
 482 0122 01       		.byte	0x1
 483 0123 21       		.byte	0x21
 484 0124 81000000 		.4byte	0x81
 485 0128 42000000 		.4byte	.LLST2
 486 012c 0B       		.uleb128 0xb
 487 012d 78000000 		.4byte	.LASF23
 488 0131 01       		.byte	0x1
 489 0132 23       		.byte	0x23
 490 0133 BC000000 		.4byte	0xbc
 491 0137 63000000 		.4byte	.LLST3
 492 013b 0C       		.uleb128 0xc
 493 013c 12000000 		.4byte	.LVL6
 494 0140 58040000 		.4byte	0x458
 495 0144 54010000 		.4byte	0x154
 496 0148 0D       		.uleb128 0xd
 497 0149 01       		.uleb128 0x1
 498 014a 51       		.byte	0x51
 499 014b 01       		.uleb128 0x1
 500 014c 30       		.byte	0x30
 501 014d 0D       		.uleb128 0xd
 502 014e 01       		.uleb128 0x1
 503 014f 52       		.byte	0x52
 504 0150 02       		.uleb128 0x2
 505 0151 08       		.byte	0x8
 506 0152 64       		.byte	0x64
 507 0153 00       		.byte	0
 508 0154 0C       		.uleb128 0xc
 509 0155 1A000000 		.4byte	.LVL7
 510 0159 64040000 		.4byte	0x464
 511 015d 6E010000 		.4byte	0x16e
 512 0161 0D       		.uleb128 0xd
 513 0162 01       		.uleb128 0x1
 514 0163 50       		.byte	0x50
 515 0164 02       		.uleb128 0x2
 516 0165 75       		.byte	0x75
 517 0166 00       		.sleb128 0
 518 0167 0D       		.uleb128 0xd
ARM GAS  C:\Users\CHUNGN~1\AppData\Local\Temp\ccAUT1Sz.s 			page 12


 519 0168 01       		.uleb128 0x1
 520 0169 51       		.byte	0x51
 521 016a 02       		.uleb128 0x2
 522 016b 08       		.byte	0x8
 523 016c 64       		.byte	0x64
 524 016d 00       		.byte	0
 525 016e 0C       		.uleb128 0xc
 526 016f 22000000 		.4byte	.LVL8
 527 0173 64040000 		.4byte	0x464
 528 0177 88010000 		.4byte	0x188
 529 017b 0D       		.uleb128 0xd
 530 017c 01       		.uleb128 0x1
 531 017d 50       		.byte	0x50
 532 017e 02       		.uleb128 0x2
 533 017f 74       		.byte	0x74
 534 0180 00       		.sleb128 0
 535 0181 0D       		.uleb128 0xd
 536 0182 01       		.uleb128 0x1
 537 0183 51       		.byte	0x51
 538 0184 02       		.uleb128 0x2
 539 0185 08       		.byte	0x8
 540 0186 64       		.byte	0x64
 541 0187 00       		.byte	0
 542 0188 0E       		.uleb128 0xe
 543 0189 28000000 		.4byte	.LVL9
 544 018d 70040000 		.4byte	0x470
 545 0191 0D       		.uleb128 0xd
 546 0192 01       		.uleb128 0x1
 547 0193 50       		.byte	0x50
 548 0194 02       		.uleb128 0x2
 549 0195 08       		.byte	0x8
 550 0196 64       		.byte	0x64
 551 0197 00       		.byte	0
 552 0198 00       		.byte	0
 553 0199 09       		.uleb128 0x9
 554 019a 0A000000 		.4byte	.LASF22
 555 019e 01       		.byte	0x1
 556 019f 30       		.byte	0x30
 557 01a0 BC000000 		.4byte	0xbc
 558 01a4 00000000 		.4byte	.LFB2
 559 01a8 3C000000 		.4byte	.LFE2-.LFB2
 560 01ac 01       		.uleb128 0x1
 561 01ad 9C       		.byte	0x9c
 562 01ae 5B020000 		.4byte	0x25b
 563 01b2 0A       		.uleb128 0xa
 564 01b3 61646400 		.ascii	"add\000"
 565 01b7 01       		.byte	0x1
 566 01b8 30       		.byte	0x30
 567 01b9 81000000 		.4byte	0x81
 568 01bd 82000000 		.4byte	.LLST4
 569 01c1 07       		.uleb128 0x7
 570 01c2 73000000 		.4byte	.LASF20
 571 01c6 01       		.byte	0x1
 572 01c7 30       		.byte	0x30
 573 01c8 5B020000 		.4byte	0x25b
 574 01cc A3000000 		.4byte	.LLST5
 575 01d0 0B       		.uleb128 0xb
ARM GAS  C:\Users\CHUNGN~1\AppData\Local\Temp\ccAUT1Sz.s 			page 13


 576 01d1 78000000 		.4byte	.LASF23
 577 01d5 01       		.byte	0x1
 578 01d6 32       		.byte	0x32
 579 01d7 BC000000 		.4byte	0xbc
 580 01db CF000000 		.4byte	.LLST6
 581 01df 0C       		.uleb128 0xc
 582 01e0 12000000 		.4byte	.LVL14
 583 01e4 58040000 		.4byte	0x458
 584 01e8 F8010000 		.4byte	0x1f8
 585 01ec 0D       		.uleb128 0xd
 586 01ed 01       		.uleb128 0x1
 587 01ee 51       		.byte	0x51
 588 01ef 01       		.uleb128 0x1
 589 01f0 30       		.byte	0x30
 590 01f1 0D       		.uleb128 0xd
 591 01f2 01       		.uleb128 0x1
 592 01f3 52       		.byte	0x52
 593 01f4 02       		.uleb128 0x2
 594 01f5 08       		.byte	0x8
 595 01f6 64       		.byte	0x64
 596 01f7 00       		.byte	0
 597 01f8 0C       		.uleb128 0xc
 598 01f9 1A000000 		.4byte	.LVL15
 599 01fd 64040000 		.4byte	0x464
 600 0201 12020000 		.4byte	0x212
 601 0205 0D       		.uleb128 0xd
 602 0206 01       		.uleb128 0x1
 603 0207 50       		.byte	0x50
 604 0208 02       		.uleb128 0x2
 605 0209 76       		.byte	0x76
 606 020a 00       		.sleb128 0
 607 020b 0D       		.uleb128 0xd
 608 020c 01       		.uleb128 0x1
 609 020d 51       		.byte	0x51
 610 020e 02       		.uleb128 0x2
 611 020f 08       		.byte	0x8
 612 0210 64       		.byte	0x64
 613 0211 00       		.byte	0
 614 0212 0C       		.uleb128 0xc
 615 0213 24000000 		.4byte	.LVL16
 616 0217 7C040000 		.4byte	0x47c
 617 021b 2B020000 		.4byte	0x22b
 618 021f 0D       		.uleb128 0xd
 619 0220 01       		.uleb128 0x1
 620 0221 51       		.byte	0x51
 621 0222 01       		.uleb128 0x1
 622 0223 31       		.byte	0x31
 623 0224 0D       		.uleb128 0xd
 624 0225 01       		.uleb128 0x1
 625 0226 52       		.byte	0x52
 626 0227 02       		.uleb128 0x2
 627 0228 08       		.byte	0x8
 628 0229 64       		.byte	0x64
 629 022a 00       		.byte	0
 630 022b 0C       		.uleb128 0xc
 631 022c 2E000000 		.4byte	.LVL17
 632 0230 88040000 		.4byte	0x488
ARM GAS  C:\Users\CHUNGN~1\AppData\Local\Temp\ccAUT1Sz.s 			page 14


 633 0234 4A020000 		.4byte	0x24a
 634 0238 0D       		.uleb128 0xd
 635 0239 01       		.uleb128 0x1
 636 023a 50       		.byte	0x50
 637 023b 01       		.uleb128 0x1
 638 023c 31       		.byte	0x31
 639 023d 0D       		.uleb128 0xd
 640 023e 01       		.uleb128 0x1
 641 023f 51       		.byte	0x51
 642 0240 02       		.uleb128 0x2
 643 0241 75       		.byte	0x75
 644 0242 00       		.sleb128 0
 645 0243 0D       		.uleb128 0xd
 646 0244 01       		.uleb128 0x1
 647 0245 52       		.byte	0x52
 648 0246 02       		.uleb128 0x2
 649 0247 08       		.byte	0x8
 650 0248 64       		.byte	0x64
 651 0249 00       		.byte	0
 652 024a 0E       		.uleb128 0xe
 653 024b 34000000 		.4byte	.LVL18
 654 024f 70040000 		.4byte	0x470
 655 0253 0D       		.uleb128 0xd
 656 0254 01       		.uleb128 0x1
 657 0255 50       		.byte	0x50
 658 0256 02       		.uleb128 0x2
 659 0257 08       		.byte	0x8
 660 0258 64       		.byte	0x64
 661 0259 00       		.byte	0
 662 025a 00       		.byte	0
 663 025b 0F       		.uleb128 0xf
 664 025c 04       		.byte	0x4
 665 025d 81000000 		.4byte	0x81
 666 0261 09       		.uleb128 0x9
 667 0262 39010000 		.4byte	.LASF24
 668 0266 01       		.byte	0x1
 669 0267 42       		.byte	0x42
 670 0268 BC000000 		.4byte	0xbc
 671 026c 00000000 		.4byte	.LFB3
 672 0270 3C000000 		.4byte	.LFE3-.LFB3
 673 0274 01       		.uleb128 0x1
 674 0275 9C       		.byte	0x9c
 675 0276 2A030000 		.4byte	0x32a
 676 027a 0A       		.uleb128 0xa
 677 027b 61646400 		.ascii	"add\000"
 678 027f 01       		.byte	0x1
 679 0280 42       		.byte	0x42
 680 0281 81000000 		.4byte	0x81
 681 0285 EE000000 		.4byte	.LLST7
 682 0289 07       		.uleb128 0x7
 683 028a F6020000 		.4byte	.LASF25
 684 028e 01       		.byte	0x1
 685 028f 42       		.byte	0x42
 686 0290 BA000000 		.4byte	0xba
 687 0294 0F010000 		.4byte	.LLST8
 688 0298 07       		.uleb128 0x7
 689 0299 AD000000 		.4byte	.LASF26
ARM GAS  C:\Users\CHUNGN~1\AppData\Local\Temp\ccAUT1Sz.s 			page 15


 690 029d 01       		.byte	0x1
 691 029e 42       		.byte	0x42
 692 029f 8C000000 		.4byte	0x8c
 693 02a3 3B010000 		.4byte	.LLST9
 694 02a7 0B       		.uleb128 0xb
 695 02a8 78000000 		.4byte	.LASF23
 696 02ac 01       		.byte	0x1
 697 02ad 44       		.byte	0x44
 698 02ae BC000000 		.4byte	0xbc
 699 02b2 67010000 		.4byte	.LLST10
 700 02b6 10       		.uleb128 0x10
 701 02b7 6C656E00 		.ascii	"len\000"
 702 02bb 01       		.byte	0x1
 703 02bc 45       		.byte	0x45
 704 02bd 8C000000 		.4byte	0x8c
 705 02c1 86010000 		.4byte	.LLST11
 706 02c5 10       		.uleb128 0x10
 707 02c6 7000     		.ascii	"p\000"
 708 02c8 01       		.byte	0x1
 709 02c9 46       		.byte	0x46
 710 02ca 5B020000 		.4byte	0x25b
 711 02ce A5010000 		.4byte	.LLST12
 712 02d2 0C       		.uleb128 0xc
 713 02d3 14000000 		.4byte	.LVL25
 714 02d7 58040000 		.4byte	0x458
 715 02db EB020000 		.4byte	0x2eb
 716 02df 0D       		.uleb128 0xd
 717 02e0 01       		.uleb128 0x1
 718 02e1 51       		.byte	0x51
 719 02e2 01       		.uleb128 0x1
 720 02e3 30       		.byte	0x30
 721 02e4 0D       		.uleb128 0xd
 722 02e5 01       		.uleb128 0x1
 723 02e6 52       		.byte	0x52
 724 02e7 02       		.uleb128 0x2
 725 02e8 08       		.byte	0x8
 726 02e9 64       		.byte	0x64
 727 02ea 00       		.byte	0
 728 02eb 0C       		.uleb128 0xc
 729 02ec 1C000000 		.4byte	.LVL26
 730 02f0 64040000 		.4byte	0x464
 731 02f4 05030000 		.4byte	0x305
 732 02f8 0D       		.uleb128 0xd
 733 02f9 01       		.uleb128 0x1
 734 02fa 50       		.byte	0x50
 735 02fb 02       		.uleb128 0x2
 736 02fc 74       		.byte	0x74
 737 02fd 00       		.sleb128 0
 738 02fe 0D       		.uleb128 0xd
 739 02ff 01       		.uleb128 0x1
 740 0300 51       		.byte	0x51
 741 0301 02       		.uleb128 0x2
 742 0302 08       		.byte	0x8
 743 0303 64       		.byte	0x64
 744 0304 00       		.byte	0
 745 0305 0C       		.uleb128 0xc
 746 0306 28000000 		.4byte	.LVL28
ARM GAS  C:\Users\CHUNGN~1\AppData\Local\Temp\ccAUT1Sz.s 			page 16


 747 030a 64040000 		.4byte	0x464
 748 030e 19030000 		.4byte	0x319
 749 0312 0D       		.uleb128 0xd
 750 0313 01       		.uleb128 0x1
 751 0314 51       		.byte	0x51
 752 0315 02       		.uleb128 0x2
 753 0316 08       		.byte	0x8
 754 0317 64       		.byte	0x64
 755 0318 00       		.byte	0
 756 0319 0E       		.uleb128 0xe
 757 031a 34000000 		.4byte	.LVL30
 758 031e 70040000 		.4byte	0x470
 759 0322 0D       		.uleb128 0xd
 760 0323 01       		.uleb128 0x1
 761 0324 50       		.byte	0x50
 762 0325 02       		.uleb128 0x2
 763 0326 08       		.byte	0x8
 764 0327 64       		.byte	0x64
 765 0328 00       		.byte	0
 766 0329 00       		.byte	0
 767 032a 09       		.uleb128 0x9
 768 032b 7F000000 		.4byte	.LASF27
 769 032f 01       		.byte	0x1
 770 0330 59       		.byte	0x59
 771 0331 BC000000 		.4byte	0xbc
 772 0335 00000000 		.4byte	.LFB4
 773 0339 54000000 		.4byte	.LFE4-.LFB4
 774 033d 01       		.uleb128 0x1
 775 033e 9C       		.byte	0x9c
 776 033f 3C040000 		.4byte	0x43c
 777 0343 0A       		.uleb128 0xa
 778 0344 61646400 		.ascii	"add\000"
 779 0348 01       		.byte	0x1
 780 0349 59       		.byte	0x59
 781 034a 81000000 		.4byte	0x81
 782 034e D1010000 		.4byte	.LLST13
 783 0352 07       		.uleb128 0x7
 784 0353 BC000000 		.4byte	.LASF28
 785 0357 01       		.byte	0x1
 786 0358 59       		.byte	0x59
 787 0359 BA000000 		.4byte	0xba
 788 035d F2010000 		.4byte	.LLST14
 789 0361 07       		.uleb128 0x7
 790 0362 AD000000 		.4byte	.LASF26
 791 0366 01       		.byte	0x1
 792 0367 59       		.byte	0x59
 793 0368 8C000000 		.4byte	0x8c
 794 036c 1E020000 		.4byte	.LLST15
 795 0370 0B       		.uleb128 0xb
 796 0371 78000000 		.4byte	.LASF23
 797 0375 01       		.byte	0x1
 798 0376 5B       		.byte	0x5b
 799 0377 BC000000 		.4byte	0xbc
 800 037b 4A020000 		.4byte	.LLST16
 801 037f 10       		.uleb128 0x10
 802 0380 6C656E00 		.ascii	"len\000"
 803 0384 01       		.byte	0x1
ARM GAS  C:\Users\CHUNGN~1\AppData\Local\Temp\ccAUT1Sz.s 			page 17


 804 0385 5C       		.byte	0x5c
 805 0386 8C000000 		.4byte	0x8c
 806 038a 69020000 		.4byte	.LLST17
 807 038e 10       		.uleb128 0x10
 808 038f 7000     		.ascii	"p\000"
 809 0391 01       		.byte	0x1
 810 0392 5D       		.byte	0x5d
 811 0393 5B020000 		.4byte	0x25b
 812 0397 88020000 		.4byte	.LLST18
 813 039b 0C       		.uleb128 0xc
 814 039c 14000000 		.4byte	.LVL39
 815 03a0 58040000 		.4byte	0x458
 816 03a4 B4030000 		.4byte	0x3b4
 817 03a8 0D       		.uleb128 0xd
 818 03a9 01       		.uleb128 0x1
 819 03aa 51       		.byte	0x51
 820 03ab 01       		.uleb128 0x1
 821 03ac 30       		.byte	0x30
 822 03ad 0D       		.uleb128 0xd
 823 03ae 01       		.uleb128 0x1
 824 03af 52       		.byte	0x52
 825 03b0 02       		.uleb128 0x2
 826 03b1 08       		.byte	0x8
 827 03b2 64       		.byte	0x64
 828 03b3 00       		.byte	0
 829 03b4 0C       		.uleb128 0xc
 830 03b5 1C000000 		.4byte	.LVL40
 831 03b9 64040000 		.4byte	0x464
 832 03bd CE030000 		.4byte	0x3ce
 833 03c1 0D       		.uleb128 0xd
 834 03c2 01       		.uleb128 0x1
 835 03c3 50       		.byte	0x50
 836 03c4 02       		.uleb128 0x2
 837 03c5 77       		.byte	0x77
 838 03c6 00       		.sleb128 0
 839 03c7 0D       		.uleb128 0xd
 840 03c8 01       		.uleb128 0x1
 841 03c9 51       		.byte	0x51
 842 03ca 02       		.uleb128 0x2
 843 03cb 08       		.byte	0x8
 844 03cc 64       		.byte	0x64
 845 03cd 00       		.byte	0
 846 03ce 0C       		.uleb128 0xc
 847 03cf 26000000 		.4byte	.LVL41
 848 03d3 7C040000 		.4byte	0x47c
 849 03d7 E7030000 		.4byte	0x3e7
 850 03db 0D       		.uleb128 0xd
 851 03dc 01       		.uleb128 0x1
 852 03dd 51       		.byte	0x51
 853 03de 01       		.uleb128 0x1
 854 03df 31       		.byte	0x31
 855 03e0 0D       		.uleb128 0xd
 856 03e1 01       		.uleb128 0x1
 857 03e2 52       		.byte	0x52
 858 03e3 02       		.uleb128 0x2
 859 03e4 08       		.byte	0x8
 860 03e5 64       		.byte	0x64
ARM GAS  C:\Users\CHUNGN~1\AppData\Local\Temp\ccAUT1Sz.s 			page 18


 861 03e6 00       		.byte	0
 862 03e7 0C       		.uleb128 0xc
 863 03e8 34000000 		.4byte	.LVL43
 864 03ec 88040000 		.4byte	0x488
 865 03f0 09040000 		.4byte	0x409
 866 03f4 0D       		.uleb128 0xd
 867 03f5 01       		.uleb128 0x1
 868 03f6 50       		.byte	0x50
 869 03f7 01       		.uleb128 0x1
 870 03f8 30       		.byte	0x30
 871 03f9 0D       		.uleb128 0xd
 872 03fa 01       		.uleb128 0x1
 873 03fb 51       		.byte	0x51
 874 03fc 05       		.uleb128 0x5
 875 03fd 75       		.byte	0x75
 876 03fe 00       		.sleb128 0
 877 03ff 74       		.byte	0x74
 878 0400 00       		.sleb128 0
 879 0401 22       		.byte	0x22
 880 0402 0D       		.uleb128 0xd
 881 0403 01       		.uleb128 0x1
 882 0404 52       		.byte	0x52
 883 0405 02       		.uleb128 0x2
 884 0406 08       		.byte	0x8
 885 0407 64       		.byte	0x64
 886 0408 00       		.byte	0
 887 0409 0C       		.uleb128 0xc
 888 040a 46000000 		.4byte	.LVL45
 889 040e 88040000 		.4byte	0x488
 890 0412 2B040000 		.4byte	0x42b
 891 0416 0D       		.uleb128 0xd
 892 0417 01       		.uleb128 0x1
 893 0418 50       		.byte	0x50
 894 0419 01       		.uleb128 0x1
 895 041a 31       		.byte	0x31
 896 041b 0D       		.uleb128 0xd
 897 041c 01       		.uleb128 0x1
 898 041d 51       		.byte	0x51
 899 041e 05       		.uleb128 0x5
 900 041f 75       		.byte	0x75
 901 0420 00       		.sleb128 0
 902 0421 74       		.byte	0x74
 903 0422 00       		.sleb128 0
 904 0423 22       		.byte	0x22
 905 0424 0D       		.uleb128 0xd
 906 0425 01       		.uleb128 0x1
 907 0426 52       		.byte	0x52
 908 0427 02       		.uleb128 0x2
 909 0428 08       		.byte	0x8
 910 0429 64       		.byte	0x64
 911 042a 00       		.byte	0
 912 042b 0E       		.uleb128 0xe
 913 042c 4C000000 		.4byte	.LVL46
 914 0430 70040000 		.4byte	0x470
 915 0434 0D       		.uleb128 0xd
 916 0435 01       		.uleb128 0x1
 917 0436 50       		.byte	0x50
ARM GAS  C:\Users\CHUNGN~1\AppData\Local\Temp\ccAUT1Sz.s 			page 19


 918 0437 02       		.uleb128 0x2
 919 0438 08       		.byte	0x8
 920 0439 64       		.byte	0x64
 921 043a 00       		.byte	0
 922 043b 00       		.byte	0
 923 043c 11       		.uleb128 0x11
 924 043d A5010000 		.4byte	.LASF29
 925 0441 01       		.byte	0x1
 926 0442 11       		.byte	0x11
 927 0443 81000000 		.4byte	0x81
 928 0447 05       		.uleb128 0x5
 929 0448 03       		.byte	0x3
 930 0449 00000000 		.4byte	i2c_slaveAdd
 931 044d 12       		.uleb128 0x12
 932 044e BF010000 		.4byte	.LASF30
 933 0452 BF010000 		.4byte	.LASF30
 934 0456 05       		.byte	0x5
 935 0457 72       		.byte	0x72
 936 0458 13       		.uleb128 0x13
 937 0459 9D020000 		.4byte	.LASF31
 938 045d 9D020000 		.4byte	.LASF31
 939 0461 06       		.byte	0x6
 940 0462 1B01     		.2byte	0x11b
 941 0464 13       		.uleb128 0x13
 942 0465 82010000 		.4byte	.LASF32
 943 0469 82010000 		.4byte	.LASF32
 944 046d 06       		.byte	0x6
 945 046e 1E01     		.2byte	0x11e
 946 0470 13       		.uleb128 0x13
 947 0471 5C000000 		.4byte	.LASF33
 948 0475 5C000000 		.4byte	.LASF33
 949 0479 06       		.byte	0x6
 950 047a 1D01     		.2byte	0x11d
 951 047c 13       		.uleb128 0x13
 952 047d 0C010000 		.4byte	.LASF34
 953 0481 0C010000 		.4byte	.LASF34
 954 0485 06       		.byte	0x6
 955 0486 1C01     		.2byte	0x11c
 956 0488 13       		.uleb128 0x13
 957 0489 DF020000 		.4byte	.LASF35
 958 048d DF020000 		.4byte	.LASF35
 959 0491 06       		.byte	0x6
 960 0492 1F01     		.2byte	0x11f
 961 0494 00       		.byte	0
 962              		.section	.debug_abbrev,"",%progbits
 963              	.Ldebug_abbrev0:
 964 0000 01       		.uleb128 0x1
 965 0001 11       		.uleb128 0x11
 966 0002 01       		.byte	0x1
 967 0003 25       		.uleb128 0x25
 968 0004 0E       		.uleb128 0xe
 969 0005 13       		.uleb128 0x13
 970 0006 0B       		.uleb128 0xb
 971 0007 03       		.uleb128 0x3
 972 0008 0E       		.uleb128 0xe
 973 0009 1B       		.uleb128 0x1b
 974 000a 0E       		.uleb128 0xe
ARM GAS  C:\Users\CHUNGN~1\AppData\Local\Temp\ccAUT1Sz.s 			page 20


 975 000b 55       		.uleb128 0x55
 976 000c 17       		.uleb128 0x17
 977 000d 11       		.uleb128 0x11
 978 000e 01       		.uleb128 0x1
 979 000f 10       		.uleb128 0x10
 980 0010 17       		.uleb128 0x17
 981 0011 00       		.byte	0
 982 0012 00       		.byte	0
 983 0013 02       		.uleb128 0x2
 984 0014 24       		.uleb128 0x24
 985 0015 00       		.byte	0
 986 0016 0B       		.uleb128 0xb
 987 0017 0B       		.uleb128 0xb
 988 0018 3E       		.uleb128 0x3e
 989 0019 0B       		.uleb128 0xb
 990 001a 03       		.uleb128 0x3
 991 001b 0E       		.uleb128 0xe
 992 001c 00       		.byte	0
 993 001d 00       		.byte	0
 994 001e 03       		.uleb128 0x3
 995 001f 16       		.uleb128 0x16
 996 0020 00       		.byte	0
 997 0021 03       		.uleb128 0x3
 998 0022 0E       		.uleb128 0xe
 999 0023 3A       		.uleb128 0x3a
 1000 0024 0B       		.uleb128 0xb
 1001 0025 3B       		.uleb128 0x3b
 1002 0026 0B       		.uleb128 0xb
 1003 0027 49       		.uleb128 0x49
 1004 0028 13       		.uleb128 0x13
 1005 0029 00       		.byte	0
 1006 002a 00       		.byte	0
 1007 002b 04       		.uleb128 0x4
 1008 002c 24       		.uleb128 0x24
 1009 002d 00       		.byte	0
 1010 002e 0B       		.uleb128 0xb
 1011 002f 0B       		.uleb128 0xb
 1012 0030 3E       		.uleb128 0x3e
 1013 0031 0B       		.uleb128 0xb
 1014 0032 03       		.uleb128 0x3
 1015 0033 08       		.uleb128 0x8
 1016 0034 00       		.byte	0
 1017 0035 00       		.byte	0
 1018 0036 05       		.uleb128 0x5
 1019 0037 0F       		.uleb128 0xf
 1020 0038 00       		.byte	0
 1021 0039 0B       		.uleb128 0xb
 1022 003a 0B       		.uleb128 0xb
 1023 003b 00       		.byte	0
 1024 003c 00       		.byte	0
 1025 003d 06       		.uleb128 0x6
 1026 003e 2E       		.uleb128 0x2e
 1027 003f 01       		.byte	0x1
 1028 0040 3F       		.uleb128 0x3f
 1029 0041 19       		.uleb128 0x19
 1030 0042 03       		.uleb128 0x3
 1031 0043 0E       		.uleb128 0xe
ARM GAS  C:\Users\CHUNGN~1\AppData\Local\Temp\ccAUT1Sz.s 			page 21


 1032 0044 3A       		.uleb128 0x3a
 1033 0045 0B       		.uleb128 0xb
 1034 0046 3B       		.uleb128 0x3b
 1035 0047 0B       		.uleb128 0xb
 1036 0048 27       		.uleb128 0x27
 1037 0049 19       		.uleb128 0x19
 1038 004a 11       		.uleb128 0x11
 1039 004b 01       		.uleb128 0x1
 1040 004c 12       		.uleb128 0x12
 1041 004d 06       		.uleb128 0x6
 1042 004e 40       		.uleb128 0x40
 1043 004f 18       		.uleb128 0x18
 1044 0050 9742     		.uleb128 0x2117
 1045 0052 19       		.uleb128 0x19
 1046 0053 01       		.uleb128 0x1
 1047 0054 13       		.uleb128 0x13
 1048 0055 00       		.byte	0
 1049 0056 00       		.byte	0
 1050 0057 07       		.uleb128 0x7
 1051 0058 05       		.uleb128 0x5
 1052 0059 00       		.byte	0
 1053 005a 03       		.uleb128 0x3
 1054 005b 0E       		.uleb128 0xe
 1055 005c 3A       		.uleb128 0x3a
 1056 005d 0B       		.uleb128 0xb
 1057 005e 3B       		.uleb128 0x3b
 1058 005f 0B       		.uleb128 0xb
 1059 0060 49       		.uleb128 0x49
 1060 0061 13       		.uleb128 0x13
 1061 0062 02       		.uleb128 0x2
 1062 0063 17       		.uleb128 0x17
 1063 0064 00       		.byte	0
 1064 0065 00       		.byte	0
 1065 0066 08       		.uleb128 0x8
 1066 0067 898201   		.uleb128 0x4109
 1067 006a 00       		.byte	0
 1068 006b 11       		.uleb128 0x11
 1069 006c 01       		.uleb128 0x1
 1070 006d 31       		.uleb128 0x31
 1071 006e 13       		.uleb128 0x13
 1072 006f 00       		.byte	0
 1073 0070 00       		.byte	0
 1074 0071 09       		.uleb128 0x9
 1075 0072 2E       		.uleb128 0x2e
 1076 0073 01       		.byte	0x1
 1077 0074 3F       		.uleb128 0x3f
 1078 0075 19       		.uleb128 0x19
 1079 0076 03       		.uleb128 0x3
 1080 0077 0E       		.uleb128 0xe
 1081 0078 3A       		.uleb128 0x3a
 1082 0079 0B       		.uleb128 0xb
 1083 007a 3B       		.uleb128 0x3b
 1084 007b 0B       		.uleb128 0xb
 1085 007c 27       		.uleb128 0x27
 1086 007d 19       		.uleb128 0x19
 1087 007e 49       		.uleb128 0x49
 1088 007f 13       		.uleb128 0x13
ARM GAS  C:\Users\CHUNGN~1\AppData\Local\Temp\ccAUT1Sz.s 			page 22


 1089 0080 11       		.uleb128 0x11
 1090 0081 01       		.uleb128 0x1
 1091 0082 12       		.uleb128 0x12
 1092 0083 06       		.uleb128 0x6
 1093 0084 40       		.uleb128 0x40
 1094 0085 18       		.uleb128 0x18
 1095 0086 9742     		.uleb128 0x2117
 1096 0088 19       		.uleb128 0x19
 1097 0089 01       		.uleb128 0x1
 1098 008a 13       		.uleb128 0x13
 1099 008b 00       		.byte	0
 1100 008c 00       		.byte	0
 1101 008d 0A       		.uleb128 0xa
 1102 008e 05       		.uleb128 0x5
 1103 008f 00       		.byte	0
 1104 0090 03       		.uleb128 0x3
 1105 0091 08       		.uleb128 0x8
 1106 0092 3A       		.uleb128 0x3a
 1107 0093 0B       		.uleb128 0xb
 1108 0094 3B       		.uleb128 0x3b
 1109 0095 0B       		.uleb128 0xb
 1110 0096 49       		.uleb128 0x49
 1111 0097 13       		.uleb128 0x13
 1112 0098 02       		.uleb128 0x2
 1113 0099 17       		.uleb128 0x17
 1114 009a 00       		.byte	0
 1115 009b 00       		.byte	0
 1116 009c 0B       		.uleb128 0xb
 1117 009d 34       		.uleb128 0x34
 1118 009e 00       		.byte	0
 1119 009f 03       		.uleb128 0x3
 1120 00a0 0E       		.uleb128 0xe
 1121 00a1 3A       		.uleb128 0x3a
 1122 00a2 0B       		.uleb128 0xb
 1123 00a3 3B       		.uleb128 0x3b
 1124 00a4 0B       		.uleb128 0xb
 1125 00a5 49       		.uleb128 0x49
 1126 00a6 13       		.uleb128 0x13
 1127 00a7 02       		.uleb128 0x2
 1128 00a8 17       		.uleb128 0x17
 1129 00a9 00       		.byte	0
 1130 00aa 00       		.byte	0
 1131 00ab 0C       		.uleb128 0xc
 1132 00ac 898201   		.uleb128 0x4109
 1133 00af 01       		.byte	0x1
 1134 00b0 11       		.uleb128 0x11
 1135 00b1 01       		.uleb128 0x1
 1136 00b2 31       		.uleb128 0x31
 1137 00b3 13       		.uleb128 0x13
 1138 00b4 01       		.uleb128 0x1
 1139 00b5 13       		.uleb128 0x13
 1140 00b6 00       		.byte	0
 1141 00b7 00       		.byte	0
 1142 00b8 0D       		.uleb128 0xd
 1143 00b9 8A8201   		.uleb128 0x410a
 1144 00bc 00       		.byte	0
 1145 00bd 02       		.uleb128 0x2
ARM GAS  C:\Users\CHUNGN~1\AppData\Local\Temp\ccAUT1Sz.s 			page 23


 1146 00be 18       		.uleb128 0x18
 1147 00bf 9142     		.uleb128 0x2111
 1148 00c1 18       		.uleb128 0x18
 1149 00c2 00       		.byte	0
 1150 00c3 00       		.byte	0
 1151 00c4 0E       		.uleb128 0xe
 1152 00c5 898201   		.uleb128 0x4109
 1153 00c8 01       		.byte	0x1
 1154 00c9 11       		.uleb128 0x11
 1155 00ca 01       		.uleb128 0x1
 1156 00cb 31       		.uleb128 0x31
 1157 00cc 13       		.uleb128 0x13
 1158 00cd 00       		.byte	0
 1159 00ce 00       		.byte	0
 1160 00cf 0F       		.uleb128 0xf
 1161 00d0 0F       		.uleb128 0xf
 1162 00d1 00       		.byte	0
 1163 00d2 0B       		.uleb128 0xb
 1164 00d3 0B       		.uleb128 0xb
 1165 00d4 49       		.uleb128 0x49
 1166 00d5 13       		.uleb128 0x13
 1167 00d6 00       		.byte	0
 1168 00d7 00       		.byte	0
 1169 00d8 10       		.uleb128 0x10
 1170 00d9 34       		.uleb128 0x34
 1171 00da 00       		.byte	0
 1172 00db 03       		.uleb128 0x3
 1173 00dc 08       		.uleb128 0x8
 1174 00dd 3A       		.uleb128 0x3a
 1175 00de 0B       		.uleb128 0xb
 1176 00df 3B       		.uleb128 0x3b
 1177 00e0 0B       		.uleb128 0xb
 1178 00e1 49       		.uleb128 0x49
 1179 00e2 13       		.uleb128 0x13
 1180 00e3 02       		.uleb128 0x2
 1181 00e4 17       		.uleb128 0x17
 1182 00e5 00       		.byte	0
 1183 00e6 00       		.byte	0
 1184 00e7 11       		.uleb128 0x11
 1185 00e8 34       		.uleb128 0x34
 1186 00e9 00       		.byte	0
 1187 00ea 03       		.uleb128 0x3
 1188 00eb 0E       		.uleb128 0xe
 1189 00ec 3A       		.uleb128 0x3a
 1190 00ed 0B       		.uleb128 0xb
 1191 00ee 3B       		.uleb128 0x3b
 1192 00ef 0B       		.uleb128 0xb
 1193 00f0 49       		.uleb128 0x49
 1194 00f1 13       		.uleb128 0x13
 1195 00f2 02       		.uleb128 0x2
 1196 00f3 18       		.uleb128 0x18
 1197 00f4 00       		.byte	0
 1198 00f5 00       		.byte	0
 1199 00f6 12       		.uleb128 0x12
 1200 00f7 2E       		.uleb128 0x2e
 1201 00f8 00       		.byte	0
 1202 00f9 3F       		.uleb128 0x3f
ARM GAS  C:\Users\CHUNGN~1\AppData\Local\Temp\ccAUT1Sz.s 			page 24


 1203 00fa 19       		.uleb128 0x19
 1204 00fb 3C       		.uleb128 0x3c
 1205 00fc 19       		.uleb128 0x19
 1206 00fd 6E       		.uleb128 0x6e
 1207 00fe 0E       		.uleb128 0xe
 1208 00ff 03       		.uleb128 0x3
 1209 0100 0E       		.uleb128 0xe
 1210 0101 3A       		.uleb128 0x3a
 1211 0102 0B       		.uleb128 0xb
 1212 0103 3B       		.uleb128 0x3b
 1213 0104 0B       		.uleb128 0xb
 1214 0105 00       		.byte	0
 1215 0106 00       		.byte	0
 1216 0107 13       		.uleb128 0x13
 1217 0108 2E       		.uleb128 0x2e
 1218 0109 00       		.byte	0
 1219 010a 3F       		.uleb128 0x3f
 1220 010b 19       		.uleb128 0x19
 1221 010c 3C       		.uleb128 0x3c
 1222 010d 19       		.uleb128 0x19
 1223 010e 6E       		.uleb128 0x6e
 1224 010f 0E       		.uleb128 0xe
 1225 0110 03       		.uleb128 0x3
 1226 0111 0E       		.uleb128 0xe
 1227 0112 3A       		.uleb128 0x3a
 1228 0113 0B       		.uleb128 0xb
 1229 0114 3B       		.uleb128 0x3b
 1230 0115 05       		.uleb128 0x5
 1231 0116 00       		.byte	0
 1232 0117 00       		.byte	0
 1233 0118 00       		.byte	0
 1234              		.section	.debug_loc,"",%progbits
 1235              	.Ldebug_loc0:
 1236              	.LLST0:
 1237 0000 00000000 		.4byte	.LVL0
 1238 0004 09000000 		.4byte	.LVL1-1
 1239 0008 0100     		.2byte	0x1
 1240 000a 50       		.byte	0x50
 1241 000b 09000000 		.4byte	.LVL1-1
 1242 000f 10000000 		.4byte	.LFE0
 1243 0013 0400     		.2byte	0x4
 1244 0015 F3       		.byte	0xf3
 1245 0016 01       		.uleb128 0x1
 1246 0017 50       		.byte	0x50
 1247 0018 9F       		.byte	0x9f
 1248 0019 00000000 		.4byte	0
 1249 001d 00000000 		.4byte	0
 1250              	.LLST1:
 1251 0021 00000000 		.4byte	.LVL2
 1252 0025 0A000000 		.4byte	.LVL4
 1253 0029 0100     		.2byte	0x1
 1254 002b 50       		.byte	0x50
 1255 002c 0A000000 		.4byte	.LVL4
 1256 0030 30000000 		.4byte	.LFE1
 1257 0034 0400     		.2byte	0x4
 1258 0036 F3       		.byte	0xf3
 1259 0037 01       		.uleb128 0x1
ARM GAS  C:\Users\CHUNGN~1\AppData\Local\Temp\ccAUT1Sz.s 			page 25


 1260 0038 50       		.byte	0x50
 1261 0039 9F       		.byte	0x9f
 1262 003a 00000000 		.4byte	0
 1263 003e 00000000 		.4byte	0
 1264              	.LLST2:
 1265 0042 00000000 		.4byte	.LVL2
 1266 0046 0E000000 		.4byte	.LVL5
 1267 004a 0100     		.2byte	0x1
 1268 004c 51       		.byte	0x51
 1269 004d 0E000000 		.4byte	.LVL5
 1270 0051 30000000 		.4byte	.LFE1
 1271 0055 0400     		.2byte	0x4
 1272 0057 F3       		.byte	0xf3
 1273 0058 01       		.uleb128 0x1
 1274 0059 51       		.byte	0x51
 1275 005a 9F       		.byte	0x9f
 1276 005b 00000000 		.4byte	0
 1277 005f 00000000 		.4byte	0
 1278              	.LLST3:
 1279 0063 06000000 		.4byte	.LVL3
 1280 0067 12000000 		.4byte	.LVL6
 1281 006b 0200     		.2byte	0x2
 1282 006d 30       		.byte	0x30
 1283 006e 9F       		.byte	0x9f
 1284 006f 28000000 		.4byte	.LVL9
 1285 0073 30000000 		.4byte	.LFE1
 1286 0077 0100     		.2byte	0x1
 1287 0079 50       		.byte	0x50
 1288 007a 00000000 		.4byte	0
 1289 007e 00000000 		.4byte	0
 1290              	.LLST4:
 1291 0082 00000000 		.4byte	.LVL10
 1292 0086 0A000000 		.4byte	.LVL12
 1293 008a 0100     		.2byte	0x1
 1294 008c 50       		.byte	0x50
 1295 008d 0A000000 		.4byte	.LVL12
 1296 0091 3C000000 		.4byte	.LFE2
 1297 0095 0400     		.2byte	0x4
 1298 0097 F3       		.byte	0xf3
 1299 0098 01       		.uleb128 0x1
 1300 0099 50       		.byte	0x50
 1301 009a 9F       		.byte	0x9f
 1302 009b 00000000 		.4byte	0
 1303 009f 00000000 		.4byte	0
 1304              	.LLST5:
 1305 00a3 00000000 		.4byte	.LVL10
 1306 00a7 0E000000 		.4byte	.LVL13
 1307 00ab 0100     		.2byte	0x1
 1308 00ad 51       		.byte	0x51
 1309 00ae 0E000000 		.4byte	.LVL13
 1310 00b2 34000000 		.4byte	.LVL19
 1311 00b6 0100     		.2byte	0x1
 1312 00b8 55       		.byte	0x55
 1313 00b9 34000000 		.4byte	.LVL19
 1314 00bd 3C000000 		.4byte	.LFE2
 1315 00c1 0400     		.2byte	0x4
 1316 00c3 F3       		.byte	0xf3
ARM GAS  C:\Users\CHUNGN~1\AppData\Local\Temp\ccAUT1Sz.s 			page 26


 1317 00c4 01       		.uleb128 0x1
 1318 00c5 51       		.byte	0x51
 1319 00c6 9F       		.byte	0x9f
 1320 00c7 00000000 		.4byte	0
 1321 00cb 00000000 		.4byte	0
 1322              	.LLST6:
 1323 00cf 06000000 		.4byte	.LVL11
 1324 00d3 12000000 		.4byte	.LVL14
 1325 00d7 0200     		.2byte	0x2
 1326 00d9 30       		.byte	0x30
 1327 00da 9F       		.byte	0x9f
 1328 00db 34000000 		.4byte	.LVL18
 1329 00df 3C000000 		.4byte	.LFE2
 1330 00e3 0100     		.2byte	0x1
 1331 00e5 50       		.byte	0x50
 1332 00e6 00000000 		.4byte	0
 1333 00ea 00000000 		.4byte	0
 1334              	.LLST7:
 1335 00ee 00000000 		.4byte	.LVL20
 1336 00f2 0C000000 		.4byte	.LVL22
 1337 00f6 0100     		.2byte	0x1
 1338 00f8 50       		.byte	0x50
 1339 00f9 0C000000 		.4byte	.LVL22
 1340 00fd 3C000000 		.4byte	.LFE3
 1341 0101 0400     		.2byte	0x4
 1342 0103 F3       		.byte	0xf3
 1343 0104 01       		.uleb128 0x1
 1344 0105 50       		.byte	0x50
 1345 0106 9F       		.byte	0x9f
 1346 0107 00000000 		.4byte	0
 1347 010b 00000000 		.4byte	0
 1348              	.LLST8:
 1349 010f 00000000 		.4byte	.LVL20
 1350 0113 10000000 		.4byte	.LVL24
 1351 0117 0100     		.2byte	0x1
 1352 0119 51       		.byte	0x51
 1353 011a 10000000 		.4byte	.LVL24
 1354 011e 34000000 		.4byte	.LVL33
 1355 0122 0100     		.2byte	0x1
 1356 0124 56       		.byte	0x56
 1357 0125 34000000 		.4byte	.LVL33
 1358 0129 3C000000 		.4byte	.LFE3
 1359 012d 0400     		.2byte	0x4
 1360 012f F3       		.byte	0xf3
 1361 0130 01       		.uleb128 0x1
 1362 0131 51       		.byte	0x51
 1363 0132 9F       		.byte	0x9f
 1364 0133 00000000 		.4byte	0
 1365 0137 00000000 		.4byte	0
 1366              	.LLST9:
 1367 013b 00000000 		.4byte	.LVL20
 1368 013f 0E000000 		.4byte	.LVL23
 1369 0143 0100     		.2byte	0x1
 1370 0145 52       		.byte	0x52
 1371 0146 0E000000 		.4byte	.LVL23
 1372 014a 34000000 		.4byte	.LVL32
 1373 014e 0100     		.2byte	0x1
ARM GAS  C:\Users\CHUNGN~1\AppData\Local\Temp\ccAUT1Sz.s 			page 27


 1374 0150 55       		.byte	0x55
 1375 0151 34000000 		.4byte	.LVL32
 1376 0155 3C000000 		.4byte	.LFE3
 1377 0159 0400     		.2byte	0x4
 1378 015b F3       		.byte	0xf3
 1379 015c 01       		.uleb128 0x1
 1380 015d 52       		.byte	0x52
 1381 015e 9F       		.byte	0x9f
 1382 015f 00000000 		.4byte	0
 1383 0163 00000000 		.4byte	0
 1384              	.LLST10:
 1385 0167 08000000 		.4byte	.LVL21
 1386 016b 14000000 		.4byte	.LVL25
 1387 016f 0200     		.2byte	0x2
 1388 0171 30       		.byte	0x30
 1389 0172 9F       		.byte	0x9f
 1390 0173 34000000 		.4byte	.LVL30
 1391 0177 3C000000 		.4byte	.LFE3
 1392 017b 0100     		.2byte	0x1
 1393 017d 50       		.byte	0x50
 1394 017e 00000000 		.4byte	0
 1395 0182 00000000 		.4byte	0
 1396              	.LLST11:
 1397 0186 1C000000 		.4byte	.LVL26
 1398 018a 20000000 		.4byte	.LVL27
 1399 018e 0200     		.2byte	0x2
 1400 0190 30       		.byte	0x30
 1401 0191 9F       		.byte	0x9f
 1402 0192 20000000 		.4byte	.LVL27
 1403 0196 34000000 		.4byte	.LVL31
 1404 019a 0100     		.2byte	0x1
 1405 019c 54       		.byte	0x54
 1406 019d 00000000 		.4byte	0
 1407 01a1 00000000 		.4byte	0
 1408              	.LLST12:
 1409 01a5 08000000 		.4byte	.LVL21
 1410 01a9 10000000 		.4byte	.LVL24
 1411 01ad 0100     		.2byte	0x1
 1412 01af 51       		.byte	0x51
 1413 01b0 10000000 		.4byte	.LVL24
 1414 01b4 34000000 		.4byte	.LVL33
 1415 01b8 0100     		.2byte	0x1
 1416 01ba 56       		.byte	0x56
 1417 01bb 34000000 		.4byte	.LVL33
 1418 01bf 3C000000 		.4byte	.LFE3
 1419 01c3 0400     		.2byte	0x4
 1420 01c5 F3       		.byte	0xf3
 1421 01c6 01       		.uleb128 0x1
 1422 01c7 51       		.byte	0x51
 1423 01c8 9F       		.byte	0x9f
 1424 01c9 00000000 		.4byte	0
 1425 01cd 00000000 		.4byte	0
 1426              	.LLST13:
 1427 01d1 00000000 		.4byte	.LVL34
 1428 01d5 0C000000 		.4byte	.LVL36
 1429 01d9 0100     		.2byte	0x1
 1430 01db 50       		.byte	0x50
ARM GAS  C:\Users\CHUNGN~1\AppData\Local\Temp\ccAUT1Sz.s 			page 28


 1431 01dc 0C000000 		.4byte	.LVL36
 1432 01e0 54000000 		.4byte	.LFE4
 1433 01e4 0400     		.2byte	0x4
 1434 01e6 F3       		.byte	0xf3
 1435 01e7 01       		.uleb128 0x1
 1436 01e8 50       		.byte	0x50
 1437 01e9 9F       		.byte	0x9f
 1438 01ea 00000000 		.4byte	0
 1439 01ee 00000000 		.4byte	0
 1440              	.LLST14:
 1441 01f2 00000000 		.4byte	.LVL34
 1442 01f6 10000000 		.4byte	.LVL38
 1443 01fa 0100     		.2byte	0x1
 1444 01fc 51       		.byte	0x51
 1445 01fd 10000000 		.4byte	.LVL38
 1446 0201 4C000000 		.4byte	.LVL48
 1447 0205 0100     		.2byte	0x1
 1448 0207 55       		.byte	0x55
 1449 0208 4C000000 		.4byte	.LVL48
 1450 020c 54000000 		.4byte	.LFE4
 1451 0210 0400     		.2byte	0x4
 1452 0212 F3       		.byte	0xf3
 1453 0213 01       		.uleb128 0x1
 1454 0214 51       		.byte	0x51
 1455 0215 9F       		.byte	0x9f
 1456 0216 00000000 		.4byte	0
 1457 021a 00000000 		.4byte	0
 1458              	.LLST15:
 1459 021e 00000000 		.4byte	.LVL34
 1460 0222 0E000000 		.4byte	.LVL37
 1461 0226 0100     		.2byte	0x1
 1462 0228 52       		.byte	0x52
 1463 0229 0E000000 		.4byte	.LVL37
 1464 022d 4C000000 		.4byte	.LVL49
 1465 0231 0100     		.2byte	0x1
 1466 0233 56       		.byte	0x56
 1467 0234 4C000000 		.4byte	.LVL49
 1468 0238 54000000 		.4byte	.LFE4
 1469 023c 0400     		.2byte	0x4
 1470 023e F3       		.byte	0xf3
 1471 023f 01       		.uleb128 0x1
 1472 0240 52       		.byte	0x52
 1473 0241 9F       		.byte	0x9f
 1474 0242 00000000 		.4byte	0
 1475 0246 00000000 		.4byte	0
 1476              	.LLST16:
 1477 024a 08000000 		.4byte	.LVL35
 1478 024e 14000000 		.4byte	.LVL39
 1479 0252 0200     		.2byte	0x2
 1480 0254 30       		.byte	0x30
 1481 0255 9F       		.byte	0x9f
 1482 0256 4C000000 		.4byte	.LVL46
 1483 025a 54000000 		.4byte	.LFE4
 1484 025e 0100     		.2byte	0x1
 1485 0260 50       		.byte	0x50
 1486 0261 00000000 		.4byte	0
 1487 0265 00000000 		.4byte	0
ARM GAS  C:\Users\CHUNGN~1\AppData\Local\Temp\ccAUT1Sz.s 			page 29


 1488              	.LLST17:
 1489 0269 26000000 		.4byte	.LVL41
 1490 026d 2A000000 		.4byte	.LVL42
 1491 0271 0200     		.2byte	0x2
 1492 0273 30       		.byte	0x30
 1493 0274 9F       		.byte	0x9f
 1494 0275 2A000000 		.4byte	.LVL42
 1495 0279 4C000000 		.4byte	.LVL47
 1496 027d 0100     		.2byte	0x1
 1497 027f 54       		.byte	0x54
 1498 0280 00000000 		.4byte	0
 1499 0284 00000000 		.4byte	0
 1500              	.LLST18:
 1501 0288 08000000 		.4byte	.LVL35
 1502 028c 10000000 		.4byte	.LVL38
 1503 0290 0100     		.2byte	0x1
 1504 0292 51       		.byte	0x51
 1505 0293 10000000 		.4byte	.LVL38
 1506 0297 4C000000 		.4byte	.LVL48
 1507 029b 0100     		.2byte	0x1
 1508 029d 55       		.byte	0x55
 1509 029e 4C000000 		.4byte	.LVL48
 1510 02a2 54000000 		.4byte	.LFE4
 1511 02a6 0400     		.2byte	0x4
 1512 02a8 F3       		.byte	0xf3
 1513 02a9 01       		.uleb128 0x1
 1514 02aa 51       		.byte	0x51
 1515 02ab 9F       		.byte	0x9f
 1516 02ac 00000000 		.4byte	0
 1517 02b0 00000000 		.4byte	0
 1518              		.section	.debug_aranges,"",%progbits
 1519 0000 3C000000 		.4byte	0x3c
 1520 0004 0200     		.2byte	0x2
 1521 0006 00000000 		.4byte	.Ldebug_info0
 1522 000a 04       		.byte	0x4
 1523 000b 00       		.byte	0
 1524 000c 0000     		.2byte	0
 1525 000e 0000     		.2byte	0
 1526 0010 00000000 		.4byte	.LFB0
 1527 0014 10000000 		.4byte	.LFE0-.LFB0
 1528 0018 00000000 		.4byte	.LFB1
 1529 001c 30000000 		.4byte	.LFE1-.LFB1
 1530 0020 00000000 		.4byte	.LFB2
 1531 0024 3C000000 		.4byte	.LFE2-.LFB2
 1532 0028 00000000 		.4byte	.LFB3
 1533 002c 3C000000 		.4byte	.LFE3-.LFB3
 1534 0030 00000000 		.4byte	.LFB4
 1535 0034 54000000 		.4byte	.LFE4-.LFB4
 1536 0038 00000000 		.4byte	0
 1537 003c 00000000 		.4byte	0
 1538              		.section	.debug_ranges,"",%progbits
 1539              	.Ldebug_ranges0:
 1540 0000 00000000 		.4byte	.LFB0
 1541 0004 10000000 		.4byte	.LFE0
 1542 0008 00000000 		.4byte	.LFB1
 1543 000c 30000000 		.4byte	.LFE1
 1544 0010 00000000 		.4byte	.LFB2
ARM GAS  C:\Users\CHUNGN~1\AppData\Local\Temp\ccAUT1Sz.s 			page 30


 1545 0014 3C000000 		.4byte	.LFE2
 1546 0018 00000000 		.4byte	.LFB3
 1547 001c 3C000000 		.4byte	.LFE3
 1548 0020 00000000 		.4byte	.LFB4
 1549 0024 54000000 		.4byte	.LFE4
 1550 0028 00000000 		.4byte	0
 1551 002c 00000000 		.4byte	0
 1552              		.section	.debug_line,"",%progbits
 1553              	.Ldebug_line0:
 1554 0000 F9010000 		.section	.debug_str,"MS",%progbits,1
 1554      02006A01 
 1554      00000201 
 1554      FB0E0D00 
 1554      01010101 
 1555              	.LASF5:
 1556 0000 5F5F7569 		.ascii	"__uint8_t\000"
 1556      6E74385F 
 1556      7400
 1557              	.LASF22:
 1558 000a 6932635F 		.ascii	"i2c_user_master_readByte\000"
 1558      75736572 
 1558      5F6D6173 
 1558      7465725F 
 1558      72656164 
 1559              	.LASF38:
 1560 0023 453A5C5F 		.ascii	"E:\\_MAKIPOS\\Gesture\\Code_PSoC\\Workspace01\\APDS"
 1560      4D414B49 
 1560      504F535C 
 1560      47657374 
 1560      7572655C 
 1561 0051 39393630 		.ascii	"9960.cydsn\000"
 1561      2E637964 
 1561      736E00
 1562              	.LASF33:
 1563 005c 4932434D 		.ascii	"I2CM_I2CMasterSendStop\000"
 1563      5F493243 
 1563      4D617374 
 1563      65725365 
 1563      6E645374 
 1564              	.LASF20:
 1565 0073 62797465 		.ascii	"byte\000"
 1565      00
 1566              	.LASF23:
 1567 0078 73746174 		.ascii	"status\000"
 1567      757300
 1568              	.LASF27:
 1569 007f 6932635F 		.ascii	"i2c_user_master_readData\000"
 1569      75736572 
 1569      5F6D6173 
 1569      7465725F 
 1569      72656164 
 1570              	.LASF39:
 1571 0098 6932635F 		.ascii	"i2c_user_master_init\000"
 1571      75736572 
 1571      5F6D6173 
 1571      7465725F 
 1571      696E6974 
ARM GAS  C:\Users\CHUNGN~1\AppData\Local\Temp\ccAUT1Sz.s 			page 31


 1572              	.LASF26:
 1573 00ad 73697A65 		.ascii	"sizeData\000"
 1573      44617461 
 1573      00
 1574              	.LASF13:
 1575 00b6 666C6F61 		.ascii	"float\000"
 1575      7400
 1576              	.LASF28:
 1577 00bc 64617461 		.ascii	"dataRx\000"
 1577      527800
 1578              	.LASF21:
 1579 00c3 6932635F 		.ascii	"i2c_user_master_writeByte\000"
 1579      75736572 
 1579      5F6D6173 
 1579      7465725F 
 1579      77726974 
 1580              	.LASF18:
 1581 00dd 4932434D 		.ascii	"I2CM_ErrorTypedef_t\000"
 1581      5F457272 
 1581      6F725479 
 1581      70656465 
 1581      665F7400 
 1582              	.LASF19:
 1583 00f1 736C6176 		.ascii	"slaveAdd\000"
 1583      65416464 
 1583      00
 1584              	.LASF7:
 1585 00fa 6C6F6E67 		.ascii	"long unsigned int\000"
 1585      20756E73 
 1585      69676E65 
 1585      6420696E 
 1585      7400
 1586              	.LASF34:
 1587 010c 4932434D 		.ascii	"I2CM_I2CMasterSendRestart\000"
 1587      5F493243 
 1587      4D617374 
 1587      65725365 
 1587      6E645265 
 1588              	.LASF3:
 1589 0126 73686F72 		.ascii	"short unsigned int\000"
 1589      7420756E 
 1589      7369676E 
 1589      65642069 
 1589      6E7400
 1590              	.LASF24:
 1591 0139 6932635F 		.ascii	"i2c_user_master_writeData\000"
 1591      75736572 
 1591      5F6D6173 
 1591      7465725F 
 1591      77726974 
 1592              	.LASF37:
 1593 0153 6D794C69 		.ascii	"myLib\\i2c_user\\i2c_user.c\000"
 1593      625C6932 
 1593      635F7573 
 1593      65725C69 
 1593      32635F75 
 1594              	.LASF1:
ARM GAS  C:\Users\CHUNGN~1\AppData\Local\Temp\ccAUT1Sz.s 			page 32


 1595 016d 756E7369 		.ascii	"unsigned char\000"
 1595      676E6564 
 1595      20636861 
 1595      7200
 1596              	.LASF14:
 1597 017b 646F7562 		.ascii	"double\000"
 1597      6C6500
 1598              	.LASF32:
 1599 0182 4932434D 		.ascii	"I2CM_I2CMasterWriteByte\000"
 1599      5F493243 
 1599      4D617374 
 1599      65725772 
 1599      69746542 
 1600              	.LASF6:
 1601 019a 5F5F7569 		.ascii	"__uint32_t\000"
 1601      6E743332 
 1601      5F7400
 1602              	.LASF29:
 1603 01a5 6932635F 		.ascii	"i2c_slaveAdd\000"
 1603      736C6176 
 1603      65416464 
 1603      00
 1604              	.LASF10:
 1605 01b2 756E7369 		.ascii	"unsigned int\000"
 1605      676E6564 
 1605      20696E74 
 1605      00
 1606              	.LASF30:
 1607 01bf 4932434D 		.ascii	"I2CM_Start\000"
 1607      5F537461 
 1607      727400
 1608              	.LASF9:
 1609 01ca 6C6F6E67 		.ascii	"long long unsigned int\000"
 1609      206C6F6E 
 1609      6720756E 
 1609      7369676E 
 1609      65642069 
 1610              	.LASF11:
 1611 01e1 75696E74 		.ascii	"uint8_t\000"
 1611      385F7400 
 1612              	.LASF36:
 1613 01e9 474E5520 		.ascii	"GNU C11 5.4.1 20160609 (release) [ARM/embedded-5-br"
 1613      43313120 
 1613      352E342E 
 1613      31203230 
 1613      31363036 
 1614 021c 616E6368 		.ascii	"anch revision 237715] -mcpu=cortex-m0 -mthumb -g -O"
 1614      20726576 
 1614      6973696F 
 1614      6E203233 
 1614      37373135 
 1615 024f 67202D66 		.ascii	"g -ffunction-sections -ffat-lto-objects\000"
 1615      66756E63 
 1615      74696F6E 
 1615      2D736563 
 1615      74696F6E 
 1616              	.LASF17:
ARM GAS  C:\Users\CHUNGN~1\AppData\Local\Temp\ccAUT1Sz.s 			page 33


 1617 0277 73697A65 		.ascii	"sizetype\000"
 1617      74797065 
 1617      00
 1618              	.LASF8:
 1619 0280 6C6F6E67 		.ascii	"long long int\000"
 1619      206C6F6E 
 1619      6720696E 
 1619      7400
 1620              	.LASF15:
 1621 028e 63686172 		.ascii	"char\000"
 1621      00
 1622              	.LASF2:
 1623 0293 73686F72 		.ascii	"short int\000"
 1623      7420696E 
 1623      7400
 1624              	.LASF31:
 1625 029d 4932434D 		.ascii	"I2CM_I2CMasterSendStart\000"
 1625      5F493243 
 1625      4D617374 
 1625      65725365 
 1625      6E645374 
 1626              	.LASF12:
 1627 02b5 75696E74 		.ascii	"uint32_t\000"
 1627      33325F74 
 1627      00
 1628              	.LASF4:
 1629 02be 6C6F6E67 		.ascii	"long int\000"
 1629      20696E74 
 1629      00
 1630              	.LASF16:
 1631 02c7 6C6F6E67 		.ascii	"long double\000"
 1631      20646F75 
 1631      626C6500 
 1632              	.LASF0:
 1633 02d3 7369676E 		.ascii	"signed char\000"
 1633      65642063 
 1633      68617200 
 1634              	.LASF35:
 1635 02df 4932434D 		.ascii	"I2CM_I2CMasterReadByte\000"
 1635      5F493243 
 1635      4D617374 
 1635      65725265 
 1635      61644279 
 1636              	.LASF25:
 1637 02f6 64617461 		.ascii	"dataTx\000"
 1637      547800
 1638              		.ident	"GCC: (GNU Tools for ARM Embedded Processors) 5.4.1 20160609 (release) [ARM/embedded-5-bran
