ARM GAS  C:\Users\CHUNGN~1\AppData\Local\Temp\cc0nENEe.s 			page 1


   1              		.syntax unified
   2              		.cpu cortex-m0
   3              		.fpu softvfp
   4              		.eabi_attribute 20, 1
   5              		.eabi_attribute 21, 1
   6              		.eabi_attribute 23, 3
   7              		.eabi_attribute 24, 1
   8              		.eabi_attribute 25, 1
   9              		.eabi_attribute 26, 1
  10              		.eabi_attribute 30, 1
  11              		.eabi_attribute 34, 0
  12              		.eabi_attribute 18, 4
  13              		.thumb
  14              		.syntax unified
  15              		.file	"I2CM_I2C.c"
  16              		.text
  17              	.Ltext0:
  18              		.cfi_sections	.debug_frame
  19              		.section	.text.I2CM_I2CInit,"ax",%progbits
  20              		.align	2
  21              		.global	I2CM_I2CInit
  22              		.code	16
  23              		.thumb_func
  24              		.type	I2CM_I2CInit, %function
  25              	I2CM_I2CInit:
  26              	.LFB0:
  27              		.file 1 "Generated_Source\\PSoC4\\I2CM_I2C.c"
   1:Generated_Source\PSoC4/I2CM_I2C.c **** /***************************************************************************//**
   2:Generated_Source\PSoC4/I2CM_I2C.c **** * \file I2CM_I2C.c
   3:Generated_Source\PSoC4/I2CM_I2C.c **** * \version 4.0
   4:Generated_Source\PSoC4/I2CM_I2C.c **** *
   5:Generated_Source\PSoC4/I2CM_I2C.c **** * \brief
   6:Generated_Source\PSoC4/I2CM_I2C.c **** *  This file provides the source code to the API for the SCB Component in
   7:Generated_Source\PSoC4/I2CM_I2C.c **** *  I2C mode.
   8:Generated_Source\PSoC4/I2CM_I2C.c **** *
   9:Generated_Source\PSoC4/I2CM_I2C.c **** * Note:
  10:Generated_Source\PSoC4/I2CM_I2C.c **** *
  11:Generated_Source\PSoC4/I2CM_I2C.c **** *******************************************************************************
  12:Generated_Source\PSoC4/I2CM_I2C.c **** * \copyright
  13:Generated_Source\PSoC4/I2CM_I2C.c **** * Copyright 2013-2017, Cypress Semiconductor Corporation.  All rights reserved.
  14:Generated_Source\PSoC4/I2CM_I2C.c **** * You may use this file only in accordance with the license, terms, conditions,
  15:Generated_Source\PSoC4/I2CM_I2C.c **** * disclaimers, and limitations in the end user license agreement accompanying
  16:Generated_Source\PSoC4/I2CM_I2C.c **** * the software package with which this file was provided.
  17:Generated_Source\PSoC4/I2CM_I2C.c **** *******************************************************************************/
  18:Generated_Source\PSoC4/I2CM_I2C.c **** 
  19:Generated_Source\PSoC4/I2CM_I2C.c **** #include "I2CM_PVT.h"
  20:Generated_Source\PSoC4/I2CM_I2C.c **** #include "I2CM_I2C_PVT.h"
  21:Generated_Source\PSoC4/I2CM_I2C.c **** 
  22:Generated_Source\PSoC4/I2CM_I2C.c **** 
  23:Generated_Source\PSoC4/I2CM_I2C.c **** /***************************************
  24:Generated_Source\PSoC4/I2CM_I2C.c **** *      I2C Private Vars
  25:Generated_Source\PSoC4/I2CM_I2C.c **** ***************************************/
  26:Generated_Source\PSoC4/I2CM_I2C.c **** 
  27:Generated_Source\PSoC4/I2CM_I2C.c **** volatile uint8 I2CM_state;  /* Current state of I2C FSM */
  28:Generated_Source\PSoC4/I2CM_I2C.c **** 
  29:Generated_Source\PSoC4/I2CM_I2C.c **** #if(I2CM_SCB_MODE_UNCONFIG_CONST_CFG)
  30:Generated_Source\PSoC4/I2CM_I2C.c **** 
ARM GAS  C:\Users\CHUNGN~1\AppData\Local\Temp\cc0nENEe.s 			page 2


  31:Generated_Source\PSoC4/I2CM_I2C.c ****     /***************************************
  32:Generated_Source\PSoC4/I2CM_I2C.c ****     *  Configuration Structure Initialization
  33:Generated_Source\PSoC4/I2CM_I2C.c ****     ***************************************/
  34:Generated_Source\PSoC4/I2CM_I2C.c **** 
  35:Generated_Source\PSoC4/I2CM_I2C.c ****     /* Constant configuration of I2C */
  36:Generated_Source\PSoC4/I2CM_I2C.c ****     const I2CM_I2C_INIT_STRUCT I2CM_configI2C =
  37:Generated_Source\PSoC4/I2CM_I2C.c ****     {
  38:Generated_Source\PSoC4/I2CM_I2C.c ****         I2CM_I2C_MODE,
  39:Generated_Source\PSoC4/I2CM_I2C.c ****         I2CM_I2C_OVS_FACTOR_LOW,
  40:Generated_Source\PSoC4/I2CM_I2C.c ****         I2CM_I2C_OVS_FACTOR_HIGH,
  41:Generated_Source\PSoC4/I2CM_I2C.c ****         I2CM_I2C_MEDIAN_FILTER_ENABLE,
  42:Generated_Source\PSoC4/I2CM_I2C.c ****         I2CM_I2C_SLAVE_ADDRESS,
  43:Generated_Source\PSoC4/I2CM_I2C.c ****         I2CM_I2C_SLAVE_ADDRESS_MASK,
  44:Generated_Source\PSoC4/I2CM_I2C.c ****         I2CM_I2C_ACCEPT_ADDRESS,
  45:Generated_Source\PSoC4/I2CM_I2C.c ****         I2CM_I2C_WAKE_ENABLE,
  46:Generated_Source\PSoC4/I2CM_I2C.c ****         I2CM_I2C_BYTE_MODE_ENABLE,
  47:Generated_Source\PSoC4/I2CM_I2C.c ****         I2CM_I2C_DATA_RATE,
  48:Generated_Source\PSoC4/I2CM_I2C.c ****         I2CM_I2C_ACCEPT_GENERAL_CALL,
  49:Generated_Source\PSoC4/I2CM_I2C.c ****     };
  50:Generated_Source\PSoC4/I2CM_I2C.c **** 
  51:Generated_Source\PSoC4/I2CM_I2C.c ****     /*******************************************************************************
  52:Generated_Source\PSoC4/I2CM_I2C.c ****     * Function Name: I2CM_I2CInit
  53:Generated_Source\PSoC4/I2CM_I2C.c ****     ****************************************************************************//**
  54:Generated_Source\PSoC4/I2CM_I2C.c ****     *
  55:Generated_Source\PSoC4/I2CM_I2C.c ****     *
  56:Generated_Source\PSoC4/I2CM_I2C.c ****     *  Configures the I2CM for I2C operation.
  57:Generated_Source\PSoC4/I2CM_I2C.c ****     *
  58:Generated_Source\PSoC4/I2CM_I2C.c ****     *  This function is intended specifically to be used when the I2CM 
  59:Generated_Source\PSoC4/I2CM_I2C.c ****     *  configuration is set to “Unconfigured I2CM” in the customizer. 
  60:Generated_Source\PSoC4/I2CM_I2C.c ****     *  After initializing the I2CM in I2C mode using this function, 
  61:Generated_Source\PSoC4/I2CM_I2C.c ****     *  the component can be enabled using the I2CM_Start() or 
  62:Generated_Source\PSoC4/I2CM_I2C.c ****     * I2CM_Enable() function.
  63:Generated_Source\PSoC4/I2CM_I2C.c ****     *  This function uses a pointer to a structure that provides the configuration 
  64:Generated_Source\PSoC4/I2CM_I2C.c ****     *  settings. This structure contains the same information that would otherwise 
  65:Generated_Source\PSoC4/I2CM_I2C.c ****     *  be provided by the customizer settings.
  66:Generated_Source\PSoC4/I2CM_I2C.c ****     *
  67:Generated_Source\PSoC4/I2CM_I2C.c ****     *  \param config: pointer to a structure that contains the following list of 
  68:Generated_Source\PSoC4/I2CM_I2C.c ****     *   fields. These fields match the selections available in the customizer. 
  69:Generated_Source\PSoC4/I2CM_I2C.c ****     *   Refer to the customizer for further description of the settings.
  70:Generated_Source\PSoC4/I2CM_I2C.c ****     *
  71:Generated_Source\PSoC4/I2CM_I2C.c ****     *******************************************************************************/
  72:Generated_Source\PSoC4/I2CM_I2C.c ****     void I2CM_I2CInit(const I2CM_I2C_INIT_STRUCT *config)
  73:Generated_Source\PSoC4/I2CM_I2C.c ****     {
  74:Generated_Source\PSoC4/I2CM_I2C.c ****         uint32 medianFilter;
  75:Generated_Source\PSoC4/I2CM_I2C.c ****         uint32 locEnableWake;
  76:Generated_Source\PSoC4/I2CM_I2C.c **** 
  77:Generated_Source\PSoC4/I2CM_I2C.c ****         if(NULL == config)
  78:Generated_Source\PSoC4/I2CM_I2C.c ****         {
  79:Generated_Source\PSoC4/I2CM_I2C.c ****             CYASSERT(0u != 0u); /* Halt execution due to bad function parameter */
  80:Generated_Source\PSoC4/I2CM_I2C.c ****         }
  81:Generated_Source\PSoC4/I2CM_I2C.c ****         else
  82:Generated_Source\PSoC4/I2CM_I2C.c ****         {
  83:Generated_Source\PSoC4/I2CM_I2C.c ****             /* Configure pins */
  84:Generated_Source\PSoC4/I2CM_I2C.c ****             I2CM_SetPins(I2CM_SCB_MODE_I2C, I2CM_DUMMY_PARAM,
  85:Generated_Source\PSoC4/I2CM_I2C.c ****                                      I2CM_DUMMY_PARAM);
  86:Generated_Source\PSoC4/I2CM_I2C.c **** 
  87:Generated_Source\PSoC4/I2CM_I2C.c ****             /* Store internal configuration */
ARM GAS  C:\Users\CHUNGN~1\AppData\Local\Temp\cc0nENEe.s 			page 3


  88:Generated_Source\PSoC4/I2CM_I2C.c ****             I2CM_scbMode       = (uint8) I2CM_SCB_MODE_I2C;
  89:Generated_Source\PSoC4/I2CM_I2C.c ****             I2CM_scbEnableWake = (uint8) config->enableWake;
  90:Generated_Source\PSoC4/I2CM_I2C.c ****             I2CM_scbEnableIntr = (uint8) I2CM_SCB_IRQ_INTERNAL;
  91:Generated_Source\PSoC4/I2CM_I2C.c **** 
  92:Generated_Source\PSoC4/I2CM_I2C.c ****             I2CM_mode          = (uint8) config->mode;
  93:Generated_Source\PSoC4/I2CM_I2C.c ****             I2CM_acceptAddr    = (uint8) config->acceptAddr;
  94:Generated_Source\PSoC4/I2CM_I2C.c **** 
  95:Generated_Source\PSoC4/I2CM_I2C.c ****         #if (I2CM_CY_SCBIP_V0)
  96:Generated_Source\PSoC4/I2CM_I2C.c ****             /* Adjust SDA filter settings. Ticket ID#150521 */
  97:Generated_Source\PSoC4/I2CM_I2C.c ****             I2CM_SET_I2C_CFG_SDA_FILT_TRIM(I2CM_EC_AM_I2C_CFG_SDA_FILT_TRIM);
  98:Generated_Source\PSoC4/I2CM_I2C.c ****         #endif /* (I2CM_CY_SCBIP_V0) */
  99:Generated_Source\PSoC4/I2CM_I2C.c **** 
 100:Generated_Source\PSoC4/I2CM_I2C.c ****             /* Adjust AF and DF filter settings. Ticket ID#176179 */
 101:Generated_Source\PSoC4/I2CM_I2C.c ****             if (((I2CM_I2C_MODE_SLAVE != config->mode) &&
 102:Generated_Source\PSoC4/I2CM_I2C.c ****                  (config->dataRate <= I2CM_I2C_DATA_RATE_FS_MODE_MAX)) ||
 103:Generated_Source\PSoC4/I2CM_I2C.c ****                  (I2CM_I2C_MODE_SLAVE == config->mode))
 104:Generated_Source\PSoC4/I2CM_I2C.c ****             {
 105:Generated_Source\PSoC4/I2CM_I2C.c ****                 /* AF = 1, DF = 0 */
 106:Generated_Source\PSoC4/I2CM_I2C.c ****                 I2CM_I2C_CFG_ANALOG_FITER_ENABLE;
 107:Generated_Source\PSoC4/I2CM_I2C.c ****                 medianFilter = I2CM_DIGITAL_FILTER_DISABLE;
 108:Generated_Source\PSoC4/I2CM_I2C.c ****             }
 109:Generated_Source\PSoC4/I2CM_I2C.c ****             else
 110:Generated_Source\PSoC4/I2CM_I2C.c ****             {
 111:Generated_Source\PSoC4/I2CM_I2C.c ****                 /* AF = 0, DF = 1 */
 112:Generated_Source\PSoC4/I2CM_I2C.c ****                 I2CM_I2C_CFG_ANALOG_FITER_DISABLE;
 113:Generated_Source\PSoC4/I2CM_I2C.c ****                 medianFilter = I2CM_DIGITAL_FILTER_ENABLE;
 114:Generated_Source\PSoC4/I2CM_I2C.c ****             }
 115:Generated_Source\PSoC4/I2CM_I2C.c **** 
 116:Generated_Source\PSoC4/I2CM_I2C.c ****         #if (!I2CM_CY_SCBIP_V0)
 117:Generated_Source\PSoC4/I2CM_I2C.c ****             locEnableWake = (I2CM_I2C_MULTI_MASTER_SLAVE) ? (0u) : (config->enableWake);
 118:Generated_Source\PSoC4/I2CM_I2C.c ****         #else
 119:Generated_Source\PSoC4/I2CM_I2C.c ****             locEnableWake = config->enableWake;
 120:Generated_Source\PSoC4/I2CM_I2C.c ****         #endif /* (!I2CM_CY_SCBIP_V0) */
 121:Generated_Source\PSoC4/I2CM_I2C.c **** 
 122:Generated_Source\PSoC4/I2CM_I2C.c ****             /* Configure I2C interface */
 123:Generated_Source\PSoC4/I2CM_I2C.c ****             I2CM_CTRL_REG     = I2CM_GET_CTRL_BYTE_MODE  (config->enableByteMode) |
 124:Generated_Source\PSoC4/I2CM_I2C.c ****                                             I2CM_GET_CTRL_ADDR_ACCEPT(config->acceptAddr)     |
 125:Generated_Source\PSoC4/I2CM_I2C.c ****                                             I2CM_GET_CTRL_EC_AM_MODE (locEnableWake);
 126:Generated_Source\PSoC4/I2CM_I2C.c **** 
 127:Generated_Source\PSoC4/I2CM_I2C.c ****             I2CM_I2C_CTRL_REG = I2CM_GET_I2C_CTRL_HIGH_PHASE_OVS(config->oversampleHigh) |
 128:Generated_Source\PSoC4/I2CM_I2C.c ****                     I2CM_GET_I2C_CTRL_LOW_PHASE_OVS (config->oversampleLow)                        
 129:Generated_Source\PSoC4/I2CM_I2C.c ****                     I2CM_GET_I2C_CTRL_S_GENERAL_IGNORE((uint32)(0u == config->acceptGeneralAddr))  
 130:Generated_Source\PSoC4/I2CM_I2C.c ****                     I2CM_GET_I2C_CTRL_SL_MSTR_MODE  (config->mode);
 131:Generated_Source\PSoC4/I2CM_I2C.c **** 
 132:Generated_Source\PSoC4/I2CM_I2C.c ****             /* Configure RX direction */
 133:Generated_Source\PSoC4/I2CM_I2C.c ****             I2CM_RX_CTRL_REG      = I2CM_GET_RX_CTRL_MEDIAN(medianFilter) |
 134:Generated_Source\PSoC4/I2CM_I2C.c ****                                                 I2CM_I2C_RX_CTRL;
 135:Generated_Source\PSoC4/I2CM_I2C.c ****             I2CM_RX_FIFO_CTRL_REG = I2CM_CLEAR_REG;
 136:Generated_Source\PSoC4/I2CM_I2C.c **** 
 137:Generated_Source\PSoC4/I2CM_I2C.c ****             /* Set default address and mask */
 138:Generated_Source\PSoC4/I2CM_I2C.c ****             I2CM_RX_MATCH_REG    = ((I2CM_I2C_SLAVE) ?
 139:Generated_Source\PSoC4/I2CM_I2C.c ****                                                 (I2CM_GET_I2C_8BIT_ADDRESS(config->slaveAddr) |
 140:Generated_Source\PSoC4/I2CM_I2C.c ****                                                  I2CM_GET_RX_MATCH_MASK(config->slaveAddrMask)) :
 141:Generated_Source\PSoC4/I2CM_I2C.c ****                                                 (I2CM_CLEAR_REG));
 142:Generated_Source\PSoC4/I2CM_I2C.c **** 
 143:Generated_Source\PSoC4/I2CM_I2C.c **** 
 144:Generated_Source\PSoC4/I2CM_I2C.c ****             /* Configure TX direction */
ARM GAS  C:\Users\CHUNGN~1\AppData\Local\Temp\cc0nENEe.s 			page 4


 145:Generated_Source\PSoC4/I2CM_I2C.c ****             I2CM_TX_CTRL_REG      = I2CM_I2C_TX_CTRL;
 146:Generated_Source\PSoC4/I2CM_I2C.c ****             I2CM_TX_FIFO_CTRL_REG = I2CM_CLEAR_REG;
 147:Generated_Source\PSoC4/I2CM_I2C.c **** 
 148:Generated_Source\PSoC4/I2CM_I2C.c ****             /* Configure interrupt with I2C handler but do not enable it */
 149:Generated_Source\PSoC4/I2CM_I2C.c ****             CyIntDisable    (I2CM_ISR_NUMBER);
 150:Generated_Source\PSoC4/I2CM_I2C.c ****             CyIntSetPriority(I2CM_ISR_NUMBER, I2CM_ISR_PRIORITY);
 151:Generated_Source\PSoC4/I2CM_I2C.c ****             (void) CyIntSetVector(I2CM_ISR_NUMBER, &I2CM_I2C_ISR);
 152:Generated_Source\PSoC4/I2CM_I2C.c **** 
 153:Generated_Source\PSoC4/I2CM_I2C.c ****             /* Configure interrupt sources */
 154:Generated_Source\PSoC4/I2CM_I2C.c ****         #if(!I2CM_CY_SCBIP_V1)
 155:Generated_Source\PSoC4/I2CM_I2C.c ****             I2CM_INTR_SPI_EC_MASK_REG = I2CM_NO_INTR_SOURCES;
 156:Generated_Source\PSoC4/I2CM_I2C.c ****         #endif /* (!I2CM_CY_SCBIP_V1) */
 157:Generated_Source\PSoC4/I2CM_I2C.c **** 
 158:Generated_Source\PSoC4/I2CM_I2C.c ****             I2CM_INTR_I2C_EC_MASK_REG = I2CM_NO_INTR_SOURCES;
 159:Generated_Source\PSoC4/I2CM_I2C.c ****             I2CM_INTR_RX_MASK_REG     = I2CM_NO_INTR_SOURCES;
 160:Generated_Source\PSoC4/I2CM_I2C.c ****             I2CM_INTR_TX_MASK_REG     = I2CM_NO_INTR_SOURCES;
 161:Generated_Source\PSoC4/I2CM_I2C.c **** 
 162:Generated_Source\PSoC4/I2CM_I2C.c ****             I2CM_INTR_SLAVE_MASK_REG  = ((I2CM_I2C_SLAVE) ?
 163:Generated_Source\PSoC4/I2CM_I2C.c ****                             (I2CM_GET_INTR_SLAVE_I2C_GENERAL(config->acceptGeneralAddr) |
 164:Generated_Source\PSoC4/I2CM_I2C.c ****                              I2CM_I2C_INTR_SLAVE_MASK) : (I2CM_CLEAR_REG));
 165:Generated_Source\PSoC4/I2CM_I2C.c **** 
 166:Generated_Source\PSoC4/I2CM_I2C.c ****             I2CM_INTR_MASTER_MASK_REG = I2CM_NO_INTR_SOURCES;
 167:Generated_Source\PSoC4/I2CM_I2C.c **** 
 168:Generated_Source\PSoC4/I2CM_I2C.c ****             /* Configure global variables */
 169:Generated_Source\PSoC4/I2CM_I2C.c ****             I2CM_state = I2CM_I2C_FSM_IDLE;
 170:Generated_Source\PSoC4/I2CM_I2C.c **** 
 171:Generated_Source\PSoC4/I2CM_I2C.c ****             /* Internal slave variables */
 172:Generated_Source\PSoC4/I2CM_I2C.c ****             I2CM_slStatus        = 0u;
 173:Generated_Source\PSoC4/I2CM_I2C.c ****             I2CM_slRdBufIndex    = 0u;
 174:Generated_Source\PSoC4/I2CM_I2C.c ****             I2CM_slWrBufIndex    = 0u;
 175:Generated_Source\PSoC4/I2CM_I2C.c ****             I2CM_slOverFlowCount = 0u;
 176:Generated_Source\PSoC4/I2CM_I2C.c **** 
 177:Generated_Source\PSoC4/I2CM_I2C.c ****             /* Internal master variables */
 178:Generated_Source\PSoC4/I2CM_I2C.c ****             I2CM_mstrStatus     = 0u;
 179:Generated_Source\PSoC4/I2CM_I2C.c ****             I2CM_mstrRdBufIndex = 0u;
 180:Generated_Source\PSoC4/I2CM_I2C.c ****             I2CM_mstrWrBufIndex = 0u;
 181:Generated_Source\PSoC4/I2CM_I2C.c ****         }
 182:Generated_Source\PSoC4/I2CM_I2C.c ****     }
 183:Generated_Source\PSoC4/I2CM_I2C.c **** 
 184:Generated_Source\PSoC4/I2CM_I2C.c **** #else
 185:Generated_Source\PSoC4/I2CM_I2C.c **** 
 186:Generated_Source\PSoC4/I2CM_I2C.c ****     /*******************************************************************************
 187:Generated_Source\PSoC4/I2CM_I2C.c ****     * Function Name: I2CM_I2CInit
 188:Generated_Source\PSoC4/I2CM_I2C.c ****     ****************************************************************************//**
 189:Generated_Source\PSoC4/I2CM_I2C.c ****     *
 190:Generated_Source\PSoC4/I2CM_I2C.c ****     *  Configures the SCB for the I2C operation.
 191:Generated_Source\PSoC4/I2CM_I2C.c ****     *
 192:Generated_Source\PSoC4/I2CM_I2C.c ****     *******************************************************************************/
 193:Generated_Source\PSoC4/I2CM_I2C.c ****     void I2CM_I2CInit(void)
 194:Generated_Source\PSoC4/I2CM_I2C.c ****     {
  28              		.loc 1 194 0
  29              		.cfi_startproc
  30              		@ args = 0, pretend = 0, frame = 0
  31              		@ frame_needed = 0, uses_anonymous_args = 0
  32 0000 10B5     		push	{r4, lr}
  33              		.cfi_def_cfa_offset 8
  34              		.cfi_offset 4, -8
ARM GAS  C:\Users\CHUNGN~1\AppData\Local\Temp\cc0nENEe.s 			page 5


  35              		.cfi_offset 14, -4
 195:Generated_Source\PSoC4/I2CM_I2C.c ****     #if(I2CM_CY_SCBIP_V0)
 196:Generated_Source\PSoC4/I2CM_I2C.c ****         /* Adjust SDA filter settings. Ticket ID#150521 */
 197:Generated_Source\PSoC4/I2CM_I2C.c ****         I2CM_SET_I2C_CFG_SDA_FILT_TRIM(I2CM_EC_AM_I2C_CFG_SDA_FILT_TRIM);
 198:Generated_Source\PSoC4/I2CM_I2C.c ****     #endif /* (I2CM_CY_SCBIP_V0) */
 199:Generated_Source\PSoC4/I2CM_I2C.c **** 
 200:Generated_Source\PSoC4/I2CM_I2C.c ****         /* Adjust AF and DF filter settings. Ticket ID#176179 */
 201:Generated_Source\PSoC4/I2CM_I2C.c ****         I2CM_I2C_CFG_ANALOG_FITER_ENABLE_ADJ;
 202:Generated_Source\PSoC4/I2CM_I2C.c **** 
 203:Generated_Source\PSoC4/I2CM_I2C.c ****         /* Configure I2C interface */
 204:Generated_Source\PSoC4/I2CM_I2C.c ****         I2CM_CTRL_REG     = I2CM_I2C_DEFAULT_CTRL;
  36              		.loc 1 204 0
  37 0002 0024     		movs	r4, #0
  38 0004 174B     		ldr	r3, .L2
  39 0006 1C60     		str	r4, [r3]
 205:Generated_Source\PSoC4/I2CM_I2C.c ****         I2CM_I2C_CTRL_REG = I2CM_I2C_DEFAULT_I2C_CTRL;
  40              		.loc 1 205 0
  41 0008 174A     		ldr	r2, .L2+4
  42 000a 184B     		ldr	r3, .L2+8
  43 000c 1A60     		str	r2, [r3]
 206:Generated_Source\PSoC4/I2CM_I2C.c **** 
 207:Generated_Source\PSoC4/I2CM_I2C.c ****         /* Configure RX direction */
 208:Generated_Source\PSoC4/I2CM_I2C.c ****         I2CM_RX_CTRL_REG      = I2CM_I2C_DEFAULT_RX_CTRL;
  44              		.loc 1 208 0
  45 000e 184B     		ldr	r3, .L2+12
  46 0010 184A     		ldr	r2, .L2+16
  47 0012 1360     		str	r3, [r2]
 209:Generated_Source\PSoC4/I2CM_I2C.c ****         I2CM_RX_FIFO_CTRL_REG = I2CM_I2C_DEFAULT_RX_FIFO_CTRL;
  48              		.loc 1 209 0
  49 0014 184A     		ldr	r2, .L2+20
  50 0016 1460     		str	r4, [r2]
 210:Generated_Source\PSoC4/I2CM_I2C.c **** 
 211:Generated_Source\PSoC4/I2CM_I2C.c ****         /* Set default address and mask */
 212:Generated_Source\PSoC4/I2CM_I2C.c ****         I2CM_RX_MATCH_REG     = I2CM_I2C_DEFAULT_RX_MATCH;
  51              		.loc 1 212 0
  52 0018 184A     		ldr	r2, .L2+24
  53 001a 1460     		str	r4, [r2]
 213:Generated_Source\PSoC4/I2CM_I2C.c **** 
 214:Generated_Source\PSoC4/I2CM_I2C.c ****         /* Configure TX direction */
 215:Generated_Source\PSoC4/I2CM_I2C.c ****         I2CM_TX_CTRL_REG      = I2CM_I2C_DEFAULT_TX_CTRL;
  54              		.loc 1 215 0
  55 001c 184A     		ldr	r2, .L2+28
  56 001e 1360     		str	r3, [r2]
 216:Generated_Source\PSoC4/I2CM_I2C.c ****         I2CM_TX_FIFO_CTRL_REG = I2CM_I2C_DEFAULT_TX_FIFO_CTRL;
  57              		.loc 1 216 0
  58 0020 184B     		ldr	r3, .L2+32
  59 0022 1C60     		str	r4, [r3]
 217:Generated_Source\PSoC4/I2CM_I2C.c **** 
 218:Generated_Source\PSoC4/I2CM_I2C.c ****         /* Configure interrupt with I2C handler but do not enable it */
 219:Generated_Source\PSoC4/I2CM_I2C.c ****         CyIntDisable    (I2CM_ISR_NUMBER);
  60              		.loc 1 219 0
  61 0024 0520     		movs	r0, #5
  62 0026 FFF7FEFF 		bl	CyIntDisable
  63              	.LVL0:
 220:Generated_Source\PSoC4/I2CM_I2C.c ****         CyIntSetPriority(I2CM_ISR_NUMBER, I2CM_ISR_PRIORITY);
  64              		.loc 1 220 0
  65 002a 0321     		movs	r1, #3
ARM GAS  C:\Users\CHUNGN~1\AppData\Local\Temp\cc0nENEe.s 			page 6


  66 002c 0520     		movs	r0, #5
  67 002e FFF7FEFF 		bl	CyIntSetPriority
  68              	.LVL1:
 221:Generated_Source\PSoC4/I2CM_I2C.c ****     #if(!I2CM_I2C_EXTERN_INTR_HANDLER)
 222:Generated_Source\PSoC4/I2CM_I2C.c ****         (void) CyIntSetVector(I2CM_ISR_NUMBER, &I2CM_I2C_ISR);
  69              		.loc 1 222 0
  70 0032 1549     		ldr	r1, .L2+36
  71 0034 0520     		movs	r0, #5
  72 0036 FFF7FEFF 		bl	CyIntSetVector
  73              	.LVL2:
 223:Generated_Source\PSoC4/I2CM_I2C.c ****     #endif /* (I2CM_I2C_EXTERN_INTR_HANDLER) */
 224:Generated_Source\PSoC4/I2CM_I2C.c **** 
 225:Generated_Source\PSoC4/I2CM_I2C.c ****         /* Configure interrupt sources */
 226:Generated_Source\PSoC4/I2CM_I2C.c ****     #if(!I2CM_CY_SCBIP_V1)
 227:Generated_Source\PSoC4/I2CM_I2C.c ****         I2CM_INTR_SPI_EC_MASK_REG = I2CM_I2C_DEFAULT_INTR_SPI_EC_MASK;
 228:Generated_Source\PSoC4/I2CM_I2C.c ****     #endif /* (!I2CM_CY_SCBIP_V1) */
 229:Generated_Source\PSoC4/I2CM_I2C.c **** 
 230:Generated_Source\PSoC4/I2CM_I2C.c ****         I2CM_INTR_I2C_EC_MASK_REG = I2CM_I2C_DEFAULT_INTR_I2C_EC_MASK;
  74              		.loc 1 230 0
  75 003a 144B     		ldr	r3, .L2+40
  76 003c 1C60     		str	r4, [r3]
 231:Generated_Source\PSoC4/I2CM_I2C.c ****         I2CM_INTR_SLAVE_MASK_REG  = I2CM_I2C_DEFAULT_INTR_SLAVE_MASK;
  77              		.loc 1 231 0
  78 003e 144B     		ldr	r3, .L2+44
  79 0040 1C60     		str	r4, [r3]
 232:Generated_Source\PSoC4/I2CM_I2C.c ****         I2CM_INTR_MASTER_MASK_REG = I2CM_I2C_DEFAULT_INTR_MASTER_MASK;
  80              		.loc 1 232 0
  81 0042 144B     		ldr	r3, .L2+48
  82 0044 1C60     		str	r4, [r3]
 233:Generated_Source\PSoC4/I2CM_I2C.c ****         I2CM_INTR_RX_MASK_REG     = I2CM_I2C_DEFAULT_INTR_RX_MASK;
  83              		.loc 1 233 0
  84 0046 144B     		ldr	r3, .L2+52
  85 0048 1C60     		str	r4, [r3]
 234:Generated_Source\PSoC4/I2CM_I2C.c ****         I2CM_INTR_TX_MASK_REG     = I2CM_I2C_DEFAULT_INTR_TX_MASK;
  86              		.loc 1 234 0
  87 004a 144B     		ldr	r3, .L2+56
  88 004c 1C60     		str	r4, [r3]
 235:Generated_Source\PSoC4/I2CM_I2C.c **** 
 236:Generated_Source\PSoC4/I2CM_I2C.c ****         /* Configure global variables */
 237:Generated_Source\PSoC4/I2CM_I2C.c ****         I2CM_state = I2CM_I2C_FSM_IDLE;
  89              		.loc 1 237 0
  90 004e 1022     		movs	r2, #16
  91 0050 134B     		ldr	r3, .L2+60
  92 0052 1A70     		strb	r2, [r3]
 238:Generated_Source\PSoC4/I2CM_I2C.c **** 
 239:Generated_Source\PSoC4/I2CM_I2C.c ****     #if(I2CM_I2C_SLAVE)
 240:Generated_Source\PSoC4/I2CM_I2C.c ****         /* Internal slave variable */
 241:Generated_Source\PSoC4/I2CM_I2C.c ****         I2CM_slStatus        = 0u;
 242:Generated_Source\PSoC4/I2CM_I2C.c ****         I2CM_slRdBufIndex    = 0u;
 243:Generated_Source\PSoC4/I2CM_I2C.c ****         I2CM_slWrBufIndex    = 0u;
 244:Generated_Source\PSoC4/I2CM_I2C.c ****         I2CM_slOverFlowCount = 0u;
 245:Generated_Source\PSoC4/I2CM_I2C.c ****     #endif /* (I2CM_I2C_SLAVE) */
 246:Generated_Source\PSoC4/I2CM_I2C.c **** 
 247:Generated_Source\PSoC4/I2CM_I2C.c ****     #if(I2CM_I2C_MASTER)
 248:Generated_Source\PSoC4/I2CM_I2C.c ****     /* Internal master variable */
 249:Generated_Source\PSoC4/I2CM_I2C.c ****         I2CM_mstrStatus     = 0u;
  93              		.loc 1 249 0
ARM GAS  C:\Users\CHUNGN~1\AppData\Local\Temp\cc0nENEe.s 			page 7


  94 0054 134B     		ldr	r3, .L2+64
  95 0056 1C80     		strh	r4, [r3]
 250:Generated_Source\PSoC4/I2CM_I2C.c ****         I2CM_mstrRdBufIndex = 0u;
  96              		.loc 1 250 0
  97 0058 134B     		ldr	r3, .L2+68
  98 005a 1C60     		str	r4, [r3]
 251:Generated_Source\PSoC4/I2CM_I2C.c ****         I2CM_mstrWrBufIndex = 0u;
  99              		.loc 1 251 0
 100 005c 134B     		ldr	r3, .L2+72
 101 005e 1C60     		str	r4, [r3]
 252:Generated_Source\PSoC4/I2CM_I2C.c ****     #endif /* (I2CM_I2C_MASTER) */
 253:Generated_Source\PSoC4/I2CM_I2C.c ****     }
 102              		.loc 1 253 0
 103              		@ sp needed
 104 0060 10BD     		pop	{r4, pc}
 105              	.L3:
 106 0062 C046     		.align	2
 107              	.L2:
 108 0064 00000640 		.word	1074135040
 109 0068 88080080 		.word	-2147481464
 110 006c 60000640 		.word	1074135136
 111 0070 07010080 		.word	-2147483385
 112 0074 00030640 		.word	1074135808
 113 0078 04030640 		.word	1074135812
 114 007c 10030640 		.word	1074135824
 115 0080 00020640 		.word	1074135552
 116 0084 04020640 		.word	1074135556
 117 0088 00000000 		.word	I2CM_I2C_ISR
 118 008c 880E0640 		.word	1074138760
 119 0090 480F0640 		.word	1074138952
 120 0094 080F0640 		.word	1074138888
 121 0098 C80F0640 		.word	1074139080
 122 009c 880F0640 		.word	1074139016
 123 00a0 00000000 		.word	I2CM_state
 124 00a4 00000000 		.word	I2CM_mstrStatus
 125 00a8 00000000 		.word	I2CM_mstrRdBufIndex
 126 00ac 00000000 		.word	I2CM_mstrWrBufIndex
 127              		.cfi_endproc
 128              	.LFE0:
 129              		.size	I2CM_I2CInit, .-I2CM_I2CInit
 130              		.section	.text.I2CM_I2CStop,"ax",%progbits
 131              		.align	2
 132              		.global	I2CM_I2CStop
 133              		.code	16
 134              		.thumb_func
 135              		.type	I2CM_I2CStop, %function
 136              	I2CM_I2CStop:
 137              	.LFB1:
 254:Generated_Source\PSoC4/I2CM_I2C.c **** #endif /* (I2CM_SCB_MODE_UNCONFIG_CONST_CFG) */
 255:Generated_Source\PSoC4/I2CM_I2C.c **** 
 256:Generated_Source\PSoC4/I2CM_I2C.c **** 
 257:Generated_Source\PSoC4/I2CM_I2C.c **** /*******************************************************************************
 258:Generated_Source\PSoC4/I2CM_I2C.c **** * Function Name: I2CM_I2CStop
 259:Generated_Source\PSoC4/I2CM_I2C.c **** ****************************************************************************//**
 260:Generated_Source\PSoC4/I2CM_I2C.c **** *
 261:Generated_Source\PSoC4/I2CM_I2C.c **** *  Resets the I2C FSM into the default state.
 262:Generated_Source\PSoC4/I2CM_I2C.c **** *
ARM GAS  C:\Users\CHUNGN~1\AppData\Local\Temp\cc0nENEe.s 			page 8


 263:Generated_Source\PSoC4/I2CM_I2C.c **** *******************************************************************************/
 264:Generated_Source\PSoC4/I2CM_I2C.c **** void I2CM_I2CStop(void)
 265:Generated_Source\PSoC4/I2CM_I2C.c **** {
 138              		.loc 1 265 0
 139              		.cfi_startproc
 140              		@ args = 0, pretend = 0, frame = 0
 141              		@ frame_needed = 0, uses_anonymous_args = 0
 142              		@ link register save eliminated.
 266:Generated_Source\PSoC4/I2CM_I2C.c ****     /* Clear command registers because they keep assigned value after IP block was disabled */
 267:Generated_Source\PSoC4/I2CM_I2C.c ****     I2CM_I2C_MASTER_CMD_REG = 0u;
 143              		.loc 1 267 0
 144 0000 0023     		movs	r3, #0
 145 0002 044A     		ldr	r2, .L5
 146 0004 1360     		str	r3, [r2]
 268:Generated_Source\PSoC4/I2CM_I2C.c ****     I2CM_I2C_SLAVE_CMD_REG  = 0u;
 147              		.loc 1 268 0
 148 0006 044A     		ldr	r2, .L5+4
 149 0008 1360     		str	r3, [r2]
 269:Generated_Source\PSoC4/I2CM_I2C.c ****     
 270:Generated_Source\PSoC4/I2CM_I2C.c ****     I2CM_state = I2CM_I2C_FSM_IDLE;
 150              		.loc 1 270 0
 151 000a 1022     		movs	r2, #16
 152 000c 034B     		ldr	r3, .L5+8
 153 000e 1A70     		strb	r2, [r3]
 271:Generated_Source\PSoC4/I2CM_I2C.c **** }
 154              		.loc 1 271 0
 155              		@ sp needed
 156 0010 7047     		bx	lr
 157              	.L6:
 158 0012 C046     		.align	2
 159              	.L5:
 160 0014 68000640 		.word	1074135144
 161 0018 6C000640 		.word	1074135148
 162 001c 00000000 		.word	I2CM_state
 163              		.cfi_endproc
 164              	.LFE1:
 165              		.size	I2CM_I2CStop, .-I2CM_I2CStop
 166              		.section	.text.I2CM_I2CFwBlockReset,"ax",%progbits
 167              		.align	2
 168              		.global	I2CM_I2CFwBlockReset
 169              		.code	16
 170              		.thumb_func
 171              		.type	I2CM_I2CFwBlockReset, %function
 172              	I2CM_I2CFwBlockReset:
 173              	.LFB2:
 272:Generated_Source\PSoC4/I2CM_I2C.c **** 
 273:Generated_Source\PSoC4/I2CM_I2C.c **** 
 274:Generated_Source\PSoC4/I2CM_I2C.c **** /*******************************************************************************
 275:Generated_Source\PSoC4/I2CM_I2C.c **** * Function Name: I2CM_I2CFwBlockReset
 276:Generated_Source\PSoC4/I2CM_I2C.c **** ****************************************************************************//**
 277:Generated_Source\PSoC4/I2CM_I2C.c **** *
 278:Generated_Source\PSoC4/I2CM_I2C.c **** * Resets the scb IP block and I2C into the known state.
 279:Generated_Source\PSoC4/I2CM_I2C.c **** *
 280:Generated_Source\PSoC4/I2CM_I2C.c **** *******************************************************************************/
 281:Generated_Source\PSoC4/I2CM_I2C.c **** void I2CM_I2CFwBlockReset(void)
 282:Generated_Source\PSoC4/I2CM_I2C.c **** {
 174              		.loc 1 282 0
ARM GAS  C:\Users\CHUNGN~1\AppData\Local\Temp\cc0nENEe.s 			page 9


 175              		.cfi_startproc
 176              		@ args = 0, pretend = 0, frame = 0
 177              		@ frame_needed = 0, uses_anonymous_args = 0
 178 0000 10B5     		push	{r4, lr}
 179              		.cfi_def_cfa_offset 8
 180              		.cfi_offset 4, -8
 181              		.cfi_offset 14, -4
 283:Generated_Source\PSoC4/I2CM_I2C.c ****     /* Disable scb IP: stop respond to I2C traffic */
 284:Generated_Source\PSoC4/I2CM_I2C.c ****     I2CM_CTRL_REG &= (uint32) ~I2CM_CTRL_ENABLED;
 182              		.loc 1 284 0
 183 0002 0E4A     		ldr	r2, .L8
 184 0004 1368     		ldr	r3, [r2]
 185 0006 5B00     		lsls	r3, r3, #1
 186 0008 5B08     		lsrs	r3, r3, #1
 187 000a 1360     		str	r3, [r2]
 285:Generated_Source\PSoC4/I2CM_I2C.c **** 
 286:Generated_Source\PSoC4/I2CM_I2C.c ****     /* Clear command registers they are not cleared after scb IP is disabled */
 287:Generated_Source\PSoC4/I2CM_I2C.c ****     I2CM_I2C_MASTER_CMD_REG = 0u;
 188              		.loc 1 287 0
 189 000c 0023     		movs	r3, #0
 190 000e 0C49     		ldr	r1, .L8+4
 191 0010 0B60     		str	r3, [r1]
 288:Generated_Source\PSoC4/I2CM_I2C.c ****     I2CM_I2C_SLAVE_CMD_REG  = 0u;
 192              		.loc 1 288 0
 193 0012 0C49     		ldr	r1, .L8+8
 194 0014 0B60     		str	r3, [r1]
 289:Generated_Source\PSoC4/I2CM_I2C.c **** 
 290:Generated_Source\PSoC4/I2CM_I2C.c ****     I2CM_DISABLE_AUTO_DATA;
 195              		.loc 1 290 0
 196 0016 0C48     		ldr	r0, .L8+12
 197 0018 0468     		ldr	r4, [r0]
 198 001a 0C49     		ldr	r1, .L8+16
 199 001c 2140     		ands	r1, r4
 200 001e 0160     		str	r1, [r0]
 291:Generated_Source\PSoC4/I2CM_I2C.c **** 
 292:Generated_Source\PSoC4/I2CM_I2C.c ****     I2CM_SetTxInterruptMode(I2CM_NO_INTR_SOURCES);
 201              		.loc 1 292 0
 202 0020 0B49     		ldr	r1, .L8+20
 203 0022 0B60     		str	r3, [r1]
 293:Generated_Source\PSoC4/I2CM_I2C.c ****     I2CM_SetRxInterruptMode(I2CM_NO_INTR_SOURCES);
 204              		.loc 1 293 0
 205 0024 0B49     		ldr	r1, .L8+24
 206 0026 0B60     		str	r3, [r1]
 294:Generated_Source\PSoC4/I2CM_I2C.c ****     
 295:Generated_Source\PSoC4/I2CM_I2C.c **** #if(I2CM_CY_SCBIP_V0)
 296:Generated_Source\PSoC4/I2CM_I2C.c ****     /* Clear interrupt sources as they are not cleared after scb IP is disabled */
 297:Generated_Source\PSoC4/I2CM_I2C.c ****     I2CM_ClearTxInterruptSource    (I2CM_INTR_TX_ALL);
 298:Generated_Source\PSoC4/I2CM_I2C.c ****     I2CM_ClearRxInterruptSource    (I2CM_INTR_RX_ALL);
 299:Generated_Source\PSoC4/I2CM_I2C.c ****     I2CM_ClearSlaveInterruptSource (I2CM_INTR_SLAVE_ALL);
 300:Generated_Source\PSoC4/I2CM_I2C.c ****     I2CM_ClearMasterInterruptSource(I2CM_INTR_MASTER_ALL);
 301:Generated_Source\PSoC4/I2CM_I2C.c **** #endif /* (I2CM_CY_SCBIP_V0) */
 302:Generated_Source\PSoC4/I2CM_I2C.c **** 
 303:Generated_Source\PSoC4/I2CM_I2C.c ****     I2CM_state = I2CM_I2C_FSM_IDLE;
 207              		.loc 1 303 0
 208 0028 1021     		movs	r1, #16
 209 002a 0B4B     		ldr	r3, .L8+28
 210 002c 1970     		strb	r1, [r3]
ARM GAS  C:\Users\CHUNGN~1\AppData\Local\Temp\cc0nENEe.s 			page 10


 304:Generated_Source\PSoC4/I2CM_I2C.c **** 
 305:Generated_Source\PSoC4/I2CM_I2C.c ****     /* Enable scb IP: start respond to I2C traffic */
 306:Generated_Source\PSoC4/I2CM_I2C.c ****     I2CM_CTRL_REG |= (uint32) I2CM_CTRL_ENABLED;
 211              		.loc 1 306 0
 212 002e 1368     		ldr	r3, [r2]
 213 0030 8021     		movs	r1, #128
 214 0032 0906     		lsls	r1, r1, #24
 215 0034 0B43     		orrs	r3, r1
 216 0036 1360     		str	r3, [r2]
 307:Generated_Source\PSoC4/I2CM_I2C.c **** }
 217              		.loc 1 307 0
 218              		@ sp needed
 219 0038 10BD     		pop	{r4, pc}
 220              	.L9:
 221 003a C046     		.align	2
 222              	.L8:
 223 003c 00000640 		.word	1074135040
 224 0040 68000640 		.word	1074135144
 225 0044 6C000640 		.word	1074135148
 226 0048 60000640 		.word	1074135136
 227 004c FF5CFFFF 		.word	-41729
 228 0050 880F0640 		.word	1074139016
 229 0054 C80F0640 		.word	1074139080
 230 0058 00000000 		.word	I2CM_state
 231              		.cfi_endproc
 232              	.LFE2:
 233              		.size	I2CM_I2CFwBlockReset, .-I2CM_I2CFwBlockReset
 234              		.comm	I2CM_state,1,1
 235              		.text
 236              	.Letext0:
 237              		.file 2 "Generated_Source\\PSoC4/cytypes.h"
 238              		.file 3 "Generated_Source\\PSoC4\\I2CM_I2C_PVT.h"
 239              		.file 4 "Generated_Source\\PSoC4/CyLib.h"
 240              		.section	.debug_info,"",%progbits
 241              	.Ldebug_info0:
 242 0000 91010000 		.4byte	0x191
 243 0004 0400     		.2byte	0x4
 244 0006 00000000 		.4byte	.Ldebug_abbrev0
 245 000a 04       		.byte	0x4
 246 000b 01       		.uleb128 0x1
 247 000c 28010000 		.4byte	.LASF27
 248 0010 0C       		.byte	0xc
 249 0011 F3010000 		.4byte	.LASF28
 250 0015 4B000000 		.4byte	.LASF29
 251 0019 00000000 		.4byte	.Ldebug_ranges0+0
 252 001d 00000000 		.4byte	0
 253 0021 00000000 		.4byte	.Ldebug_line0
 254 0025 02       		.uleb128 0x2
 255 0026 01       		.byte	0x1
 256 0027 06       		.byte	0x6
 257 0028 41020000 		.4byte	.LASF0
 258 002c 02       		.uleb128 0x2
 259 002d 01       		.byte	0x1
 260 002e 08       		.byte	0x8
 261 002f B8000000 		.4byte	.LASF1
 262 0033 02       		.uleb128 0x2
 263 0034 02       		.byte	0x2
ARM GAS  C:\Users\CHUNGN~1\AppData\Local\Temp\cc0nENEe.s 			page 11


 264 0035 05       		.byte	0x5
 265 0036 22020000 		.4byte	.LASF2
 266 003a 02       		.uleb128 0x2
 267 003b 02       		.byte	0x2
 268 003c 07       		.byte	0x7
 269 003d 84000000 		.4byte	.LASF3
 270 0041 02       		.uleb128 0x2
 271 0042 04       		.byte	0x4
 272 0043 05       		.byte	0x5
 273 0044 2C020000 		.4byte	.LASF4
 274 0048 02       		.uleb128 0x2
 275 0049 04       		.byte	0x4
 276 004a 07       		.byte	0x7
 277 004b C6000000 		.4byte	.LASF5
 278 004f 02       		.uleb128 0x2
 279 0050 08       		.byte	0x8
 280 0051 05       		.byte	0x5
 281 0052 CC010000 		.4byte	.LASF6
 282 0056 02       		.uleb128 0x2
 283 0057 08       		.byte	0x8
 284 0058 07       		.byte	0x7
 285 0059 00010000 		.4byte	.LASF7
 286 005d 03       		.uleb128 0x3
 287 005e 04       		.byte	0x4
 288 005f 05       		.byte	0x5
 289 0060 696E7400 		.ascii	"int\000"
 290 0064 02       		.uleb128 0x2
 291 0065 04       		.byte	0x4
 292 0066 07       		.byte	0x7
 293 0067 F3000000 		.4byte	.LASF8
 294 006b 04       		.uleb128 0x4
 295 006c D8000000 		.4byte	.LASF9
 296 0070 02       		.byte	0x2
 297 0071 E401     		.2byte	0x1e4
 298 0073 2C000000 		.4byte	0x2c
 299 0077 04       		.uleb128 0x4
 300 0078 E5000000 		.4byte	.LASF10
 301 007c 02       		.byte	0x2
 302 007d E501     		.2byte	0x1e5
 303 007f 3A000000 		.4byte	0x3a
 304 0083 04       		.uleb128 0x4
 305 0084 EC000000 		.4byte	.LASF11
 306 0088 02       		.byte	0x2
 307 0089 E601     		.2byte	0x1e6
 308 008b 48000000 		.4byte	0x48
 309 008f 02       		.uleb128 0x2
 310 0090 04       		.byte	0x4
 311 0091 04       		.byte	0x4
 312 0092 B2000000 		.4byte	.LASF12
 313 0096 02       		.uleb128 0x2
 314 0097 08       		.byte	0x8
 315 0098 04       		.byte	0x4
 316 0099 DE000000 		.4byte	.LASF13
 317 009d 02       		.uleb128 0x2
 318 009e 01       		.byte	0x1
 319 009f 08       		.byte	0x8
 320 00a0 EE010000 		.4byte	.LASF14
ARM GAS  C:\Users\CHUNGN~1\AppData\Local\Temp\cc0nENEe.s 			page 12


 321 00a4 05       		.uleb128 0x5
 322 00a5 6B000000 		.4byte	0x6b
 323 00a9 05       		.uleb128 0x5
 324 00aa 77000000 		.4byte	0x77
 325 00ae 04       		.uleb128 0x4
 326 00af 15000000 		.4byte	.LASF15
 327 00b3 02       		.byte	0x2
 328 00b4 9002     		.2byte	0x290
 329 00b6 BA000000 		.4byte	0xba
 330 00ba 05       		.uleb128 0x5
 331 00bb 83000000 		.4byte	0x83
 332 00bf 02       		.uleb128 0x2
 333 00c0 08       		.byte	0x8
 334 00c1 04       		.byte	0x4
 335 00c2 35020000 		.4byte	.LASF16
 336 00c6 02       		.uleb128 0x2
 337 00c7 04       		.byte	0x4
 338 00c8 07       		.byte	0x7
 339 00c9 B6010000 		.4byte	.LASF17
 340 00cd 06       		.uleb128 0x6
 341 00ce 1B000000 		.4byte	.LASF30
 342 00d2 01       		.byte	0x1
 343 00d3 C1       		.byte	0xc1
 344 00d4 00000000 		.4byte	.LFB0
 345 00d8 B0000000 		.4byte	.LFE0-.LFB0
 346 00dc 01       		.uleb128 0x1
 347 00dd 9C       		.byte	0x9c
 348 00de 1D010000 		.4byte	0x11d
 349 00e2 07       		.uleb128 0x7
 350 00e3 2A000000 		.4byte	.LVL0
 351 00e7 73010000 		.4byte	0x173
 352 00eb F5000000 		.4byte	0xf5
 353 00ef 08       		.uleb128 0x8
 354 00f0 01       		.uleb128 0x1
 355 00f1 50       		.byte	0x50
 356 00f2 01       		.uleb128 0x1
 357 00f3 35       		.byte	0x35
 358 00f4 00       		.byte	0
 359 00f5 07       		.uleb128 0x7
 360 00f6 32000000 		.4byte	.LVL1
 361 00fa 7E010000 		.4byte	0x17e
 362 00fe 0D010000 		.4byte	0x10d
 363 0102 08       		.uleb128 0x8
 364 0103 01       		.uleb128 0x1
 365 0104 50       		.byte	0x50
 366 0105 01       		.uleb128 0x1
 367 0106 35       		.byte	0x35
 368 0107 08       		.uleb128 0x8
 369 0108 01       		.uleb128 0x1
 370 0109 51       		.byte	0x51
 371 010a 01       		.uleb128 0x1
 372 010b 33       		.byte	0x33
 373 010c 00       		.byte	0
 374 010d 09       		.uleb128 0x9
 375 010e 3A000000 		.4byte	.LVL2
 376 0112 89010000 		.4byte	0x189
 377 0116 08       		.uleb128 0x8
ARM GAS  C:\Users\CHUNGN~1\AppData\Local\Temp\cc0nENEe.s 			page 13


 378 0117 01       		.uleb128 0x1
 379 0118 50       		.byte	0x50
 380 0119 01       		.uleb128 0x1
 381 011a 35       		.byte	0x35
 382 011b 00       		.byte	0
 383 011c 00       		.byte	0
 384 011d 0A       		.uleb128 0xa
 385 011e BF010000 		.4byte	.LASF18
 386 0122 01       		.byte	0x1
 387 0123 0801     		.2byte	0x108
 388 0125 00000000 		.4byte	.LFB1
 389 0129 20000000 		.4byte	.LFE1-.LFB1
 390 012d 01       		.uleb128 0x1
 391 012e 9C       		.byte	0x9c
 392 012f 0A       		.uleb128 0xa
 393 0130 00000000 		.4byte	.LASF19
 394 0134 01       		.byte	0x1
 395 0135 1901     		.2byte	0x119
 396 0137 00000000 		.4byte	.LFB2
 397 013b 5C000000 		.4byte	.LFE2-.LFB2
 398 013f 01       		.uleb128 0x1
 399 0140 9C       		.byte	0x9c
 400 0141 0B       		.uleb128 0xb
 401 0142 97000000 		.4byte	.LASF20
 402 0146 01       		.byte	0x1
 403 0147 1B       		.byte	0x1b
 404 0148 A4000000 		.4byte	0xa4
 405 014c 05       		.uleb128 0x5
 406 014d 03       		.byte	0x3
 407 014e 00000000 		.4byte	I2CM_state
 408 0152 0C       		.uleb128 0xc
 409 0153 A2000000 		.4byte	.LASF21
 410 0157 03       		.byte	0x3
 411 0158 31       		.byte	0x31
 412 0159 A9000000 		.4byte	0xa9
 413 015d 0C       		.uleb128 0xc
 414 015e 28000000 		.4byte	.LASF22
 415 0162 03       		.byte	0x3
 416 0163 37       		.byte	0x37
 417 0164 BA000000 		.4byte	0xba
 418 0168 0C       		.uleb128 0xc
 419 0169 DA010000 		.4byte	.LASF23
 420 016d 03       		.byte	0x3
 421 016e 3C       		.byte	0x3c
 422 016f BA000000 		.4byte	0xba
 423 0173 0D       		.uleb128 0xd
 424 0174 15020000 		.4byte	.LASF24
 425 0178 15020000 		.4byte	.LASF24
 426 017c 04       		.byte	0x4
 427 017d C5       		.byte	0xc5
 428 017e 0D       		.uleb128 0xd
 429 017f 17010000 		.4byte	.LASF25
 430 0183 17010000 		.4byte	.LASF25
 431 0187 04       		.byte	0x4
 432 0188 C0       		.byte	0xc0
 433 0189 0D       		.uleb128 0xd
 434 018a 3C000000 		.4byte	.LASF26
ARM GAS  C:\Users\CHUNGN~1\AppData\Local\Temp\cc0nENEe.s 			page 14


 435 018e 3C000000 		.4byte	.LASF26
 436 0192 04       		.byte	0x4
 437 0193 BD       		.byte	0xbd
 438 0194 00       		.byte	0
 439              		.section	.debug_abbrev,"",%progbits
 440              	.Ldebug_abbrev0:
 441 0000 01       		.uleb128 0x1
 442 0001 11       		.uleb128 0x11
 443 0002 01       		.byte	0x1
 444 0003 25       		.uleb128 0x25
 445 0004 0E       		.uleb128 0xe
 446 0005 13       		.uleb128 0x13
 447 0006 0B       		.uleb128 0xb
 448 0007 03       		.uleb128 0x3
 449 0008 0E       		.uleb128 0xe
 450 0009 1B       		.uleb128 0x1b
 451 000a 0E       		.uleb128 0xe
 452 000b 55       		.uleb128 0x55
 453 000c 17       		.uleb128 0x17
 454 000d 11       		.uleb128 0x11
 455 000e 01       		.uleb128 0x1
 456 000f 10       		.uleb128 0x10
 457 0010 17       		.uleb128 0x17
 458 0011 00       		.byte	0
 459 0012 00       		.byte	0
 460 0013 02       		.uleb128 0x2
 461 0014 24       		.uleb128 0x24
 462 0015 00       		.byte	0
 463 0016 0B       		.uleb128 0xb
 464 0017 0B       		.uleb128 0xb
 465 0018 3E       		.uleb128 0x3e
 466 0019 0B       		.uleb128 0xb
 467 001a 03       		.uleb128 0x3
 468 001b 0E       		.uleb128 0xe
 469 001c 00       		.byte	0
 470 001d 00       		.byte	0
 471 001e 03       		.uleb128 0x3
 472 001f 24       		.uleb128 0x24
 473 0020 00       		.byte	0
 474 0021 0B       		.uleb128 0xb
 475 0022 0B       		.uleb128 0xb
 476 0023 3E       		.uleb128 0x3e
 477 0024 0B       		.uleb128 0xb
 478 0025 03       		.uleb128 0x3
 479 0026 08       		.uleb128 0x8
 480 0027 00       		.byte	0
 481 0028 00       		.byte	0
 482 0029 04       		.uleb128 0x4
 483 002a 16       		.uleb128 0x16
 484 002b 00       		.byte	0
 485 002c 03       		.uleb128 0x3
 486 002d 0E       		.uleb128 0xe
 487 002e 3A       		.uleb128 0x3a
 488 002f 0B       		.uleb128 0xb
 489 0030 3B       		.uleb128 0x3b
 490 0031 05       		.uleb128 0x5
 491 0032 49       		.uleb128 0x49
ARM GAS  C:\Users\CHUNGN~1\AppData\Local\Temp\cc0nENEe.s 			page 15


 492 0033 13       		.uleb128 0x13
 493 0034 00       		.byte	0
 494 0035 00       		.byte	0
 495 0036 05       		.uleb128 0x5
 496 0037 35       		.uleb128 0x35
 497 0038 00       		.byte	0
 498 0039 49       		.uleb128 0x49
 499 003a 13       		.uleb128 0x13
 500 003b 00       		.byte	0
 501 003c 00       		.byte	0
 502 003d 06       		.uleb128 0x6
 503 003e 2E       		.uleb128 0x2e
 504 003f 01       		.byte	0x1
 505 0040 3F       		.uleb128 0x3f
 506 0041 19       		.uleb128 0x19
 507 0042 03       		.uleb128 0x3
 508 0043 0E       		.uleb128 0xe
 509 0044 3A       		.uleb128 0x3a
 510 0045 0B       		.uleb128 0xb
 511 0046 3B       		.uleb128 0x3b
 512 0047 0B       		.uleb128 0xb
 513 0048 27       		.uleb128 0x27
 514 0049 19       		.uleb128 0x19
 515 004a 11       		.uleb128 0x11
 516 004b 01       		.uleb128 0x1
 517 004c 12       		.uleb128 0x12
 518 004d 06       		.uleb128 0x6
 519 004e 40       		.uleb128 0x40
 520 004f 18       		.uleb128 0x18
 521 0050 9742     		.uleb128 0x2117
 522 0052 19       		.uleb128 0x19
 523 0053 01       		.uleb128 0x1
 524 0054 13       		.uleb128 0x13
 525 0055 00       		.byte	0
 526 0056 00       		.byte	0
 527 0057 07       		.uleb128 0x7
 528 0058 898201   		.uleb128 0x4109
 529 005b 01       		.byte	0x1
 530 005c 11       		.uleb128 0x11
 531 005d 01       		.uleb128 0x1
 532 005e 31       		.uleb128 0x31
 533 005f 13       		.uleb128 0x13
 534 0060 01       		.uleb128 0x1
 535 0061 13       		.uleb128 0x13
 536 0062 00       		.byte	0
 537 0063 00       		.byte	0
 538 0064 08       		.uleb128 0x8
 539 0065 8A8201   		.uleb128 0x410a
 540 0068 00       		.byte	0
 541 0069 02       		.uleb128 0x2
 542 006a 18       		.uleb128 0x18
 543 006b 9142     		.uleb128 0x2111
 544 006d 18       		.uleb128 0x18
 545 006e 00       		.byte	0
 546 006f 00       		.byte	0
 547 0070 09       		.uleb128 0x9
 548 0071 898201   		.uleb128 0x4109
ARM GAS  C:\Users\CHUNGN~1\AppData\Local\Temp\cc0nENEe.s 			page 16


 549 0074 01       		.byte	0x1
 550 0075 11       		.uleb128 0x11
 551 0076 01       		.uleb128 0x1
 552 0077 31       		.uleb128 0x31
 553 0078 13       		.uleb128 0x13
 554 0079 00       		.byte	0
 555 007a 00       		.byte	0
 556 007b 0A       		.uleb128 0xa
 557 007c 2E       		.uleb128 0x2e
 558 007d 00       		.byte	0
 559 007e 3F       		.uleb128 0x3f
 560 007f 19       		.uleb128 0x19
 561 0080 03       		.uleb128 0x3
 562 0081 0E       		.uleb128 0xe
 563 0082 3A       		.uleb128 0x3a
 564 0083 0B       		.uleb128 0xb
 565 0084 3B       		.uleb128 0x3b
 566 0085 05       		.uleb128 0x5
 567 0086 27       		.uleb128 0x27
 568 0087 19       		.uleb128 0x19
 569 0088 11       		.uleb128 0x11
 570 0089 01       		.uleb128 0x1
 571 008a 12       		.uleb128 0x12
 572 008b 06       		.uleb128 0x6
 573 008c 40       		.uleb128 0x40
 574 008d 18       		.uleb128 0x18
 575 008e 9742     		.uleb128 0x2117
 576 0090 19       		.uleb128 0x19
 577 0091 00       		.byte	0
 578 0092 00       		.byte	0
 579 0093 0B       		.uleb128 0xb
 580 0094 34       		.uleb128 0x34
 581 0095 00       		.byte	0
 582 0096 03       		.uleb128 0x3
 583 0097 0E       		.uleb128 0xe
 584 0098 3A       		.uleb128 0x3a
 585 0099 0B       		.uleb128 0xb
 586 009a 3B       		.uleb128 0x3b
 587 009b 0B       		.uleb128 0xb
 588 009c 49       		.uleb128 0x49
 589 009d 13       		.uleb128 0x13
 590 009e 3F       		.uleb128 0x3f
 591 009f 19       		.uleb128 0x19
 592 00a0 02       		.uleb128 0x2
 593 00a1 18       		.uleb128 0x18
 594 00a2 00       		.byte	0
 595 00a3 00       		.byte	0
 596 00a4 0C       		.uleb128 0xc
 597 00a5 34       		.uleb128 0x34
 598 00a6 00       		.byte	0
 599 00a7 03       		.uleb128 0x3
 600 00a8 0E       		.uleb128 0xe
 601 00a9 3A       		.uleb128 0x3a
 602 00aa 0B       		.uleb128 0xb
 603 00ab 3B       		.uleb128 0x3b
 604 00ac 0B       		.uleb128 0xb
 605 00ad 49       		.uleb128 0x49
ARM GAS  C:\Users\CHUNGN~1\AppData\Local\Temp\cc0nENEe.s 			page 17


 606 00ae 13       		.uleb128 0x13
 607 00af 3F       		.uleb128 0x3f
 608 00b0 19       		.uleb128 0x19
 609 00b1 3C       		.uleb128 0x3c
 610 00b2 19       		.uleb128 0x19
 611 00b3 00       		.byte	0
 612 00b4 00       		.byte	0
 613 00b5 0D       		.uleb128 0xd
 614 00b6 2E       		.uleb128 0x2e
 615 00b7 00       		.byte	0
 616 00b8 3F       		.uleb128 0x3f
 617 00b9 19       		.uleb128 0x19
 618 00ba 3C       		.uleb128 0x3c
 619 00bb 19       		.uleb128 0x19
 620 00bc 6E       		.uleb128 0x6e
 621 00bd 0E       		.uleb128 0xe
 622 00be 03       		.uleb128 0x3
 623 00bf 0E       		.uleb128 0xe
 624 00c0 3A       		.uleb128 0x3a
 625 00c1 0B       		.uleb128 0xb
 626 00c2 3B       		.uleb128 0x3b
 627 00c3 0B       		.uleb128 0xb
 628 00c4 00       		.byte	0
 629 00c5 00       		.byte	0
 630 00c6 00       		.byte	0
 631              		.section	.debug_aranges,"",%progbits
 632 0000 2C000000 		.4byte	0x2c
 633 0004 0200     		.2byte	0x2
 634 0006 00000000 		.4byte	.Ldebug_info0
 635 000a 04       		.byte	0x4
 636 000b 00       		.byte	0
 637 000c 0000     		.2byte	0
 638 000e 0000     		.2byte	0
 639 0010 00000000 		.4byte	.LFB0
 640 0014 B0000000 		.4byte	.LFE0-.LFB0
 641 0018 00000000 		.4byte	.LFB1
 642 001c 20000000 		.4byte	.LFE1-.LFB1
 643 0020 00000000 		.4byte	.LFB2
 644 0024 5C000000 		.4byte	.LFE2-.LFB2
 645 0028 00000000 		.4byte	0
 646 002c 00000000 		.4byte	0
 647              		.section	.debug_ranges,"",%progbits
 648              	.Ldebug_ranges0:
 649 0000 00000000 		.4byte	.LFB0
 650 0004 B0000000 		.4byte	.LFE0
 651 0008 00000000 		.4byte	.LFB1
 652 000c 20000000 		.4byte	.LFE1
 653 0010 00000000 		.4byte	.LFB2
 654 0014 5C000000 		.4byte	.LFE2
 655 0018 00000000 		.4byte	0
 656 001c 00000000 		.4byte	0
 657              		.section	.debug_line,"",%progbits
 658              	.Ldebug_line0:
 659 0000 BF000000 		.section	.debug_str,"MS",%progbits,1
 659      02006200 
 659      00000201 
 659      FB0E0D00 
ARM GAS  C:\Users\CHUNGN~1\AppData\Local\Temp\cc0nENEe.s 			page 18


 659      01010101 
 660              	.LASF19:
 661 0000 4932434D 		.ascii	"I2CM_I2CFwBlockReset\000"
 661      5F493243 
 661      4677426C 
 661      6F636B52 
 661      65736574 
 662              	.LASF15:
 663 0015 72656733 		.ascii	"reg32\000"
 663      3200
 664              	.LASF30:
 665 001b 4932434D 		.ascii	"I2CM_I2CInit\000"
 665      5F493243 
 665      496E6974 
 665      00
 666              	.LASF22:
 667 0028 4932434D 		.ascii	"I2CM_mstrRdBufIndex\000"
 667      5F6D7374 
 667      72526442 
 667      7566496E 
 667      64657800 
 668              	.LASF26:
 669 003c 4379496E 		.ascii	"CyIntSetVector\000"
 669      74536574 
 669      56656374 
 669      6F7200
 670              	.LASF29:
 671 004b 453A5C5F 		.ascii	"E:\\_MAKIPOS\\Gesture\\Code_PSoC\\Workspace01\\APDS"
 671      4D414B49 
 671      504F535C 
 671      47657374 
 671      7572655C 
 672 0079 39393630 		.ascii	"9960.cydsn\000"
 672      2E637964 
 672      736E00
 673              	.LASF3:
 674 0084 73686F72 		.ascii	"short unsigned int\000"
 674      7420756E 
 674      7369676E 
 674      65642069 
 674      6E7400
 675              	.LASF20:
 676 0097 4932434D 		.ascii	"I2CM_state\000"
 676      5F737461 
 676      746500
 677              	.LASF21:
 678 00a2 4932434D 		.ascii	"I2CM_mstrStatus\000"
 678      5F6D7374 
 678      72537461 
 678      74757300 
 679              	.LASF12:
 680 00b2 666C6F61 		.ascii	"float\000"
 680      7400
 681              	.LASF1:
 682 00b8 756E7369 		.ascii	"unsigned char\000"
 682      676E6564 
 682      20636861 
ARM GAS  C:\Users\CHUNGN~1\AppData\Local\Temp\cc0nENEe.s 			page 19


 682      7200
 683              	.LASF5:
 684 00c6 6C6F6E67 		.ascii	"long unsigned int\000"
 684      20756E73 
 684      69676E65 
 684      6420696E 
 684      7400
 685              	.LASF9:
 686 00d8 75696E74 		.ascii	"uint8\000"
 686      3800
 687              	.LASF13:
 688 00de 646F7562 		.ascii	"double\000"
 688      6C6500
 689              	.LASF10:
 690 00e5 75696E74 		.ascii	"uint16\000"
 690      313600
 691              	.LASF11:
 692 00ec 75696E74 		.ascii	"uint32\000"
 692      333200
 693              	.LASF8:
 694 00f3 756E7369 		.ascii	"unsigned int\000"
 694      676E6564 
 694      20696E74 
 694      00
 695              	.LASF7:
 696 0100 6C6F6E67 		.ascii	"long long unsigned int\000"
 696      206C6F6E 
 696      6720756E 
 696      7369676E 
 696      65642069 
 697              	.LASF25:
 698 0117 4379496E 		.ascii	"CyIntSetPriority\000"
 698      74536574 
 698      5072696F 
 698      72697479 
 698      00
 699              	.LASF27:
 700 0128 474E5520 		.ascii	"GNU C11 5.4.1 20160609 (release) [ARM/embedded-5-br"
 700      43313120 
 700      352E342E 
 700      31203230 
 700      31363036 
 701 015b 616E6368 		.ascii	"anch revision 237715] -mcpu=cortex-m0 -mthumb -g -O"
 701      20726576 
 701      6973696F 
 701      6E203233 
 701      37373135 
 702 018e 67202D66 		.ascii	"g -ffunction-sections -ffat-lto-objects\000"
 702      66756E63 
 702      74696F6E 
 702      2D736563 
 702      74696F6E 
 703              	.LASF17:
 704 01b6 73697A65 		.ascii	"sizetype\000"
 704      74797065 
 704      00
 705              	.LASF18:
ARM GAS  C:\Users\CHUNGN~1\AppData\Local\Temp\cc0nENEe.s 			page 20


 706 01bf 4932434D 		.ascii	"I2CM_I2CStop\000"
 706      5F493243 
 706      53746F70 
 706      00
 707              	.LASF6:
 708 01cc 6C6F6E67 		.ascii	"long long int\000"
 708      206C6F6E 
 708      6720696E 
 708      7400
 709              	.LASF23:
 710 01da 4932434D 		.ascii	"I2CM_mstrWrBufIndex\000"
 710      5F6D7374 
 710      72577242 
 710      7566496E 
 710      64657800 
 711              	.LASF14:
 712 01ee 63686172 		.ascii	"char\000"
 712      00
 713              	.LASF28:
 714 01f3 47656E65 		.ascii	"Generated_Source\\PSoC4\\I2CM_I2C.c\000"
 714      72617465 
 714      645F536F 
 714      75726365 
 714      5C50536F 
 715              	.LASF24:
 716 0215 4379496E 		.ascii	"CyIntDisable\000"
 716      74446973 
 716      61626C65 
 716      00
 717              	.LASF2:
 718 0222 73686F72 		.ascii	"short int\000"
 718      7420696E 
 718      7400
 719              	.LASF4:
 720 022c 6C6F6E67 		.ascii	"long int\000"
 720      20696E74 
 720      00
 721              	.LASF16:
 722 0235 6C6F6E67 		.ascii	"long double\000"
 722      20646F75 
 722      626C6500 
 723              	.LASF0:
 724 0241 7369676E 		.ascii	"signed char\000"
 724      65642063 
 724      68617200 
 725              		.ident	"GCC: (GNU Tools for ARM Embedded Processors) 5.4.1 20160609 (release) [ARM/embedded-5-bran
