ARM GAS  C:\Users\CHUNGN~1\AppData\Local\Temp\ccagALy8.s 			page 1


   1              		.syntax unified
   2              		.cpu cortex-m0
   3              		.fpu softvfp
   4              		.eabi_attribute 20, 1
   5              		.eabi_attribute 21, 1
   6              		.eabi_attribute 23, 3
   7              		.eabi_attribute 24, 1
   8              		.eabi_attribute 25, 1
   9              		.eabi_attribute 26, 1
  10              		.eabi_attribute 30, 1
  11              		.eabi_attribute 34, 0
  12              		.eabi_attribute 18, 4
  13              		.thumb
  14              		.syntax unified
  15              		.file	"sysTickIsr.c"
  16              		.text
  17              	.Ltext0:
  18              		.cfi_sections	.debug_frame
  19              		.section	.text.SYSTICK_regSysTickISRCallback,"ax",%progbits
  20              		.align	2
  21              		.global	SYSTICK_regSysTickISRCallback
  22              		.code	16
  23              		.thumb_func
  24              		.type	SYSTICK_regSysTickISRCallback, %function
  25              	SYSTICK_regSysTickISRCallback:
  26              	.LFB32:
  27              		.file 1 "myLib\\sysTickISR\\sysTickIsr.c"
   1:myLib\sysTickISR/sysTickIsr.c **** /* ========================================
   2:myLib\sysTickISR/sysTickIsr.c ****  *
   3:myLib\sysTickISR/sysTickIsr.c ****  * Copyright YOUR COMPANY, THE YEAR
   4:myLib\sysTickISR/sysTickIsr.c ****  * All Rights Reserved
   5:myLib\sysTickISR/sysTickIsr.c ****  * UNPUBLISHED, LICENSED SOFTWARE.
   6:myLib\sysTickISR/sysTickIsr.c ****  *
   7:myLib\sysTickISR/sysTickIsr.c ****  * CONFIDENTIAL AND PROPRIETARY INFORMATION
   8:myLib\sysTickISR/sysTickIsr.c ****  * WHICH IS THE PROPERTY OF your company.
   9:myLib\sysTickISR/sysTickIsr.c ****  *
  10:myLib\sysTickISR/sysTickIsr.c ****  * ========================================
  11:myLib\sysTickISR/sysTickIsr.c **** */
  12:myLib\sysTickISR/sysTickIsr.c **** #include "sysTickIsr.h"
  13:myLib\sysTickISR/sysTickIsr.c **** uint32_t g_SysTime;
  14:myLib\sysTickISR/sysTickIsr.c **** 
  15:myLib\sysTickISR/sysTickIsr.c **** void SYSTICK_regSysTickISRCallback(void *func)
  16:myLib\sysTickISR/sysTickIsr.c **** {
  28              		.loc 1 16 0
  29              		.cfi_startproc
  30              		@ args = 0, pretend = 0, frame = 0
  31              		@ frame_needed = 0, uses_anonymous_args = 0
  32              	.LVL0:
  33 0000 70B5     		push	{r4, r5, r6, lr}
  34              		.cfi_def_cfa_offset 16
  35              		.cfi_offset 4, -16
  36              		.cfi_offset 5, -12
  37              		.cfi_offset 6, -8
  38              		.cfi_offset 14, -4
  39 0002 0500     		movs	r5, r0
  17:myLib\sysTickISR/sysTickIsr.c ****     CySysTickStart();
  40              		.loc 1 17 0
ARM GAS  C:\Users\CHUNGN~1\AppData\Local\Temp\ccagALy8.s 			page 2


  41 0004 FFF7FEFF 		bl	CySysTickStart
  42              	.LVL1:
  43              	.LBB2:
  18:myLib\sysTickISR/sysTickIsr.c ****     /* Find unused callback slot and assign the callback. */
  19:myLib\sysTickISR/sysTickIsr.c ****     for(uint8_t i = 0u; i < CY_SYS_SYST_NUM_OF_CALLBACKS; ++i)
  44              		.loc 1 19 0
  45 0008 0024     		movs	r4, #0
  46 000a 0BE0     		b	.L2
  47              	.LVL2:
  48              	.L5:
  20:myLib\sysTickISR/sysTickIsr.c ****     {
  21:myLib\sysTickISR/sysTickIsr.c ****         if (CySysTickGetCallback(i) == NULL)
  49              		.loc 1 21 0
  50 000c 2000     		movs	r0, r4
  51 000e FFF7FEFF 		bl	CySysTickGetCallback
  52              	.LVL3:
  53 0012 0028     		cmp	r0, #0
  54 0014 04D1     		bne	.L3
  22:myLib\sysTickISR/sysTickIsr.c ****         {
  23:myLib\sysTickISR/sysTickIsr.c ****             /* Set callback */
  24:myLib\sysTickISR/sysTickIsr.c ****             CySysTickSetCallback(i, func);
  55              		.loc 1 24 0
  56 0016 2900     		movs	r1, r5
  57 0018 2000     		movs	r0, r4
  58 001a FFF7FEFF 		bl	CySysTickSetCallback
  59              	.LVL4:
  25:myLib\sysTickISR/sysTickIsr.c ****             break;
  60              		.loc 1 25 0
  61 001e 03E0     		b	.L1
  62              	.L3:
  19:myLib\sysTickISR/sysTickIsr.c ****     {
  63              		.loc 1 19 0 discriminator 2
  64 0020 0134     		adds	r4, r4, #1
  65              	.LVL5:
  66 0022 E4B2     		uxtb	r4, r4
  67              	.LVL6:
  68              	.L2:
  19:myLib\sysTickISR/sysTickIsr.c ****     {
  69              		.loc 1 19 0 is_stmt 0 discriminator 1
  70 0024 042C     		cmp	r4, #4
  71 0026 F1D9     		bls	.L5
  72              	.L1:
  73              	.LBE2:
  26:myLib\sysTickISR/sysTickIsr.c ****         }
  27:myLib\sysTickISR/sysTickIsr.c ****     }
  28:myLib\sysTickISR/sysTickIsr.c **** }
  74              		.loc 1 28 0 is_stmt 1
  75              		@ sp needed
  76              	.LVL7:
  77              	.LVL8:
  78 0028 70BD     		pop	{r4, r5, r6, pc}
  79              		.cfi_endproc
  80              	.LFE32:
  81              		.size	SYSTICK_regSysTickISRCallback, .-SYSTICK_regSysTickISRCallback
  82 002a C046     		.section	.text.elapstime,"ax",%progbits
  83              		.align	2
  84              		.global	elapstime
ARM GAS  C:\Users\CHUNGN~1\AppData\Local\Temp\ccagALy8.s 			page 3


  85              		.code	16
  86              		.thumb_func
  87              		.type	elapstime, %function
  88              	elapstime:
  89              	.LFB33:
  29:myLib\sysTickISR/sysTickIsr.c **** 
  30:myLib\sysTickISR/sysTickIsr.c **** uint32_t elapstime(uint32_t newTime, uint32_t oldTime)
  31:myLib\sysTickISR/sysTickIsr.c **** {
  90              		.loc 1 31 0
  91              		.cfi_startproc
  92              		@ args = 0, pretend = 0, frame = 0
  93              		@ frame_needed = 0, uses_anonymous_args = 0
  94              		@ link register save eliminated.
  95              	.LVL9:
  32:myLib\sysTickISR/sysTickIsr.c ****     return (newTime - oldTime);
  96              		.loc 1 32 0
  97 0000 401A     		subs	r0, r0, r1
  98              	.LVL10:
  33:myLib\sysTickISR/sysTickIsr.c **** }
  99              		.loc 1 33 0
 100              		@ sp needed
 101 0002 7047     		bx	lr
 102              		.cfi_endproc
 103              	.LFE33:
 104              		.size	elapstime, .-elapstime
 105              		.comm	g_SysTime,4,4
 106              		.text
 107              	.Letext0:
 108              		.file 2 "c:\\program files (x86)\\cypress\\psoc creator\\4.2\\psoc creator\\import\\gnu\\arm\\5.4.
 109              		.file 3 "c:\\program files (x86)\\cypress\\psoc creator\\4.2\\psoc creator\\import\\gnu\\arm\\5.4.
 110              		.file 4 "Generated_Source\\PSoC4/CyLib.h"
 111              		.section	.debug_info,"",%progbits
 112              	.Ldebug_info0:
 113 0000 96010000 		.4byte	0x196
 114 0004 0400     		.2byte	0x4
 115 0006 00000000 		.4byte	.Ldebug_abbrev0
 116 000a 04       		.byte	0x4
 117 000b 01       		.uleb128 0x1
 118 000c 13010000 		.4byte	.LASF24
 119 0010 0C       		.byte	0xc
 120 0011 C9000000 		.4byte	.LASF25
 121 0015 1F000000 		.4byte	.LASF26
 122 0019 00000000 		.4byte	.Ldebug_ranges0+0
 123 001d 00000000 		.4byte	0
 124 0021 00000000 		.4byte	.Ldebug_line0
 125 0025 02       		.uleb128 0x2
 126 0026 01       		.byte	0x1
 127 0027 06       		.byte	0x6
 128 0028 04020000 		.4byte	.LASF0
 129 002c 03       		.uleb128 0x3
 130 002d 00000000 		.4byte	.LASF5
 131 0031 02       		.byte	0x2
 132 0032 1D       		.byte	0x1d
 133 0033 37000000 		.4byte	0x37
 134 0037 02       		.uleb128 0x2
 135 0038 01       		.byte	0x1
 136 0039 08       		.byte	0x8
ARM GAS  C:\Users\CHUNGN~1\AppData\Local\Temp\ccagALy8.s 			page 4


 137 003a 70000000 		.4byte	.LASF1
 138 003e 02       		.uleb128 0x2
 139 003f 02       		.byte	0x2
 140 0040 05       		.byte	0x5
 141 0041 58000000 		.4byte	.LASF2
 142 0045 02       		.uleb128 0x2
 143 0046 02       		.byte	0x2
 144 0047 07       		.byte	0x7
 145 0048 9F000000 		.4byte	.LASF3
 146 004c 02       		.uleb128 0x2
 147 004d 04       		.byte	0x4
 148 004e 05       		.byte	0x5
 149 004f EF010000 		.4byte	.LASF4
 150 0053 03       		.uleb128 0x3
 151 0054 BE000000 		.4byte	.LASF6
 152 0058 02       		.byte	0x2
 153 0059 41       		.byte	0x41
 154 005a 5E000000 		.4byte	0x5e
 155 005e 02       		.uleb128 0x2
 156 005f 04       		.byte	0x4
 157 0060 07       		.byte	0x7
 158 0061 8D000000 		.4byte	.LASF7
 159 0065 02       		.uleb128 0x2
 160 0066 08       		.byte	0x8
 161 0067 05       		.byte	0x5
 162 0068 AA010000 		.4byte	.LASF8
 163 006c 02       		.uleb128 0x2
 164 006d 08       		.byte	0x8
 165 006e 07       		.byte	0x7
 166 006f F4000000 		.4byte	.LASF9
 167 0073 04       		.uleb128 0x4
 168 0074 04       		.byte	0x4
 169 0075 05       		.byte	0x5
 170 0076 696E7400 		.ascii	"int\000"
 171 007a 02       		.uleb128 0x2
 172 007b 04       		.byte	0x4
 173 007c 07       		.byte	0x7
 174 007d E7000000 		.4byte	.LASF10
 175 0081 03       		.uleb128 0x3
 176 0082 0B010000 		.4byte	.LASF11
 177 0086 03       		.byte	0x3
 178 0087 18       		.byte	0x18
 179 0088 2C000000 		.4byte	0x2c
 180 008c 03       		.uleb128 0x3
 181 008d E6010000 		.4byte	.LASF12
 182 0091 03       		.byte	0x3
 183 0092 30       		.byte	0x30
 184 0093 53000000 		.4byte	0x53
 185 0097 02       		.uleb128 0x2
 186 0098 04       		.byte	0x4
 187 0099 04       		.byte	0x4
 188 009a 62000000 		.4byte	.LASF13
 189 009e 02       		.uleb128 0x2
 190 009f 08       		.byte	0x8
 191 00a0 04       		.byte	0x4
 192 00a1 B2000000 		.4byte	.LASF14
 193 00a5 02       		.uleb128 0x2
ARM GAS  C:\Users\CHUNGN~1\AppData\Local\Temp\ccagALy8.s 			page 5


 194 00a6 01       		.byte	0x1
 195 00a7 08       		.byte	0x8
 196 00a8 B8010000 		.4byte	.LASF15
 197 00ac 02       		.uleb128 0x2
 198 00ad 08       		.byte	0x8
 199 00ae 04       		.byte	0x4
 200 00af F8010000 		.4byte	.LASF16
 201 00b3 02       		.uleb128 0x2
 202 00b4 04       		.byte	0x4
 203 00b5 07       		.byte	0x7
 204 00b6 A1010000 		.4byte	.LASF17
 205 00ba 05       		.uleb128 0x5
 206 00bb 04       		.byte	0x4
 207 00bc 06       		.uleb128 0x6
 208 00bd 10020000 		.4byte	.LASF27
 209 00c1 01       		.byte	0x1
 210 00c2 0F       		.byte	0xf
 211 00c3 00000000 		.4byte	.LFB32
 212 00c7 2A000000 		.4byte	.LFE32-.LFB32
 213 00cb 01       		.uleb128 0x1
 214 00cc 9C       		.byte	0x9c
 215 00cd 2F010000 		.4byte	0x12f
 216 00d1 07       		.uleb128 0x7
 217 00d2 B9000000 		.4byte	.LASF18
 218 00d6 01       		.byte	0x1
 219 00d7 0F       		.byte	0xf
 220 00d8 BA000000 		.4byte	0xba
 221 00dc 00000000 		.4byte	.LLST0
 222 00e0 08       		.uleb128 0x8
 223 00e1 08000000 		.4byte	.LBB2
 224 00e5 20000000 		.4byte	.LBE2-.LBB2
 225 00e9 25010000 		.4byte	0x125
 226 00ed 09       		.uleb128 0x9
 227 00ee 6900     		.ascii	"i\000"
 228 00f0 01       		.byte	0x1
 229 00f1 13       		.byte	0x13
 230 00f2 81000000 		.4byte	0x81
 231 00f6 2C000000 		.4byte	.LLST1
 232 00fa 0A       		.uleb128 0xa
 233 00fb 12000000 		.4byte	.LVL3
 234 00ff 76010000 		.4byte	0x176
 235 0103 0E010000 		.4byte	0x10e
 236 0107 0B       		.uleb128 0xb
 237 0108 01       		.uleb128 0x1
 238 0109 50       		.byte	0x50
 239 010a 02       		.uleb128 0x2
 240 010b 74       		.byte	0x74
 241 010c 00       		.sleb128 0
 242 010d 00       		.byte	0
 243 010e 0C       		.uleb128 0xc
 244 010f 1E000000 		.4byte	.LVL4
 245 0113 82010000 		.4byte	0x182
 246 0117 0B       		.uleb128 0xb
 247 0118 01       		.uleb128 0x1
 248 0119 50       		.byte	0x50
 249 011a 02       		.uleb128 0x2
 250 011b 74       		.byte	0x74
ARM GAS  C:\Users\CHUNGN~1\AppData\Local\Temp\ccagALy8.s 			page 6


 251 011c 00       		.sleb128 0
 252 011d 0B       		.uleb128 0xb
 253 011e 01       		.uleb128 0x1
 254 011f 51       		.byte	0x51
 255 0120 02       		.uleb128 0x2
 256 0121 75       		.byte	0x75
 257 0122 00       		.sleb128 0
 258 0123 00       		.byte	0
 259 0124 00       		.byte	0
 260 0125 0D       		.uleb128 0xd
 261 0126 08000000 		.4byte	.LVL1
 262 012a 8E010000 		.4byte	0x18e
 263 012e 00       		.byte	0
 264 012f 0E       		.uleb128 0xe
 265 0130 BD010000 		.4byte	.LASF28
 266 0134 01       		.byte	0x1
 267 0135 1E       		.byte	0x1e
 268 0136 8C000000 		.4byte	0x8c
 269 013a 00000000 		.4byte	.LFB33
 270 013e 04000000 		.4byte	.LFE33-.LFB33
 271 0142 01       		.uleb128 0x1
 272 0143 9C       		.byte	0x9c
 273 0144 65010000 		.4byte	0x165
 274 0148 07       		.uleb128 0x7
 275 0149 68000000 		.4byte	.LASF19
 276 014d 01       		.byte	0x1
 277 014e 1E       		.byte	0x1e
 278 014f 8C000000 		.4byte	0x8c
 279 0153 56000000 		.4byte	.LLST2
 280 0157 0F       		.uleb128 0xf
 281 0158 2E020000 		.4byte	.LASF20
 282 015c 01       		.byte	0x1
 283 015d 1E       		.byte	0x1e
 284 015e 8C000000 		.4byte	0x8c
 285 0162 01       		.uleb128 0x1
 286 0163 51       		.byte	0x51
 287 0164 00       		.byte	0
 288 0165 10       		.uleb128 0x10
 289 0166 DC010000 		.4byte	.LASF29
 290 016a 01       		.byte	0x1
 291 016b 0D       		.byte	0xd
 292 016c 8C000000 		.4byte	0x8c
 293 0170 05       		.uleb128 0x5
 294 0171 03       		.byte	0x3
 295 0172 00000000 		.4byte	g_SysTime
 296 0176 11       		.uleb128 0x11
 297 0177 C7010000 		.4byte	.LASF21
 298 017b C7010000 		.4byte	.LASF21
 299 017f 04       		.byte	0x4
 300 0180 0101     		.2byte	0x101
 301 0182 11       		.uleb128 0x11
 302 0183 0A000000 		.4byte	.LASF22
 303 0187 0A000000 		.4byte	.LASF22
 304 018b 04       		.byte	0x4
 305 018c 0001     		.2byte	0x100
 306 018e 12       		.uleb128 0x12
 307 018f 7E000000 		.4byte	.LASF23
ARM GAS  C:\Users\CHUNGN~1\AppData\Local\Temp\ccagALy8.s 			page 7


 308 0193 7E000000 		.4byte	.LASF23
 309 0197 04       		.byte	0x4
 310 0198 F7       		.byte	0xf7
 311 0199 00       		.byte	0
 312              		.section	.debug_abbrev,"",%progbits
 313              	.Ldebug_abbrev0:
 314 0000 01       		.uleb128 0x1
 315 0001 11       		.uleb128 0x11
 316 0002 01       		.byte	0x1
 317 0003 25       		.uleb128 0x25
 318 0004 0E       		.uleb128 0xe
 319 0005 13       		.uleb128 0x13
 320 0006 0B       		.uleb128 0xb
 321 0007 03       		.uleb128 0x3
 322 0008 0E       		.uleb128 0xe
 323 0009 1B       		.uleb128 0x1b
 324 000a 0E       		.uleb128 0xe
 325 000b 55       		.uleb128 0x55
 326 000c 17       		.uleb128 0x17
 327 000d 11       		.uleb128 0x11
 328 000e 01       		.uleb128 0x1
 329 000f 10       		.uleb128 0x10
 330 0010 17       		.uleb128 0x17
 331 0011 00       		.byte	0
 332 0012 00       		.byte	0
 333 0013 02       		.uleb128 0x2
 334 0014 24       		.uleb128 0x24
 335 0015 00       		.byte	0
 336 0016 0B       		.uleb128 0xb
 337 0017 0B       		.uleb128 0xb
 338 0018 3E       		.uleb128 0x3e
 339 0019 0B       		.uleb128 0xb
 340 001a 03       		.uleb128 0x3
 341 001b 0E       		.uleb128 0xe
 342 001c 00       		.byte	0
 343 001d 00       		.byte	0
 344 001e 03       		.uleb128 0x3
 345 001f 16       		.uleb128 0x16
 346 0020 00       		.byte	0
 347 0021 03       		.uleb128 0x3
 348 0022 0E       		.uleb128 0xe
 349 0023 3A       		.uleb128 0x3a
 350 0024 0B       		.uleb128 0xb
 351 0025 3B       		.uleb128 0x3b
 352 0026 0B       		.uleb128 0xb
 353 0027 49       		.uleb128 0x49
 354 0028 13       		.uleb128 0x13
 355 0029 00       		.byte	0
 356 002a 00       		.byte	0
 357 002b 04       		.uleb128 0x4
 358 002c 24       		.uleb128 0x24
 359 002d 00       		.byte	0
 360 002e 0B       		.uleb128 0xb
 361 002f 0B       		.uleb128 0xb
 362 0030 3E       		.uleb128 0x3e
 363 0031 0B       		.uleb128 0xb
 364 0032 03       		.uleb128 0x3
ARM GAS  C:\Users\CHUNGN~1\AppData\Local\Temp\ccagALy8.s 			page 8


 365 0033 08       		.uleb128 0x8
 366 0034 00       		.byte	0
 367 0035 00       		.byte	0
 368 0036 05       		.uleb128 0x5
 369 0037 0F       		.uleb128 0xf
 370 0038 00       		.byte	0
 371 0039 0B       		.uleb128 0xb
 372 003a 0B       		.uleb128 0xb
 373 003b 00       		.byte	0
 374 003c 00       		.byte	0
 375 003d 06       		.uleb128 0x6
 376 003e 2E       		.uleb128 0x2e
 377 003f 01       		.byte	0x1
 378 0040 3F       		.uleb128 0x3f
 379 0041 19       		.uleb128 0x19
 380 0042 03       		.uleb128 0x3
 381 0043 0E       		.uleb128 0xe
 382 0044 3A       		.uleb128 0x3a
 383 0045 0B       		.uleb128 0xb
 384 0046 3B       		.uleb128 0x3b
 385 0047 0B       		.uleb128 0xb
 386 0048 27       		.uleb128 0x27
 387 0049 19       		.uleb128 0x19
 388 004a 11       		.uleb128 0x11
 389 004b 01       		.uleb128 0x1
 390 004c 12       		.uleb128 0x12
 391 004d 06       		.uleb128 0x6
 392 004e 40       		.uleb128 0x40
 393 004f 18       		.uleb128 0x18
 394 0050 9742     		.uleb128 0x2117
 395 0052 19       		.uleb128 0x19
 396 0053 01       		.uleb128 0x1
 397 0054 13       		.uleb128 0x13
 398 0055 00       		.byte	0
 399 0056 00       		.byte	0
 400 0057 07       		.uleb128 0x7
 401 0058 05       		.uleb128 0x5
 402 0059 00       		.byte	0
 403 005a 03       		.uleb128 0x3
 404 005b 0E       		.uleb128 0xe
 405 005c 3A       		.uleb128 0x3a
 406 005d 0B       		.uleb128 0xb
 407 005e 3B       		.uleb128 0x3b
 408 005f 0B       		.uleb128 0xb
 409 0060 49       		.uleb128 0x49
 410 0061 13       		.uleb128 0x13
 411 0062 02       		.uleb128 0x2
 412 0063 17       		.uleb128 0x17
 413 0064 00       		.byte	0
 414 0065 00       		.byte	0
 415 0066 08       		.uleb128 0x8
 416 0067 0B       		.uleb128 0xb
 417 0068 01       		.byte	0x1
 418 0069 11       		.uleb128 0x11
 419 006a 01       		.uleb128 0x1
 420 006b 12       		.uleb128 0x12
 421 006c 06       		.uleb128 0x6
ARM GAS  C:\Users\CHUNGN~1\AppData\Local\Temp\ccagALy8.s 			page 9


 422 006d 01       		.uleb128 0x1
 423 006e 13       		.uleb128 0x13
 424 006f 00       		.byte	0
 425 0070 00       		.byte	0
 426 0071 09       		.uleb128 0x9
 427 0072 34       		.uleb128 0x34
 428 0073 00       		.byte	0
 429 0074 03       		.uleb128 0x3
 430 0075 08       		.uleb128 0x8
 431 0076 3A       		.uleb128 0x3a
 432 0077 0B       		.uleb128 0xb
 433 0078 3B       		.uleb128 0x3b
 434 0079 0B       		.uleb128 0xb
 435 007a 49       		.uleb128 0x49
 436 007b 13       		.uleb128 0x13
 437 007c 02       		.uleb128 0x2
 438 007d 17       		.uleb128 0x17
 439 007e 00       		.byte	0
 440 007f 00       		.byte	0
 441 0080 0A       		.uleb128 0xa
 442 0081 898201   		.uleb128 0x4109
 443 0084 01       		.byte	0x1
 444 0085 11       		.uleb128 0x11
 445 0086 01       		.uleb128 0x1
 446 0087 31       		.uleb128 0x31
 447 0088 13       		.uleb128 0x13
 448 0089 01       		.uleb128 0x1
 449 008a 13       		.uleb128 0x13
 450 008b 00       		.byte	0
 451 008c 00       		.byte	0
 452 008d 0B       		.uleb128 0xb
 453 008e 8A8201   		.uleb128 0x410a
 454 0091 00       		.byte	0
 455 0092 02       		.uleb128 0x2
 456 0093 18       		.uleb128 0x18
 457 0094 9142     		.uleb128 0x2111
 458 0096 18       		.uleb128 0x18
 459 0097 00       		.byte	0
 460 0098 00       		.byte	0
 461 0099 0C       		.uleb128 0xc
 462 009a 898201   		.uleb128 0x4109
 463 009d 01       		.byte	0x1
 464 009e 11       		.uleb128 0x11
 465 009f 01       		.uleb128 0x1
 466 00a0 31       		.uleb128 0x31
 467 00a1 13       		.uleb128 0x13
 468 00a2 00       		.byte	0
 469 00a3 00       		.byte	0
 470 00a4 0D       		.uleb128 0xd
 471 00a5 898201   		.uleb128 0x4109
 472 00a8 00       		.byte	0
 473 00a9 11       		.uleb128 0x11
 474 00aa 01       		.uleb128 0x1
 475 00ab 31       		.uleb128 0x31
 476 00ac 13       		.uleb128 0x13
 477 00ad 00       		.byte	0
 478 00ae 00       		.byte	0
ARM GAS  C:\Users\CHUNGN~1\AppData\Local\Temp\ccagALy8.s 			page 10


 479 00af 0E       		.uleb128 0xe
 480 00b0 2E       		.uleb128 0x2e
 481 00b1 01       		.byte	0x1
 482 00b2 3F       		.uleb128 0x3f
 483 00b3 19       		.uleb128 0x19
 484 00b4 03       		.uleb128 0x3
 485 00b5 0E       		.uleb128 0xe
 486 00b6 3A       		.uleb128 0x3a
 487 00b7 0B       		.uleb128 0xb
 488 00b8 3B       		.uleb128 0x3b
 489 00b9 0B       		.uleb128 0xb
 490 00ba 27       		.uleb128 0x27
 491 00bb 19       		.uleb128 0x19
 492 00bc 49       		.uleb128 0x49
 493 00bd 13       		.uleb128 0x13
 494 00be 11       		.uleb128 0x11
 495 00bf 01       		.uleb128 0x1
 496 00c0 12       		.uleb128 0x12
 497 00c1 06       		.uleb128 0x6
 498 00c2 40       		.uleb128 0x40
 499 00c3 18       		.uleb128 0x18
 500 00c4 9742     		.uleb128 0x2117
 501 00c6 19       		.uleb128 0x19
 502 00c7 01       		.uleb128 0x1
 503 00c8 13       		.uleb128 0x13
 504 00c9 00       		.byte	0
 505 00ca 00       		.byte	0
 506 00cb 0F       		.uleb128 0xf
 507 00cc 05       		.uleb128 0x5
 508 00cd 00       		.byte	0
 509 00ce 03       		.uleb128 0x3
 510 00cf 0E       		.uleb128 0xe
 511 00d0 3A       		.uleb128 0x3a
 512 00d1 0B       		.uleb128 0xb
 513 00d2 3B       		.uleb128 0x3b
 514 00d3 0B       		.uleb128 0xb
 515 00d4 49       		.uleb128 0x49
 516 00d5 13       		.uleb128 0x13
 517 00d6 02       		.uleb128 0x2
 518 00d7 18       		.uleb128 0x18
 519 00d8 00       		.byte	0
 520 00d9 00       		.byte	0
 521 00da 10       		.uleb128 0x10
 522 00db 34       		.uleb128 0x34
 523 00dc 00       		.byte	0
 524 00dd 03       		.uleb128 0x3
 525 00de 0E       		.uleb128 0xe
 526 00df 3A       		.uleb128 0x3a
 527 00e0 0B       		.uleb128 0xb
 528 00e1 3B       		.uleb128 0x3b
 529 00e2 0B       		.uleb128 0xb
 530 00e3 49       		.uleb128 0x49
 531 00e4 13       		.uleb128 0x13
 532 00e5 3F       		.uleb128 0x3f
 533 00e6 19       		.uleb128 0x19
 534 00e7 02       		.uleb128 0x2
 535 00e8 18       		.uleb128 0x18
ARM GAS  C:\Users\CHUNGN~1\AppData\Local\Temp\ccagALy8.s 			page 11


 536 00e9 00       		.byte	0
 537 00ea 00       		.byte	0
 538 00eb 11       		.uleb128 0x11
 539 00ec 2E       		.uleb128 0x2e
 540 00ed 00       		.byte	0
 541 00ee 3F       		.uleb128 0x3f
 542 00ef 19       		.uleb128 0x19
 543 00f0 3C       		.uleb128 0x3c
 544 00f1 19       		.uleb128 0x19
 545 00f2 6E       		.uleb128 0x6e
 546 00f3 0E       		.uleb128 0xe
 547 00f4 03       		.uleb128 0x3
 548 00f5 0E       		.uleb128 0xe
 549 00f6 3A       		.uleb128 0x3a
 550 00f7 0B       		.uleb128 0xb
 551 00f8 3B       		.uleb128 0x3b
 552 00f9 05       		.uleb128 0x5
 553 00fa 00       		.byte	0
 554 00fb 00       		.byte	0
 555 00fc 12       		.uleb128 0x12
 556 00fd 2E       		.uleb128 0x2e
 557 00fe 00       		.byte	0
 558 00ff 3F       		.uleb128 0x3f
 559 0100 19       		.uleb128 0x19
 560 0101 3C       		.uleb128 0x3c
 561 0102 19       		.uleb128 0x19
 562 0103 6E       		.uleb128 0x6e
 563 0104 0E       		.uleb128 0xe
 564 0105 03       		.uleb128 0x3
 565 0106 0E       		.uleb128 0xe
 566 0107 3A       		.uleb128 0x3a
 567 0108 0B       		.uleb128 0xb
 568 0109 3B       		.uleb128 0x3b
 569 010a 0B       		.uleb128 0xb
 570 010b 00       		.byte	0
 571 010c 00       		.byte	0
 572 010d 00       		.byte	0
 573              		.section	.debug_loc,"",%progbits
 574              	.Ldebug_loc0:
 575              	.LLST0:
 576 0000 00000000 		.4byte	.LVL0
 577 0004 07000000 		.4byte	.LVL1-1
 578 0008 0100     		.2byte	0x1
 579 000a 50       		.byte	0x50
 580 000b 07000000 		.4byte	.LVL1-1
 581 000f 28000000 		.4byte	.LVL8
 582 0013 0100     		.2byte	0x1
 583 0015 55       		.byte	0x55
 584 0016 28000000 		.4byte	.LVL8
 585 001a 2A000000 		.4byte	.LFE32
 586 001e 0400     		.2byte	0x4
 587 0020 F3       		.byte	0xf3
 588 0021 01       		.uleb128 0x1
 589 0022 50       		.byte	0x50
 590 0023 9F       		.byte	0x9f
 591 0024 00000000 		.4byte	0
 592 0028 00000000 		.4byte	0
ARM GAS  C:\Users\CHUNGN~1\AppData\Local\Temp\ccagALy8.s 			page 12


 593              	.LLST1:
 594 002c 08000000 		.4byte	.LVL1
 595 0030 0C000000 		.4byte	.LVL2
 596 0034 0200     		.2byte	0x2
 597 0036 30       		.byte	0x30
 598 0037 9F       		.byte	0x9f
 599 0038 0C000000 		.4byte	.LVL2
 600 003c 22000000 		.4byte	.LVL5
 601 0040 0100     		.2byte	0x1
 602 0042 54       		.byte	0x54
 603 0043 24000000 		.4byte	.LVL6
 604 0047 28000000 		.4byte	.LVL7
 605 004b 0100     		.2byte	0x1
 606 004d 54       		.byte	0x54
 607 004e 00000000 		.4byte	0
 608 0052 00000000 		.4byte	0
 609              	.LLST2:
 610 0056 00000000 		.4byte	.LVL9
 611 005a 02000000 		.4byte	.LVL10
 612 005e 0100     		.2byte	0x1
 613 0060 50       		.byte	0x50
 614 0061 02000000 		.4byte	.LVL10
 615 0065 04000000 		.4byte	.LFE33
 616 0069 0400     		.2byte	0x4
 617 006b F3       		.byte	0xf3
 618 006c 01       		.uleb128 0x1
 619 006d 50       		.byte	0x50
 620 006e 9F       		.byte	0x9f
 621 006f 00000000 		.4byte	0
 622 0073 00000000 		.4byte	0
 623              		.section	.debug_aranges,"",%progbits
 624 0000 24000000 		.4byte	0x24
 625 0004 0200     		.2byte	0x2
 626 0006 00000000 		.4byte	.Ldebug_info0
 627 000a 04       		.byte	0x4
 628 000b 00       		.byte	0
 629 000c 0000     		.2byte	0
 630 000e 0000     		.2byte	0
 631 0010 00000000 		.4byte	.LFB32
 632 0014 2A000000 		.4byte	.LFE32-.LFB32
 633 0018 00000000 		.4byte	.LFB33
 634 001c 04000000 		.4byte	.LFE33-.LFB33
 635 0020 00000000 		.4byte	0
 636 0024 00000000 		.4byte	0
 637              		.section	.debug_ranges,"",%progbits
 638              	.Ldebug_ranges0:
 639 0000 00000000 		.4byte	.LFB32
 640 0004 2A000000 		.4byte	.LFE32
 641 0008 00000000 		.4byte	.LFB33
 642 000c 04000000 		.4byte	.LFE33
 643 0010 00000000 		.4byte	0
 644 0014 00000000 		.4byte	0
 645              		.section	.debug_line,"",%progbits
 646              	.Ldebug_line0:
 647 0000 8F010000 		.section	.debug_str,"MS",%progbits,1
 647      02005301 
 647      00000201 
ARM GAS  C:\Users\CHUNGN~1\AppData\Local\Temp\ccagALy8.s 			page 13


 647      FB0E0D00 
 647      01010101 
 648              	.LASF5:
 649 0000 5F5F7569 		.ascii	"__uint8_t\000"
 649      6E74385F 
 649      7400
 650              	.LASF22:
 651 000a 43795379 		.ascii	"CySysTickSetCallback\000"
 651      73546963 
 651      6B536574 
 651      43616C6C 
 651      6261636B 
 652              	.LASF26:
 653 001f 453A5C5F 		.ascii	"E:\\_MAKIPOS\\Gesture\\Code_PSoC\\Workspace01\\APDS"
 653      4D414B49 
 653      504F535C 
 653      47657374 
 653      7572655C 
 654 004d 39393630 		.ascii	"9960.cydsn\000"
 654      2E637964 
 654      736E00
 655              	.LASF2:
 656 0058 73686F72 		.ascii	"short int\000"
 656      7420696E 
 656      7400
 657              	.LASF13:
 658 0062 666C6F61 		.ascii	"float\000"
 658      7400
 659              	.LASF19:
 660 0068 6E657754 		.ascii	"newTime\000"
 660      696D6500 
 661              	.LASF1:
 662 0070 756E7369 		.ascii	"unsigned char\000"
 662      676E6564 
 662      20636861 
 662      7200
 663              	.LASF23:
 664 007e 43795379 		.ascii	"CySysTickStart\000"
 664      73546963 
 664      6B537461 
 664      727400
 665              	.LASF7:
 666 008d 6C6F6E67 		.ascii	"long unsigned int\000"
 666      20756E73 
 666      69676E65 
 666      6420696E 
 666      7400
 667              	.LASF3:
 668 009f 73686F72 		.ascii	"short unsigned int\000"
 668      7420756E 
 668      7369676E 
 668      65642069 
 668      6E7400
 669              	.LASF14:
 670 00b2 646F7562 		.ascii	"double\000"
 670      6C6500
 671              	.LASF18:
ARM GAS  C:\Users\CHUNGN~1\AppData\Local\Temp\ccagALy8.s 			page 14


 672 00b9 66756E63 		.ascii	"func\000"
 672      00
 673              	.LASF6:
 674 00be 5F5F7569 		.ascii	"__uint32_t\000"
 674      6E743332 
 674      5F7400
 675              	.LASF25:
 676 00c9 6D794C69 		.ascii	"myLib\\sysTickISR\\sysTickIsr.c\000"
 676      625C7379 
 676      73546963 
 676      6B495352 
 676      5C737973 
 677              	.LASF10:
 678 00e7 756E7369 		.ascii	"unsigned int\000"
 678      676E6564 
 678      20696E74 
 678      00
 679              	.LASF9:
 680 00f4 6C6F6E67 		.ascii	"long long unsigned int\000"
 680      206C6F6E 
 680      6720756E 
 680      7369676E 
 680      65642069 
 681              	.LASF11:
 682 010b 75696E74 		.ascii	"uint8_t\000"
 682      385F7400 
 683              	.LASF24:
 684 0113 474E5520 		.ascii	"GNU C11 5.4.1 20160609 (release) [ARM/embedded-5-br"
 684      43313120 
 684      352E342E 
 684      31203230 
 684      31363036 
 685 0146 616E6368 		.ascii	"anch revision 237715] -mcpu=cortex-m0 -mthumb -g -O"
 685      20726576 
 685      6973696F 
 685      6E203233 
 685      37373135 
 686 0179 67202D66 		.ascii	"g -ffunction-sections -ffat-lto-objects\000"
 686      66756E63 
 686      74696F6E 
 686      2D736563 
 686      74696F6E 
 687              	.LASF17:
 688 01a1 73697A65 		.ascii	"sizetype\000"
 688      74797065 
 688      00
 689              	.LASF8:
 690 01aa 6C6F6E67 		.ascii	"long long int\000"
 690      206C6F6E 
 690      6720696E 
 690      7400
 691              	.LASF15:
 692 01b8 63686172 		.ascii	"char\000"
 692      00
 693              	.LASF28:
 694 01bd 656C6170 		.ascii	"elapstime\000"
 694      7374696D 
ARM GAS  C:\Users\CHUNGN~1\AppData\Local\Temp\ccagALy8.s 			page 15


 694      6500
 695              	.LASF21:
 696 01c7 43795379 		.ascii	"CySysTickGetCallback\000"
 696      73546963 
 696      6B476574 
 696      43616C6C 
 696      6261636B 
 697              	.LASF29:
 698 01dc 675F5379 		.ascii	"g_SysTime\000"
 698      7354696D 
 698      6500
 699              	.LASF12:
 700 01e6 75696E74 		.ascii	"uint32_t\000"
 700      33325F74 
 700      00
 701              	.LASF4:
 702 01ef 6C6F6E67 		.ascii	"long int\000"
 702      20696E74 
 702      00
 703              	.LASF16:
 704 01f8 6C6F6E67 		.ascii	"long double\000"
 704      20646F75 
 704      626C6500 
 705              	.LASF0:
 706 0204 7369676E 		.ascii	"signed char\000"
 706      65642063 
 706      68617200 
 707              	.LASF27:
 708 0210 53595354 		.ascii	"SYSTICK_regSysTickISRCallback\000"
 708      49434B5F 
 708      72656753 
 708      79735469 
 708      636B4953 
 709              	.LASF20:
 710 022e 6F6C6454 		.ascii	"oldTime\000"
 710      696D6500 
 711              		.ident	"GCC: (GNU Tools for ARM Embedded Processors) 5.4.1 20160609 (release) [ARM/embedded-5-bran
